{
  "build": "py_0",
  "build_number": 0,
  "channel": "https://repo.anaconda.com/pkgs/main/noarch",
  "constrains": [],
  "depends": [
    "python"
  ],
  "extracted_package_dir": "/home/samuel/anaconda3/pkgs/decorator-4.4.2-py_0",
  "features": "",
  "files": [
    "lib/python3.7/site-packages/decorator-4.4.2.dist-info/INSTALLER",
    "lib/python3.7/site-packages/decorator-4.4.2.dist-info/LICENSE.txt",
    "lib/python3.7/site-packages/decorator-4.4.2.dist-info/METADATA",
    "lib/python3.7/site-packages/decorator-4.4.2.dist-info/RECORD",
    "lib/python3.7/site-packages/decorator-4.4.2.dist-info/WHEEL",
    "lib/python3.7/site-packages/decorator-4.4.2.dist-info/pbr.json",
    "lib/python3.7/site-packages/decorator-4.4.2.dist-info/top_level.txt",
    "lib/python3.7/site-packages/decorator.py",
    "lib/python3.7/site-packages/__pycache__/decorator.cpython-37.pyc"
  ],
  "fn": "decorator-4.4.2-py_0.conda",
  "legacy_bz2_md5": "4e298eec53d4a26726195d61ae144faf",
  "license": "BSD-3-Clause",
  "link": {
    "source": "/home/samuel/anaconda3/pkgs/decorator-4.4.2-py_0",
    "type": 1
  },
  "md5": "3f5146ff080437ecb0e1583a6021c634",
  "name": "decorator",
  "noarch": "python",
  "package_tarball_full_path": "/home/samuel/anaconda3/pkgs/decorator-4.4.2-py_0.conda",
  "package_type": "noarch_python",
  "paths_data": {
    "paths": [
      {
        "_path": "site-packages/decorator-4.4.2.dist-info/INSTALLER",
        "path_type": "hardlink",
        "sha256": "d0edee15f91b406f3f99726e44eb990be6e34fd0345b52b910c568e0eef6a2a8",
        "sha256_in_prefix": "d0edee15f91b406f3f99726e44eb990be6e34fd0345b52b910c568e0eef6a2a8",
        "size_in_bytes": 5
      },
      {
        "_path": "site-packages/decorator-4.4.2.dist-info/LICENSE.txt",
        "path_type": "hardlink",
        "sha256": "fd11660cabf0532082c45706862fafc294907ec7f8e217818240a4999806782e",
        "sha256_in_prefix": "fd11660cabf0532082c45706862fafc294907ec7f8e217818240a4999806782e",
        "size_in_bytes": 1309
      },
      {
        "_path": "site-packages/decorator-4.4.2.dist-info/METADATA",
        "path_type": "hardlink",
        "sha256": "4582e1e50cbc5f360e720093e91b08fdc4d71bf3c4d50be80154febb6beeb3cd",
        "sha256_in_prefix": "4582e1e50cbc5f360e720093e91b08fdc4d71bf3c4d50be80154febb6beeb3cd",
        "size_in_bytes": 4168
      },
      {
        "_path": "site-packages/decorator-4.4.2.dist-info/RECORD",
        "path_type": "hardlink",
        "sha256": "55e60610a117a6d7150b597c456a2e1d4081dcf11faa951f473e862afb5e4910",
        "sha256_in_prefix": "55e60610a117a6d7150b597c456a2e1d4081dcf11faa951f473e862afb5e4910",
        "size_in_bytes": 697
      },
      {
        "_path": "site-packages/decorator-4.4.2.dist-info/WHEEL",
        "path_type": "hardlink",
        "sha256": "9064fbe0b5b245466b2f85602e1ebf835d8879597ff6ef5956169dae05d95046",
        "sha256_in_prefix": "9064fbe0b5b245466b2f85602e1ebf835d8879597ff6ef5956169dae05d95046",
        "size_in_bytes": 110
      },
      {
        "_path": "site-packages/decorator-4.4.2.dist-info/pbr.json",
        "path_type": "hardlink",
        "sha256": "00bf38a14516407c2477c3823e12d1a363498d4e4c0dd99732a447bfea68b2ab",
        "sha256_in_prefix": "00bf38a14516407c2477c3823e12d1a363498d4e4c0dd99732a447bfea68b2ab",
        "size_in_bytes": 47
      },
      {
        "_path": "site-packages/decorator-4.4.2.dist-info/top_level.txt",
        "path_type": "hardlink",
        "sha256": "2a7e9e423a3cddcb56c5757204c398b74fd8a634630739ca615b8dcae0bf0d22",
        "sha256_in_prefix": "2a7e9e423a3cddcb56c5757204c398b74fd8a634630739ca615b8dcae0bf0d22",
        "size_in_bytes": 10
      },
      {
        "_path": "site-packages/decorator.py",
        "path_type": "hardlink",
        "sha256": "690f0ecdcf842b6eb1053397551e40fbc4b3831f7dfdb85a7b165218d9f7f187",
        "sha256_in_prefix": "690f0ecdcf842b6eb1053397551e40fbc4b3831f7dfdb85a7b165218d9f7f187",
        "size_in_bytes": 17222
      },
      {
        "_path": "lib/python3.7/site-packages/__pycache__/decorator.cpython-37.pyc",
        "path_type": "pyc_file"
      }
    ],
    "paths_version": 1
  },
  "requested_spec": "None",
  "sha256": "d891054eeab74502ce4ecc9fda670149c533eeade16bd20b19ff6e3ab928bac6",
  "size": 14224,
  "subdir": "noarch",
  "timestamp": 1584027029921,
  "track_features": "",
  "url": "https://repo.anaconda.com/pkgs/main/noarch/decorator-4.4.2-py_0.conda",
  "version": "4.4.2"
}