{
  "build": "py_0",
  "build_number": 0,
  "channel": "https://conda.anaconda.org/anaconda/noarch",
  "constrains": [],
  "depends": [
    "python",
    "setuptools"
  ],
  "extracted_package_dir": "/home/samuel/anaconda3/pkgs/joblib-0.14.1-py_0",
  "features": "",
  "files": [
    "lib/python3.7/site-packages/joblib-0.14.1.dist-info/INSTALLER",
    "lib/python3.7/site-packages/joblib-0.14.1.dist-info/LICENSE.txt",
    "lib/python3.7/site-packages/joblib-0.14.1.dist-info/METADATA",
    "lib/python3.7/site-packages/joblib-0.14.1.dist-info/RECORD",
    "lib/python3.7/site-packages/joblib-0.14.1.dist-info/WHEEL",
    "lib/python3.7/site-packages/joblib-0.14.1.dist-info/top_level.txt",
    "lib/python3.7/site-packages/joblib/__init__.py",
    "lib/python3.7/site-packages/joblib/_compat.py",
    "lib/python3.7/site-packages/joblib/_dask.py",
    "lib/python3.7/site-packages/joblib/_memmapping_reducer.py",
    "lib/python3.7/site-packages/joblib/_memory_helpers.py",
    "lib/python3.7/site-packages/joblib/_multiprocessing_helpers.py",
    "lib/python3.7/site-packages/joblib/_parallel_backends.py",
    "lib/python3.7/site-packages/joblib/_store_backends.py",
    "lib/python3.7/site-packages/joblib/backports.py",
    "lib/python3.7/site-packages/joblib/compressor.py",
    "lib/python3.7/site-packages/joblib/disk.py",
    "lib/python3.7/site-packages/joblib/executor.py",
    "lib/python3.7/site-packages/joblib/externals/__init__.py",
    "lib/python3.7/site-packages/joblib/externals/cloudpickle/__init__.py",
    "lib/python3.7/site-packages/joblib/externals/cloudpickle/cloudpickle.py",
    "lib/python3.7/site-packages/joblib/externals/cloudpickle/cloudpickle_fast.py",
    "lib/python3.7/site-packages/joblib/externals/loky/__init__.py",
    "lib/python3.7/site-packages/joblib/externals/loky/_base.py",
    "lib/python3.7/site-packages/joblib/externals/loky/backend/__init__.py",
    "lib/python3.7/site-packages/joblib/externals/loky/backend/_posix_reduction.py",
    "lib/python3.7/site-packages/joblib/externals/loky/backend/_posix_wait.py",
    "lib/python3.7/site-packages/joblib/externals/loky/backend/_win_reduction.py",
    "lib/python3.7/site-packages/joblib/externals/loky/backend/_win_wait.py",
    "lib/python3.7/site-packages/joblib/externals/loky/backend/compat.py",
    "lib/python3.7/site-packages/joblib/externals/loky/backend/compat_posix.py",
    "lib/python3.7/site-packages/joblib/externals/loky/backend/compat_win32.py",
    "lib/python3.7/site-packages/joblib/externals/loky/backend/context.py",
    "lib/python3.7/site-packages/joblib/externals/loky/backend/fork_exec.py",
    "lib/python3.7/site-packages/joblib/externals/loky/backend/managers.py",
    "lib/python3.7/site-packages/joblib/externals/loky/backend/popen_loky_posix.py",
    "lib/python3.7/site-packages/joblib/externals/loky/backend/popen_loky_win32.py",
    "lib/python3.7/site-packages/joblib/externals/loky/backend/process.py",
    "lib/python3.7/site-packages/joblib/externals/loky/backend/queues.py",
    "lib/python3.7/site-packages/joblib/externals/loky/backend/reduction.py",
    "lib/python3.7/site-packages/joblib/externals/loky/backend/resource_tracker.py",
    "lib/python3.7/site-packages/joblib/externals/loky/backend/semlock.py",
    "lib/python3.7/site-packages/joblib/externals/loky/backend/spawn.py",
    "lib/python3.7/site-packages/joblib/externals/loky/backend/synchronize.py",
    "lib/python3.7/site-packages/joblib/externals/loky/backend/utils.py",
    "lib/python3.7/site-packages/joblib/externals/loky/cloudpickle_wrapper.py",
    "lib/python3.7/site-packages/joblib/externals/loky/process_executor.py",
    "lib/python3.7/site-packages/joblib/externals/loky/reusable_executor.py",
    "lib/python3.7/site-packages/joblib/format_stack.py",
    "lib/python3.7/site-packages/joblib/func_inspect.py",
    "lib/python3.7/site-packages/joblib/hashing.py",
    "lib/python3.7/site-packages/joblib/logger.py",
    "lib/python3.7/site-packages/joblib/memory.py",
    "lib/python3.7/site-packages/joblib/my_exceptions.py",
    "lib/python3.7/site-packages/joblib/numpy_pickle.py",
    "lib/python3.7/site-packages/joblib/numpy_pickle_compat.py",
    "lib/python3.7/site-packages/joblib/numpy_pickle_utils.py",
    "lib/python3.7/site-packages/joblib/parallel.py",
    "lib/python3.7/site-packages/joblib/pool.py",
    "lib/python3.7/site-packages/joblib/test/__init__.py",
    "lib/python3.7/site-packages/joblib/test/common.py",
    "lib/python3.7/site-packages/joblib/test/data/__init__.py",
    "lib/python3.7/site-packages/joblib/test/data/create_numpy_pickle.py",
    "lib/python3.7/site-packages/joblib/test/data/joblib_0.10.0_compressed_pickle_py27_np16.gz",
    "lib/python3.7/site-packages/joblib/test/data/joblib_0.10.0_compressed_pickle_py27_np17.gz",
    "lib/python3.7/site-packages/joblib/test/data/joblib_0.10.0_compressed_pickle_py33_np18.gz",
    "lib/python3.7/site-packages/joblib/test/data/joblib_0.10.0_compressed_pickle_py34_np19.gz",
    "lib/python3.7/site-packages/joblib/test/data/joblib_0.10.0_compressed_pickle_py35_np19.gz",
    "lib/python3.7/site-packages/joblib/test/data/joblib_0.10.0_pickle_py27_np16.pkl",
    "lib/python3.7/site-packages/joblib/test/data/joblib_0.10.0_pickle_py27_np16.pkl.bz2",
    "lib/python3.7/site-packages/joblib/test/data/joblib_0.10.0_pickle_py27_np16.pkl.gzip",
    "lib/python3.7/site-packages/joblib/test/data/joblib_0.10.0_pickle_py27_np17.pkl",
    "lib/python3.7/site-packages/joblib/test/data/joblib_0.10.0_pickle_py27_np17.pkl.bz2",
    "lib/python3.7/site-packages/joblib/test/data/joblib_0.10.0_pickle_py27_np17.pkl.gzip",
    "lib/python3.7/site-packages/joblib/test/data/joblib_0.10.0_pickle_py27_np17.pkl.lzma",
    "lib/python3.7/site-packages/joblib/test/data/joblib_0.10.0_pickle_py27_np17.pkl.xz",
    "lib/python3.7/site-packages/joblib/test/data/joblib_0.10.0_pickle_py33_np18.pkl",
    "lib/python3.7/site-packages/joblib/test/data/joblib_0.10.0_pickle_py33_np18.pkl.bz2",
    "lib/python3.7/site-packages/joblib/test/data/joblib_0.10.0_pickle_py33_np18.pkl.gzip",
    "lib/python3.7/site-packages/joblib/test/data/joblib_0.10.0_pickle_py33_np18.pkl.lzma",
    "lib/python3.7/site-packages/joblib/test/data/joblib_0.10.0_pickle_py33_np18.pkl.xz",
    "lib/python3.7/site-packages/joblib/test/data/joblib_0.10.0_pickle_py34_np19.pkl",
    "lib/python3.7/site-packages/joblib/test/data/joblib_0.10.0_pickle_py34_np19.pkl.bz2",
    "lib/python3.7/site-packages/joblib/test/data/joblib_0.10.0_pickle_py34_np19.pkl.gzip",
    "lib/python3.7/site-packages/joblib/test/data/joblib_0.10.0_pickle_py34_np19.pkl.lzma",
    "lib/python3.7/site-packages/joblib/test/data/joblib_0.10.0_pickle_py34_np19.pkl.xz",
    "lib/python3.7/site-packages/joblib/test/data/joblib_0.10.0_pickle_py35_np19.pkl",
    "lib/python3.7/site-packages/joblib/test/data/joblib_0.10.0_pickle_py35_np19.pkl.bz2",
    "lib/python3.7/site-packages/joblib/test/data/joblib_0.10.0_pickle_py35_np19.pkl.gzip",
    "lib/python3.7/site-packages/joblib/test/data/joblib_0.10.0_pickle_py35_np19.pkl.lzma",
    "lib/python3.7/site-packages/joblib/test/data/joblib_0.10.0_pickle_py35_np19.pkl.xz",
    "lib/python3.7/site-packages/joblib/test/data/joblib_0.11.0_compressed_pickle_py36_np111.gz",
    "lib/python3.7/site-packages/joblib/test/data/joblib_0.11.0_pickle_py36_np111.pkl",
    "lib/python3.7/site-packages/joblib/test/data/joblib_0.11.0_pickle_py36_np111.pkl.bz2",
    "lib/python3.7/site-packages/joblib/test/data/joblib_0.11.0_pickle_py36_np111.pkl.gzip",
    "lib/python3.7/site-packages/joblib/test/data/joblib_0.11.0_pickle_py36_np111.pkl.lzma",
    "lib/python3.7/site-packages/joblib/test/data/joblib_0.11.0_pickle_py36_np111.pkl.xz",
    "lib/python3.7/site-packages/joblib/test/data/joblib_0.8.4_compressed_pickle_py27_np17.gz",
    "lib/python3.7/site-packages/joblib/test/data/joblib_0.9.2_compressed_pickle_py27_np16.gz",
    "lib/python3.7/site-packages/joblib/test/data/joblib_0.9.2_compressed_pickle_py27_np17.gz",
    "lib/python3.7/site-packages/joblib/test/data/joblib_0.9.2_compressed_pickle_py34_np19.gz",
    "lib/python3.7/site-packages/joblib/test/data/joblib_0.9.2_compressed_pickle_py35_np19.gz",
    "lib/python3.7/site-packages/joblib/test/data/joblib_0.9.2_pickle_py27_np16.pkl",
    "lib/python3.7/site-packages/joblib/test/data/joblib_0.9.2_pickle_py27_np16.pkl_01.npy",
    "lib/python3.7/site-packages/joblib/test/data/joblib_0.9.2_pickle_py27_np16.pkl_02.npy",
    "lib/python3.7/site-packages/joblib/test/data/joblib_0.9.2_pickle_py27_np16.pkl_03.npy",
    "lib/python3.7/site-packages/joblib/test/data/joblib_0.9.2_pickle_py27_np16.pkl_04.npy",
    "lib/python3.7/site-packages/joblib/test/data/joblib_0.9.2_pickle_py27_np17.pkl",
    "lib/python3.7/site-packages/joblib/test/data/joblib_0.9.2_pickle_py27_np17.pkl_01.npy",
    "lib/python3.7/site-packages/joblib/test/data/joblib_0.9.2_pickle_py27_np17.pkl_02.npy",
    "lib/python3.7/site-packages/joblib/test/data/joblib_0.9.2_pickle_py27_np17.pkl_03.npy",
    "lib/python3.7/site-packages/joblib/test/data/joblib_0.9.2_pickle_py27_np17.pkl_04.npy",
    "lib/python3.7/site-packages/joblib/test/data/joblib_0.9.2_pickle_py33_np18.pkl",
    "lib/python3.7/site-packages/joblib/test/data/joblib_0.9.2_pickle_py33_np18.pkl_01.npy",
    "lib/python3.7/site-packages/joblib/test/data/joblib_0.9.2_pickle_py33_np18.pkl_02.npy",
    "lib/python3.7/site-packages/joblib/test/data/joblib_0.9.2_pickle_py33_np18.pkl_03.npy",
    "lib/python3.7/site-packages/joblib/test/data/joblib_0.9.2_pickle_py33_np18.pkl_04.npy",
    "lib/python3.7/site-packages/joblib/test/data/joblib_0.9.2_pickle_py34_np19.pkl",
    "lib/python3.7/site-packages/joblib/test/data/joblib_0.9.2_pickle_py34_np19.pkl_01.npy",
    "lib/python3.7/site-packages/joblib/test/data/joblib_0.9.2_pickle_py34_np19.pkl_02.npy",
    "lib/python3.7/site-packages/joblib/test/data/joblib_0.9.2_pickle_py34_np19.pkl_03.npy",
    "lib/python3.7/site-packages/joblib/test/data/joblib_0.9.2_pickle_py34_np19.pkl_04.npy",
    "lib/python3.7/site-packages/joblib/test/data/joblib_0.9.2_pickle_py35_np19.pkl",
    "lib/python3.7/site-packages/joblib/test/data/joblib_0.9.2_pickle_py35_np19.pkl_01.npy",
    "lib/python3.7/site-packages/joblib/test/data/joblib_0.9.2_pickle_py35_np19.pkl_02.npy",
    "lib/python3.7/site-packages/joblib/test/data/joblib_0.9.2_pickle_py35_np19.pkl_03.npy",
    "lib/python3.7/site-packages/joblib/test/data/joblib_0.9.2_pickle_py35_np19.pkl_04.npy",
    "lib/python3.7/site-packages/joblib/test/data/joblib_0.9.4.dev0_compressed_cache_size_pickle_py35_np19.gz",
    "lib/python3.7/site-packages/joblib/test/data/joblib_0.9.4.dev0_compressed_cache_size_pickle_py35_np19.gz_01.npy.z",
    "lib/python3.7/site-packages/joblib/test/data/joblib_0.9.4.dev0_compressed_cache_size_pickle_py35_np19.gz_02.npy.z",
    "lib/python3.7/site-packages/joblib/test/data/joblib_0.9.4.dev0_compressed_cache_size_pickle_py35_np19.gz_03.npy.z",
    "lib/python3.7/site-packages/joblib/test/test_backports.py",
    "lib/python3.7/site-packages/joblib/test/test_dask.py",
    "lib/python3.7/site-packages/joblib/test/test_disk.py",
    "lib/python3.7/site-packages/joblib/test/test_format_stack.py",
    "lib/python3.7/site-packages/joblib/test/test_func_inspect.py",
    "lib/python3.7/site-packages/joblib/test/test_func_inspect_special_encoding.py",
    "lib/python3.7/site-packages/joblib/test/test_hashing.py",
    "lib/python3.7/site-packages/joblib/test/test_init.py",
    "lib/python3.7/site-packages/joblib/test/test_logger.py",
    "lib/python3.7/site-packages/joblib/test/test_memmapping.py",
    "lib/python3.7/site-packages/joblib/test/test_memory.py",
    "lib/python3.7/site-packages/joblib/test/test_module.py",
    "lib/python3.7/site-packages/joblib/test/test_my_exceptions.py",
    "lib/python3.7/site-packages/joblib/test/test_numpy_pickle.py",
    "lib/python3.7/site-packages/joblib/test/test_numpy_pickle_compat.py",
    "lib/python3.7/site-packages/joblib/test/test_numpy_pickle_utils.py",
    "lib/python3.7/site-packages/joblib/test/test_parallel.py",
    "lib/python3.7/site-packages/joblib/test/test_store_backends.py",
    "lib/python3.7/site-packages/joblib/test/test_testing.py",
    "lib/python3.7/site-packages/joblib/testing.py",
    "lib/python3.7/site-packages/joblib/__pycache__/__init__.cpython-37.pyc",
    "lib/python3.7/site-packages/joblib/__pycache__/_compat.cpython-37.pyc",
    "lib/python3.7/site-packages/joblib/__pycache__/_dask.cpython-37.pyc",
    "lib/python3.7/site-packages/joblib/__pycache__/_memmapping_reducer.cpython-37.pyc",
    "lib/python3.7/site-packages/joblib/__pycache__/_memory_helpers.cpython-37.pyc",
    "lib/python3.7/site-packages/joblib/__pycache__/_multiprocessing_helpers.cpython-37.pyc",
    "lib/python3.7/site-packages/joblib/__pycache__/_parallel_backends.cpython-37.pyc",
    "lib/python3.7/site-packages/joblib/__pycache__/_store_backends.cpython-37.pyc",
    "lib/python3.7/site-packages/joblib/__pycache__/backports.cpython-37.pyc",
    "lib/python3.7/site-packages/joblib/__pycache__/compressor.cpython-37.pyc",
    "lib/python3.7/site-packages/joblib/__pycache__/disk.cpython-37.pyc",
    "lib/python3.7/site-packages/joblib/__pycache__/executor.cpython-37.pyc",
    "lib/python3.7/site-packages/joblib/externals/__pycache__/__init__.cpython-37.pyc",
    "lib/python3.7/site-packages/joblib/externals/cloudpickle/__pycache__/__init__.cpython-37.pyc",
    "lib/python3.7/site-packages/joblib/externals/cloudpickle/__pycache__/cloudpickle.cpython-37.pyc",
    "lib/python3.7/site-packages/joblib/externals/cloudpickle/__pycache__/cloudpickle_fast.cpython-37.pyc",
    "lib/python3.7/site-packages/joblib/externals/loky/__pycache__/__init__.cpython-37.pyc",
    "lib/python3.7/site-packages/joblib/externals/loky/__pycache__/_base.cpython-37.pyc",
    "lib/python3.7/site-packages/joblib/externals/loky/backend/__pycache__/__init__.cpython-37.pyc",
    "lib/python3.7/site-packages/joblib/externals/loky/backend/__pycache__/_posix_reduction.cpython-37.pyc",
    "lib/python3.7/site-packages/joblib/externals/loky/backend/__pycache__/_posix_wait.cpython-37.pyc",
    "lib/python3.7/site-packages/joblib/externals/loky/backend/__pycache__/_win_reduction.cpython-37.pyc",
    "lib/python3.7/site-packages/joblib/externals/loky/backend/__pycache__/_win_wait.cpython-37.pyc",
    "lib/python3.7/site-packages/joblib/externals/loky/backend/__pycache__/compat.cpython-37.pyc",
    "lib/python3.7/site-packages/joblib/externals/loky/backend/__pycache__/compat_posix.cpython-37.pyc",
    "lib/python3.7/site-packages/joblib/externals/loky/backend/__pycache__/compat_win32.cpython-37.pyc",
    "lib/python3.7/site-packages/joblib/externals/loky/backend/__pycache__/context.cpython-37.pyc",
    "lib/python3.7/site-packages/joblib/externals/loky/backend/__pycache__/fork_exec.cpython-37.pyc",
    "lib/python3.7/site-packages/joblib/externals/loky/backend/__pycache__/managers.cpython-37.pyc",
    "lib/python3.7/site-packages/joblib/externals/loky/backend/__pycache__/popen_loky_posix.cpython-37.pyc",
    "lib/python3.7/site-packages/joblib/externals/loky/backend/__pycache__/popen_loky_win32.cpython-37.pyc",
    "lib/python3.7/site-packages/joblib/externals/loky/backend/__pycache__/process.cpython-37.pyc",
    "lib/python3.7/site-packages/joblib/externals/loky/backend/__pycache__/queues.cpython-37.pyc",
    "lib/python3.7/site-packages/joblib/externals/loky/backend/__pycache__/reduction.cpython-37.pyc",
    "lib/python3.7/site-packages/joblib/externals/loky/backend/__pycache__/resource_tracker.cpython-37.pyc",
    "lib/python3.7/site-packages/joblib/externals/loky/backend/__pycache__/semlock.cpython-37.pyc",
    "lib/python3.7/site-packages/joblib/externals/loky/backend/__pycache__/spawn.cpython-37.pyc",
    "lib/python3.7/site-packages/joblib/externals/loky/backend/__pycache__/synchronize.cpython-37.pyc",
    "lib/python3.7/site-packages/joblib/externals/loky/backend/__pycache__/utils.cpython-37.pyc",
    "lib/python3.7/site-packages/joblib/externals/loky/__pycache__/cloudpickle_wrapper.cpython-37.pyc",
    "lib/python3.7/site-packages/joblib/externals/loky/__pycache__/process_executor.cpython-37.pyc",
    "lib/python3.7/site-packages/joblib/externals/loky/__pycache__/reusable_executor.cpython-37.pyc",
    "lib/python3.7/site-packages/joblib/__pycache__/format_stack.cpython-37.pyc",
    "lib/python3.7/site-packages/joblib/__pycache__/func_inspect.cpython-37.pyc",
    "lib/python3.7/site-packages/joblib/__pycache__/hashing.cpython-37.pyc",
    "lib/python3.7/site-packages/joblib/__pycache__/logger.cpython-37.pyc",
    "lib/python3.7/site-packages/joblib/__pycache__/memory.cpython-37.pyc",
    "lib/python3.7/site-packages/joblib/__pycache__/my_exceptions.cpython-37.pyc",
    "lib/python3.7/site-packages/joblib/__pycache__/numpy_pickle.cpython-37.pyc",
    "lib/python3.7/site-packages/joblib/__pycache__/numpy_pickle_compat.cpython-37.pyc",
    "lib/python3.7/site-packages/joblib/__pycache__/numpy_pickle_utils.cpython-37.pyc",
    "lib/python3.7/site-packages/joblib/__pycache__/parallel.cpython-37.pyc",
    "lib/python3.7/site-packages/joblib/__pycache__/pool.cpython-37.pyc",
    "lib/python3.7/site-packages/joblib/test/__pycache__/__init__.cpython-37.pyc",
    "lib/python3.7/site-packages/joblib/test/__pycache__/common.cpython-37.pyc",
    "lib/python3.7/site-packages/joblib/test/data/__pycache__/__init__.cpython-37.pyc",
    "lib/python3.7/site-packages/joblib/test/data/__pycache__/create_numpy_pickle.cpython-37.pyc",
    "lib/python3.7/site-packages/joblib/test/__pycache__/test_backports.cpython-37.pyc",
    "lib/python3.7/site-packages/joblib/test/__pycache__/test_dask.cpython-37.pyc",
    "lib/python3.7/site-packages/joblib/test/__pycache__/test_disk.cpython-37.pyc",
    "lib/python3.7/site-packages/joblib/test/__pycache__/test_format_stack.cpython-37.pyc",
    "lib/python3.7/site-packages/joblib/test/__pycache__/test_func_inspect.cpython-37.pyc",
    "lib/python3.7/site-packages/joblib/test/__pycache__/test_func_inspect_special_encoding.cpython-37.pyc",
    "lib/python3.7/site-packages/joblib/test/__pycache__/test_hashing.cpython-37.pyc",
    "lib/python3.7/site-packages/joblib/test/__pycache__/test_init.cpython-37.pyc",
    "lib/python3.7/site-packages/joblib/test/__pycache__/test_logger.cpython-37.pyc",
    "lib/python3.7/site-packages/joblib/test/__pycache__/test_memmapping.cpython-37.pyc",
    "lib/python3.7/site-packages/joblib/test/__pycache__/test_memory.cpython-37.pyc",
    "lib/python3.7/site-packages/joblib/test/__pycache__/test_module.cpython-37.pyc",
    "lib/python3.7/site-packages/joblib/test/__pycache__/test_my_exceptions.cpython-37.pyc",
    "lib/python3.7/site-packages/joblib/test/__pycache__/test_numpy_pickle.cpython-37.pyc",
    "lib/python3.7/site-packages/joblib/test/__pycache__/test_numpy_pickle_compat.cpython-37.pyc",
    "lib/python3.7/site-packages/joblib/test/__pycache__/test_numpy_pickle_utils.cpython-37.pyc",
    "lib/python3.7/site-packages/joblib/test/__pycache__/test_parallel.cpython-37.pyc",
    "lib/python3.7/site-packages/joblib/test/__pycache__/test_store_backends.cpython-37.pyc",
    "lib/python3.7/site-packages/joblib/test/__pycache__/test_testing.cpython-37.pyc",
    "lib/python3.7/site-packages/joblib/__pycache__/testing.cpython-37.pyc"
  ],
  "fn": "joblib-0.14.1-py_0.tar.bz2",
  "license": "BSD 3-Clause",
  "link": {
    "source": "/home/samuel/anaconda3/pkgs/joblib-0.14.1-py_0",
    "type": 1
  },
  "md5": "e03faf674f7ecc72f6df590a4e741913",
  "name": "joblib",
  "noarch": "python",
  "package_tarball_full_path": "/home/samuel/anaconda3/pkgs/joblib-0.14.1-py_0.tar.bz2",
  "package_type": "noarch_python",
  "paths_data": {
    "paths": [
      {
        "_path": "site-packages/joblib-0.14.1.dist-info/INSTALLER",
        "path_type": "hardlink",
        "sha256": "d0edee15f91b406f3f99726e44eb990be6e34fd0345b52b910c568e0eef6a2a8",
        "sha256_in_prefix": "d0edee15f91b406f3f99726e44eb990be6e34fd0345b52b910c568e0eef6a2a8",
        "size_in_bytes": 5
      },
      {
        "_path": "site-packages/joblib-0.14.1.dist-info/LICENSE.txt",
        "path_type": "hardlink",
        "sha256": "f8e588906bbda073e88e09e4c119c26db6c72c9b059dc3fe7be7e08beff4cbad",
        "sha256_in_prefix": "f8e588906bbda073e88e09e4c119c26db6c72c9b059dc3fe7be7e08beff4cbad",
        "size_in_bytes": 1527
      },
      {
        "_path": "site-packages/joblib-0.14.1.dist-info/METADATA",
        "path_type": "hardlink",
        "sha256": "ce08ee7bbf877f49c98a9480bc9ebfa5ec147d695a6f60b2228fd22d97be251e",
        "sha256_in_prefix": "ce08ee7bbf877f49c98a9480bc9ebfa5ec147d695a6f60b2228fd22d97be251e",
        "size_in_bytes": 4536
      },
      {
        "_path": "site-packages/joblib-0.14.1.dist-info/RECORD",
        "path_type": "hardlink",
        "sha256": "47cd8369f34deae8b9bcaa0da7f6075c8d45b1ab945998b265599b0ffe619bdd",
        "sha256_in_prefix": "47cd8369f34deae8b9bcaa0da7f6075c8d45b1ab945998b265599b0ffe619bdd",
        "size_in_bytes": 18034
      },
      {
        "_path": "site-packages/joblib-0.14.1.dist-info/WHEEL",
        "path_type": "hardlink",
        "sha256": "f3335865bc10497a01f487d73a33df78dc2f02c00b0237df824dbb16abc259ba",
        "sha256_in_prefix": "f3335865bc10497a01f487d73a33df78dc2f02c00b0237df824dbb16abc259ba",
        "size_in_bytes": 110
      },
      {
        "_path": "site-packages/joblib-0.14.1.dist-info/top_level.txt",
        "path_type": "hardlink",
        "sha256": "3f42eca19e398012fb7242f896a42deed75bac70f8c6555885f7e684779e4ff5",
        "sha256_in_prefix": "3f42eca19e398012fb7242f896a42deed75bac70f8c6555885f7e684779e4ff5",
        "size_in_bytes": 7
      },
      {
        "_path": "site-packages/joblib/__init__.py",
        "path_type": "hardlink",
        "sha256": "9948b49d7076c27e29160b628d7099d963695d87a1a796159b1e3002baa2e36c",
        "sha256_in_prefix": "9948b49d7076c27e29160b628d7099d963695d87a1a796159b1e3002baa2e36c",
        "size_in_bytes": 4994
      },
      {
        "_path": "site-packages/joblib/_compat.py",
        "path_type": "hardlink",
        "sha256": "8ffdcda741a8245f5c17b10f534f126df365a1fd73742fda995ed11c1399c967",
        "sha256_in_prefix": "8ffdcda741a8245f5c17b10f534f126df365a1fd73742fda995ed11c1399c967",
        "size_in_bytes": 577
      },
      {
        "_path": "site-packages/joblib/_dask.py",
        "path_type": "hardlink",
        "sha256": "43c5753882252f7a9800ef1d5567a5f6722dea31728f258e627e74bdf94ec7bb",
        "sha256_in_prefix": "43c5753882252f7a9800ef1d5567a5f6722dea31728f258e627e74bdf94ec7bb",
        "size_in_bytes": 10421
      },
      {
        "_path": "site-packages/joblib/_memmapping_reducer.py",
        "path_type": "hardlink",
        "sha256": "8185367a9d77f5088b40d8fef9e20307c212c82ed157d5f533852969155ef574",
        "sha256_in_prefix": "8185367a9d77f5088b40d8fef9e20307c212c82ed157d5f533852969155ef574",
        "size_in_bytes": 17200
      },
      {
        "_path": "site-packages/joblib/_memory_helpers.py",
        "path_type": "hardlink",
        "sha256": "aa810601cdc07165061d1245ea4d237a8b2b6628e85d19857b969ff1b2aa1825",
        "sha256_in_prefix": "aa810601cdc07165061d1245ea4d237a8b2b6628e85d19857b969ff1b2aa1825",
        "size_in_bytes": 3607
      },
      {
        "_path": "site-packages/joblib/_multiprocessing_helpers.py",
        "path_type": "hardlink",
        "sha256": "b114ab4d2a91363e9ff5bec25f8a038de2ea79235f0e383cd2f7eeab7b335f78",
        "sha256_in_prefix": "b114ab4d2a91363e9ff5bec25f8a038de2ea79235f0e383cd2f7eeab7b335f78",
        "size_in_bytes": 2250
      },
      {
        "_path": "site-packages/joblib/_parallel_backends.py",
        "path_type": "hardlink",
        "sha256": "982d6f4aad0dc0d012ae22be0bb1a41091e7e80de40739fdf011b2a077e946ae",
        "sha256_in_prefix": "982d6f4aad0dc0d012ae22be0bb1a41091e7e80de40739fdf011b2a077e946ae",
        "size_in_bytes": 24960
      },
      {
        "_path": "site-packages/joblib/_store_backends.py",
        "path_type": "hardlink",
        "sha256": "765158a5d9d5d7a1f9224a08225d6357a7979a7675aa719b405eff2c1243d433",
        "sha256_in_prefix": "765158a5d9d5d7a1f9224a08225d6357a7979a7675aa719b405eff2c1243d433",
        "size_in_bytes": 14530
      },
      {
        "_path": "site-packages/joblib/backports.py",
        "path_type": "hardlink",
        "sha256": "3508c003e868fbfcadde0620c5180af76b3452ec6e54ee0b363640a0ba16e8bd",
        "sha256_in_prefix": "3508c003e868fbfcadde0620c5180af76b3452ec6e54ee0b363640a0ba16e8bd",
        "size_in_bytes": 2663
      },
      {
        "_path": "site-packages/joblib/compressor.py",
        "path_type": "hardlink",
        "sha256": "d3e9d203fe12d36df8d0e3518ccbcdfc3afe5cbe8e582730bd84c846a735b6b4",
        "sha256_in_prefix": "d3e9d203fe12d36df8d0e3518ccbcdfc3afe5cbe8e582730bd84c846a735b6b4",
        "size_in_bytes": 21160
      },
      {
        "_path": "site-packages/joblib/disk.py",
        "path_type": "hardlink",
        "sha256": "9f5ad9faccb4c6d0c124edb773df39f39fb7303160bf12ca7e311fd3484118df",
        "sha256_in_prefix": "9f5ad9faccb4c6d0c124edb773df39f39fb7303160bf12ca7e311fd3484118df",
        "size_in_bytes": 3814
      },
      {
        "_path": "site-packages/joblib/executor.py",
        "path_type": "hardlink",
        "sha256": "635f5f57ca84622e9c1c70a27e496e34f24410216908a00be5f76f0e224d2706",
        "sha256_in_prefix": "635f5f57ca84622e9c1c70a27e496e34f24410216908a00be5f76f0e224d2706",
        "size_in_bytes": 2864
      },
      {
        "_path": "site-packages/joblib/externals/__init__.py",
        "path_type": "hardlink",
        "sha256": "e3b0c44298fc1c149afbf4c8996fb92427ae41e4649b934ca495991b7852b855",
        "sha256_in_prefix": "e3b0c44298fc1c149afbf4c8996fb92427ae41e4649b934ca495991b7852b855",
        "size_in_bytes": 0
      },
      {
        "_path": "site-packages/joblib/externals/cloudpickle/__init__.py",
        "path_type": "hardlink",
        "sha256": "631def3819b06159baa4f80e21fbbe2af725857bc4b72823b2ead619f31018ff",
        "sha256_in_prefix": "631def3819b06159baa4f80e21fbbe2af725857bc4b72823b2ead619f31018ff",
        "size_in_bytes": 212
      },
      {
        "_path": "site-packages/joblib/externals/cloudpickle/cloudpickle.py",
        "path_type": "hardlink",
        "sha256": "7005308117163a9d2ea794b83b6d5880287113b27391105661a39c2b720a6a81",
        "sha256_in_prefix": "7005308117163a9d2ea794b83b6d5880287113b27391105661a39c2b720a6a81",
        "size_in_bytes": 52157
      },
      {
        "_path": "site-packages/joblib/externals/cloudpickle/cloudpickle_fast.py",
        "path_type": "hardlink",
        "sha256": "156305781f37de4ff0c7ed922ac3fb74d13f1d430dffa059f70a473256002cb1",
        "sha256_in_prefix": "156305781f37de4ff0c7ed922ac3fb74d13f1d430dffa059f70a473256002cb1",
        "size_in_bytes": 19604
      },
      {
        "_path": "site-packages/joblib/externals/loky/__init__.py",
        "path_type": "hardlink",
        "sha256": "c69e4f8601b0be0ca2a7c6a29ced8e1b116f5d16b2181d5c45d78ba6e9451453",
        "sha256_in_prefix": "c69e4f8601b0be0ca2a7c6a29ced8e1b116f5d16b2181d5c45d78ba6e9451453",
        "size_in_bytes": 1072
      },
      {
        "_path": "site-packages/joblib/externals/loky/_base.py",
        "path_type": "hardlink",
        "sha256": "65ee2bda0f87a81690b819d7c9da38140d7398056e4db45affc18569dbbb5a5b",
        "sha256_in_prefix": "65ee2bda0f87a81690b819d7c9da38140d7398056e4db45affc18569dbbb5a5b",
        "size_in_bytes": 23423
      },
      {
        "_path": "site-packages/joblib/externals/loky/backend/__init__.py",
        "path_type": "hardlink",
        "sha256": "1c89fb9331a85c2a3095e1332e290e8e9b413cb0e30175a955edc37718824d64",
        "sha256_in_prefix": "1c89fb9331a85c2a3095e1332e290e8e9b413cb0e30175a955edc37718824d64",
        "size_in_bytes": 398
      },
      {
        "_path": "site-packages/joblib/externals/loky/backend/_posix_reduction.py",
        "path_type": "hardlink",
        "sha256": "933674d17108664093e989a402bc32d90560177d265a0906ca4b633f10552dd4",
        "sha256_in_prefix": "933674d17108664093e989a402bc32d90560177d265a0906ca4b633f10552dd4",
        "size_in_bytes": 2223
      },
      {
        "_path": "site-packages/joblib/externals/loky/backend/_posix_wait.py",
        "path_type": "hardlink",
        "sha256": "e060f30437b59221f11cf180f41cb9661db1a6fb0e7f8ccaf51e67b818de7b75",
        "sha256_in_prefix": "e060f30437b59221f11cf180f41cb9661db1a6fb0e7f8ccaf51e67b818de7b75",
        "size_in_bytes": 3319
      },
      {
        "_path": "site-packages/joblib/externals/loky/backend/_win_reduction.py",
        "path_type": "hardlink",
        "sha256": "661aa2fb6490b27fa63828b277c1a84e4ce1806faafa0c3d54dea29ed2f393d3",
        "sha256_in_prefix": "661aa2fb6490b27fa63828b277c1a84e4ce1806faafa0c3d54dea29ed2f393d3",
        "size_in_bytes": 3724
      },
      {
        "_path": "site-packages/joblib/externals/loky/backend/_win_wait.py",
        "path_type": "hardlink",
        "sha256": "4da3e316c0966213e0b735190636fdeb54a1bc47aea20e61fe773f6c61befa03",
        "sha256_in_prefix": "4da3e316c0966213e0b735190636fdeb54a1bc47aea20e61fe773f6c61befa03",
        "size_in_bytes": 1956
      },
      {
        "_path": "site-packages/joblib/externals/loky/backend/compat.py",
        "path_type": "hardlink",
        "sha256": "fb0a91d59fccf95940357ee1b53a02047b56590ec314f15a6779d670aa061354",
        "sha256_in_prefix": "fb0a91d59fccf95940357ee1b53a02047b56590ec314f15a6779d670aa061354",
        "size_in_bytes": 995
      },
      {
        "_path": "site-packages/joblib/externals/loky/backend/compat_posix.py",
        "path_type": "hardlink",
        "sha256": "57ed1019f6925870efda1813c4c82b85a7fa6728a1bad4e78ddd97cb916cc03d",
        "sha256_in_prefix": "57ed1019f6925870efda1813c4c82b85a7fa6728a1bad4e78ddd97cb916cc03d",
        "size_in_bytes": 334
      },
      {
        "_path": "site-packages/joblib/externals/loky/backend/compat_win32.py",
        "path_type": "hardlink",
        "sha256": "57d32c1ac797d9a89bf3d0c284a0df0b63e02eb62d6cdc804c96f73962ad467f",
        "sha256_in_prefix": "57d32c1ac797d9a89bf3d0c284a0df0b63e02eb62d6cdc804c96f73962ad467f",
        "size_in_bytes": 1407
      },
      {
        "_path": "site-packages/joblib/externals/loky/backend/context.py",
        "path_type": "hardlink",
        "sha256": "7c4202e2ffd5baf63d85c63fc3f0350cd4b0f1d0d1b340dee3dba9fd7736162b",
        "sha256_in_prefix": "7c4202e2ffd5baf63d85c63fc3f0350cd4b0f1d0d1b340dee3dba9fd7736162b",
        "size_in_bytes": 9752
      },
      {
        "_path": "site-packages/joblib/externals/loky/backend/fork_exec.py",
        "path_type": "hardlink",
        "sha256": "16452544d355abe7981ec60f0f97c76f232407fe48d67633ec057fafa384cc8d",
        "sha256_in_prefix": "16452544d355abe7981ec60f0f97c76f232407fe48d67633ec057fafa384cc8d",
        "size_in_bytes": 1372
      },
      {
        "_path": "site-packages/joblib/externals/loky/backend/managers.py",
        "path_type": "hardlink",
        "sha256": "dda9ad7831604365f1a9aa1bbfe5bef2961dcc377a3604edc13f129a5b81f54b",
        "sha256_in_prefix": "dda9ad7831604365f1a9aa1bbfe5bef2961dcc377a3604edc13f129a5b81f54b",
        "size_in_bytes": 1836
      },
      {
        "_path": "site-packages/joblib/externals/loky/backend/popen_loky_posix.py",
        "path_type": "hardlink",
        "sha256": "ea7e6247b7805fbfad4bea2d2c7b69e32aae0b1f39ecf40e582a984dc58136b9",
        "sha256_in_prefix": "ea7e6247b7805fbfad4bea2d2c7b69e32aae0b1f39ecf40e582a984dc58136b9",
        "size_in_bytes": 6911
      },
      {
        "_path": "site-packages/joblib/externals/loky/backend/popen_loky_win32.py",
        "path_type": "hardlink",
        "sha256": "8226fabf0a252339dd53e6a0d61cdea400e43ae69b5bff53f9f9950fdf1a85a3",
        "sha256_in_prefix": "8226fabf0a252339dd53e6a0d61cdea400e43ae69b5bff53f9f9950fdf1a85a3",
        "size_in_bytes": 5720
      },
      {
        "_path": "site-packages/joblib/externals/loky/backend/process.py",
        "path_type": "hardlink",
        "sha256": "decf3ab3809af9089b10dea168e4ef045462a7f2394a8bd704b000870c7a5939",
        "sha256_in_prefix": "decf3ab3809af9089b10dea168e4ef045462a7f2394a8bd704b000870c7a5939",
        "size_in_bytes": 3526
      },
      {
        "_path": "site-packages/joblib/externals/loky/backend/queues.py",
        "path_type": "hardlink",
        "sha256": "7b990d331ffe462054031a1e88d4afffdee7ccb3d9b9d39c958e5499717fce3e",
        "sha256_in_prefix": "7b990d331ffe462054031a1e88d4afffdee7ccb3d9b9d39c958e5499717fce3e",
        "size_in_bytes": 8827
      },
      {
        "_path": "site-packages/joblib/externals/loky/backend/reduction.py",
        "path_type": "hardlink",
        "sha256": "788338d675c33dc63f21da7fd18e1fc4caf6edce5f1b7cbd19fd40adbe0de6e9",
        "sha256_in_prefix": "788338d675c33dc63f21da7fd18e1fc4caf6edce5f1b7cbd19fd40adbe0de6e9",
        "size_in_bytes": 8263
      },
      {
        "_path": "site-packages/joblib/externals/loky/backend/resource_tracker.py",
        "path_type": "hardlink",
        "sha256": "260a613781c335ac3452ae4f62f94a3a492e7c99cf495bdf4949cb7ac99b5336",
        "sha256_in_prefix": "260a613781c335ac3452ae4f62f94a3a492e7c99cf495bdf4949cb7ac99b5336",
        "size_in_bytes": 11758
      },
      {
        "_path": "site-packages/joblib/externals/loky/backend/semlock.py",
        "path_type": "hardlink",
        "sha256": "e5ded25c72f2c3801944e2d91f0b19f4dec582bac12ccccf0796003c35a5bb5a",
        "sha256_in_prefix": "e5ded25c72f2c3801944e2d91f0b19f4dec582bac12ccccf0796003c35a5bb5a",
        "size_in_bytes": 8918
      },
      {
        "_path": "site-packages/joblib/externals/loky/backend/spawn.py",
        "path_type": "hardlink",
        "sha256": "a1b7cd3fa73e75ae93cb2167edaf92b950d34cdc61281d37971aa45946ab8306",
        "sha256_in_prefix": "a1b7cd3fa73e75ae93cb2167edaf92b950d34cdc61281d37971aa45946ab8306",
        "size_in_bytes": 7885
      },
      {
        "_path": "site-packages/joblib/externals/loky/backend/synchronize.py",
        "path_type": "hardlink",
        "sha256": "e9ac9eae5332d275d4de31a8a07c2eb3b998e56551668319f2a6d5b00b949219",
        "sha256_in_prefix": "e9ac9eae5332d275d4de31a8a07c2eb3b998e56551668319f2a6d5b00b949219",
        "size_in_bytes": 11381
      },
      {
        "_path": "site-packages/joblib/externals/loky/backend/utils.py",
        "path_type": "hardlink",
        "sha256": "19c2a47cbd7f924ea80e7f980ba6bd996ff1c85d15bede0cfadf7a8a2341e676",
        "sha256_in_prefix": "19c2a47cbd7f924ea80e7f980ba6bd996ff1c85d15bede0cfadf7a8a2341e676",
        "size_in_bytes": 5691
      },
      {
        "_path": "site-packages/joblib/externals/loky/cloudpickle_wrapper.py",
        "path_type": "hardlink",
        "sha256": "538be5d5a1bf5bcbb4ff66e5aae6b99e9f3ac06e3edb52f9723ba9efd703dd6c",
        "sha256_in_prefix": "538be5d5a1bf5bcbb4ff66e5aae6b99e9f3ac06e3edb52f9723ba9efd703dd6c",
        "size_in_bytes": 3964
      },
      {
        "_path": "site-packages/joblib/externals/loky/process_executor.py",
        "path_type": "hardlink",
        "sha256": "28c2d2a15c2754062aeb6a707c07be81ec72704c5e1c40cced6a3e3a8afc7b99",
        "sha256_in_prefix": "28c2d2a15c2754062aeb6a707c07be81ec72704c5e1c40cced6a3e3a8afc7b99",
        "size_in_bytes": 45719
      },
      {
        "_path": "site-packages/joblib/externals/loky/reusable_executor.py",
        "path_type": "hardlink",
        "sha256": "43e57962de65149f6a14c342a7601384b1692a4dff891a0ca54f186eb3af2d23",
        "sha256_in_prefix": "43e57962de65149f6a14c342a7601384b1692a4dff891a0ca54f186eb3af2d23",
        "size_in_bytes": 9268
      },
      {
        "_path": "site-packages/joblib/format_stack.py",
        "path_type": "hardlink",
        "sha256": "0f9dd1ac29c4cdbd867bcc27dad219d3e19a4f048e543951ebdda196d5063fe1",
        "sha256_in_prefix": "0f9dd1ac29c4cdbd867bcc27dad219d3e19a4f048e543951ebdda196d5063fe1",
        "size_in_bytes": 14653
      },
      {
        "_path": "site-packages/joblib/func_inspect.py",
        "path_type": "hardlink",
        "sha256": "7e425e7f25e4deffcc3f7f555f8a20751b644d6a502fe4b34db17c94e20881ac",
        "sha256_in_prefix": "7e425e7f25e4deffcc3f7f555f8a20751b644d6a502fe4b34db17c94e20881ac",
        "size_in_bytes": 13412
      },
      {
        "_path": "site-packages/joblib/hashing.py",
        "path_type": "hardlink",
        "sha256": "9038b3fc1490437809d45e0992f4967bdabc2ef8272b31fa9970597b04111070",
        "sha256_in_prefix": "9038b3fc1490437809d45e0992f4967bdabc2ef8272b31fa9970597b04111070",
        "size_in_bytes": 10362
      },
      {
        "_path": "site-packages/joblib/logger.py",
        "path_type": "hardlink",
        "sha256": "c634c386a8e9414f038c8aab2f7e48899d73ec727e7e06d573eec88dc8a2dc48",
        "sha256_in_prefix": "c634c386a8e9414f038c8aab2f7e48899d73ec727e7e06d573eec88dc8a2dc48",
        "size_in_bytes": 5129
      },
      {
        "_path": "site-packages/joblib/memory.py",
        "path_type": "hardlink",
        "sha256": "64bf0f5aa7442410027b21b6e0b620647b9d76b5ac052194758d85225e10fb8c",
        "sha256_in_prefix": "64bf0f5aa7442410027b21b6e0b620647b9d76b5ac052194758d85225e10fb8c",
        "size_in_bytes": 39689
      },
      {
        "_path": "site-packages/joblib/my_exceptions.py",
        "path_type": "hardlink",
        "sha256": "0e5899698fd96858d67dd0be5485432e2d9ea5d13f46fe85a77e489ed468d22b",
        "sha256_in_prefix": "0e5899698fd96858d67dd0be5485432e2d9ea5d13f46fe85a77e489ed468d22b",
        "size_in_bytes": 4407
      },
      {
        "_path": "site-packages/joblib/numpy_pickle.py",
        "path_type": "hardlink",
        "sha256": "4ebb48be49db3ef7defb8107c000eedbdf9a66a0c7b6110006041d73695637b0",
        "sha256_in_prefix": "4ebb48be49db3ef7defb8107c000eedbdf9a66a0c7b6110006041d73695637b0",
        "size_in_bytes": 24604
      },
      {
        "_path": "site-packages/joblib/numpy_pickle_compat.py",
        "path_type": "hardlink",
        "sha256": "70b388553d39911833ae83c63bb2dfbcec38b57354f057e6efa7225242926fd9",
        "sha256_in_prefix": "70b388553d39911833ae83c63bb2dfbcec38b57354f057e6efa7225242926fd9",
        "size_in_bytes": 8650
      },
      {
        "_path": "site-packages/joblib/numpy_pickle_utils.py",
        "path_type": "hardlink",
        "sha256": "91d32d17e6253b6e12d684911e2ba37e5ee1409b1cd23fab6de842f0b6a0a689",
        "sha256_in_prefix": "91d32d17e6253b6e12d684911e2ba37e5ee1409b1cd23fab6de842f0b6a0a689",
        "size_in_bytes": 8436
      },
      {
        "_path": "site-packages/joblib/parallel.py",
        "path_type": "hardlink",
        "sha256": "d7a29a576f5d65613009467c560681ca42d6bf1be0b0d756f5ea00b3aeec234d",
        "sha256_in_prefix": "d7a29a576f5d65613009467c560681ca42d6bf1be0b0d756f5ea00b3aeec234d",
        "size_in_bytes": 44754
      },
      {
        "_path": "site-packages/joblib/pool.py",
        "path_type": "hardlink",
        "sha256": "cb3df732d2c59f19bb6a1964ddcbd02d2529607b586e28facf2b6349ae254e6a",
        "sha256_in_prefix": "cb3df732d2c59f19bb6a1964ddcbd02d2529607b586e28facf2b6349ae254e6a",
        "size_in_bytes": 13153
      },
      {
        "_path": "site-packages/joblib/test/__init__.py",
        "path_type": "hardlink",
        "sha256": "6e42306393a77b23dc467d95bb342520576d5b90b0a3599427b21f4b3b433bd7",
        "sha256_in_prefix": "6e42306393a77b23dc467d95bb342520576d5b90b0a3599427b21f4b3b433bd7",
        "size_in_bytes": 73
      },
      {
        "_path": "site-packages/joblib/test/common.py",
        "path_type": "hardlink",
        "sha256": "672b40c47bb33e07c9c4e89778dab83b752b39b72a88ccf2ff854d522335005a",
        "sha256_in_prefix": "672b40c47bb33e07c9c4e89778dab83b752b39b72a88ccf2ff854d522335005a",
        "size_in_bytes": 3348
      },
      {
        "_path": "site-packages/joblib/test/data/__init__.py",
        "path_type": "hardlink",
        "sha256": "e3b0c44298fc1c149afbf4c8996fb92427ae41e4649b934ca495991b7852b855",
        "sha256_in_prefix": "e3b0c44298fc1c149afbf4c8996fb92427ae41e4649b934ca495991b7852b855",
        "size_in_bytes": 0
      },
      {
        "_path": "site-packages/joblib/test/data/create_numpy_pickle.py",
        "path_type": "hardlink",
        "sha256": "53007993c623874d023c1b02cf12a7b61d19be47ddb597f7071d6561a92194e1",
        "sha256_in_prefix": "53007993c623874d023c1b02cf12a7b61d19be47ddb597f7071d6561a92194e1",
        "size_in_bytes": 3616
      },
      {
        "_path": "site-packages/joblib/test/data/joblib_0.10.0_compressed_pickle_py27_np16.gz",
        "path_type": "hardlink",
        "sha256": "418447e90d83486568ae3092a960b18d358230e24ac9ec38365daa99f415bd0f",
        "sha256_in_prefix": "418447e90d83486568ae3092a960b18d358230e24ac9ec38365daa99f415bd0f",
        "size_in_bytes": 769
      },
      {
        "_path": "site-packages/joblib/test/data/joblib_0.10.0_compressed_pickle_py27_np17.gz",
        "path_type": "hardlink",
        "sha256": "a1f4e8cccfca94f25ae744d1f050b0734f663263ba38ed0642181404b348b17b",
        "sha256_in_prefix": "a1f4e8cccfca94f25ae744d1f050b0734f663263ba38ed0642181404b348b17b",
        "size_in_bytes": 757
      },
      {
        "_path": "site-packages/joblib/test/data/joblib_0.10.0_compressed_pickle_py33_np18.gz",
        "path_type": "hardlink",
        "sha256": "d9e215780f978ce693e48110ead23652e1c6de1c2189172232690198f7088788",
        "sha256_in_prefix": "d9e215780f978ce693e48110ead23652e1c6de1c2189172232690198f7088788",
        "size_in_bytes": 792
      },
      {
        "_path": "site-packages/joblib/test/data/joblib_0.10.0_compressed_pickle_py34_np19.gz",
        "path_type": "hardlink",
        "sha256": "1abdb3ff5b555831f51f7ff00951e66a49277fc2aa787293f18cf8775be65023",
        "sha256_in_prefix": "1abdb3ff5b555831f51f7ff00951e66a49277fc2aa787293f18cf8775be65023",
        "size_in_bytes": 794
      },
      {
        "_path": "site-packages/joblib/test/data/joblib_0.10.0_compressed_pickle_py35_np19.gz",
        "path_type": "hardlink",
        "sha256": "a56c3fc6e0db3a4102aaed4a19fd4e154eecd956f30b6bf9179897844ed3c01e",
        "sha256_in_prefix": "a56c3fc6e0db3a4102aaed4a19fd4e154eecd956f30b6bf9179897844ed3c01e",
        "size_in_bytes": 790
      },
      {
        "_path": "site-packages/joblib/test/data/joblib_0.10.0_pickle_py27_np16.pkl",
        "path_type": "hardlink",
        "sha256": "89c4508e3dfbe01f801e4e739f1aded13f685941e89281c8050f0ca8aa3c97e5",
        "sha256_in_prefix": "89c4508e3dfbe01f801e4e739f1aded13f685941e89281c8050f0ca8aa3c97e5",
        "size_in_bytes": 986
      },
      {
        "_path": "site-packages/joblib/test/data/joblib_0.10.0_pickle_py27_np16.pkl.bz2",
        "path_type": "hardlink",
        "sha256": "88cddf5fe67950ba9d1f6eb7551d258134a51aa268b4b95b005e2069250a07a8",
        "sha256_in_prefix": "88cddf5fe67950ba9d1f6eb7551d258134a51aa268b4b95b005e2069250a07a8",
        "size_in_bytes": 997
      },
      {
        "_path": "site-packages/joblib/test/data/joblib_0.10.0_pickle_py27_np16.pkl.gzip",
        "path_type": "hardlink",
        "sha256": "418447e90d83486568ae3092a960b18d358230e24ac9ec38365daa99f415bd0f",
        "sha256_in_prefix": "418447e90d83486568ae3092a960b18d358230e24ac9ec38365daa99f415bd0f",
        "size_in_bytes": 769
      },
      {
        "_path": "site-packages/joblib/test/data/joblib_0.10.0_pickle_py27_np17.pkl",
        "path_type": "hardlink",
        "sha256": "89c4508e3dfbe01f801e4e739f1aded13f685941e89281c8050f0ca8aa3c97e5",
        "sha256_in_prefix": "89c4508e3dfbe01f801e4e739f1aded13f685941e89281c8050f0ca8aa3c97e5",
        "size_in_bytes": 986
      },
      {
        "_path": "site-packages/joblib/test/data/joblib_0.10.0_pickle_py27_np17.pkl.bz2",
        "path_type": "hardlink",
        "sha256": "a18415232322531c918164ae04148ebc258acd3a00fa4529728416755e14a15e",
        "sha256_in_prefix": "a18415232322531c918164ae04148ebc258acd3a00fa4529728416755e14a15e",
        "size_in_bytes": 997
      },
      {
        "_path": "site-packages/joblib/test/data/joblib_0.10.0_pickle_py27_np17.pkl.gzip",
        "path_type": "hardlink",
        "sha256": "269bf788670380a4eff8ee2766c52b7886d42bbaa7b7672e819f9532035e1034",
        "sha256_in_prefix": "269bf788670380a4eff8ee2766c52b7886d42bbaa7b7672e819f9532035e1034",
        "size_in_bytes": 798
      },
      {
        "_path": "site-packages/joblib/test/data/joblib_0.10.0_pickle_py27_np17.pkl.lzma",
        "path_type": "hardlink",
        "sha256": "734c2ed31f293efe01712b63ee913ad6b6697faf052c6fe9373419e1ef36cc7f",
        "sha256_in_prefix": "734c2ed31f293efe01712b63ee913ad6b6697faf052c6fe9373419e1ef36cc7f",
        "size_in_bytes": 660
      },
      {
        "_path": "site-packages/joblib/test/data/joblib_0.10.0_pickle_py27_np17.pkl.xz",
        "path_type": "hardlink",
        "sha256": "efb146d450c6d061d06affb56f17384e7f64cbab9b516fcc6c4d3f8869b3e707",
        "sha256_in_prefix": "efb146d450c6d061d06affb56f17384e7f64cbab9b516fcc6c4d3f8869b3e707",
        "size_in_bytes": 712
      },
      {
        "_path": "site-packages/joblib/test/data/joblib_0.10.0_pickle_py33_np18.pkl",
        "path_type": "hardlink",
        "sha256": "e064c2eecfdc58d552844467da7bd56eca596098322bfd266a7e1312abdd5735",
        "sha256_in_prefix": "e064c2eecfdc58d552844467da7bd56eca596098322bfd266a7e1312abdd5735",
        "size_in_bytes": 1068
      },
      {
        "_path": "site-packages/joblib/test/data/joblib_0.10.0_pickle_py33_np18.pkl.bz2",
        "path_type": "hardlink",
        "sha256": "e86d6f6ecfe2626cf691827ac38a81d64ec3ebb527c5432eb344b8496781b45a",
        "sha256_in_prefix": "e86d6f6ecfe2626cf691827ac38a81d64ec3ebb527c5432eb344b8496781b45a",
        "size_in_bytes": 1000
      },
      {
        "_path": "site-packages/joblib/test/data/joblib_0.10.0_pickle_py33_np18.pkl.gzip",
        "path_type": "hardlink",
        "sha256": "b6545459e252d415e6730b4b35234af4bd210c77a4165d3b0aa5b14d28629e66",
        "sha256_in_prefix": "b6545459e252d415e6730b4b35234af4bd210c77a4165d3b0aa5b14d28629e66",
        "size_in_bytes": 831
      },
      {
        "_path": "site-packages/joblib/test/data/joblib_0.10.0_pickle_py33_np18.pkl.lzma",
        "path_type": "hardlink",
        "sha256": "0a8acfc277efdeb47986336d248d35fac10130e9e44b13654556964ecccca290",
        "sha256_in_prefix": "0a8acfc277efdeb47986336d248d35fac10130e9e44b13654556964ecccca290",
        "size_in_bytes": 694
      },
      {
        "_path": "site-packages/joblib/test/data/joblib_0.10.0_pickle_py33_np18.pkl.xz",
        "path_type": "hardlink",
        "sha256": "0e9a63dcc7df38ab0a1137a9b44b436b13cebfa300eb19dba4ae4bce50d0fa81",
        "sha256_in_prefix": "0e9a63dcc7df38ab0a1137a9b44b436b13cebfa300eb19dba4ae4bce50d0fa81",
        "size_in_bytes": 752
      },
      {
        "_path": "site-packages/joblib/test/data/joblib_0.10.0_pickle_py34_np19.pkl",
        "path_type": "hardlink",
        "sha256": "1cbe456f5b91f5a3cb8e386838f276c30335432a351426686187761d5c34168b",
        "sha256_in_prefix": "1cbe456f5b91f5a3cb8e386838f276c30335432a351426686187761d5c34168b",
        "size_in_bytes": 1068
      },
      {
        "_path": "site-packages/joblib/test/data/joblib_0.10.0_pickle_py34_np19.pkl.bz2",
        "path_type": "hardlink",
        "sha256": "3f2af67ea667c1f5315ddcab06bfa447005863c1c0fd88bb7e04a0b8acb9a54b",
        "sha256_in_prefix": "3f2af67ea667c1f5315ddcab06bfa447005863c1c0fd88bb7e04a0b8acb9a54b",
        "size_in_bytes": 1021
      },
      {
        "_path": "site-packages/joblib/test/data/joblib_0.10.0_pickle_py34_np19.pkl.gzip",
        "path_type": "hardlink",
        "sha256": "a2cf0d263408f4586795933e032f5d5ff528df98199e824281048856f7013df1",
        "sha256_in_prefix": "a2cf0d263408f4586795933e032f5d5ff528df98199e824281048856f7013df1",
        "size_in_bytes": 831
      },
      {
        "_path": "site-packages/joblib/test/data/joblib_0.10.0_pickle_py34_np19.pkl.lzma",
        "path_type": "hardlink",
        "sha256": "43fd32e37a94eff1aa01a6c9f32dcf59584e8acbab9c202adc6cee0aed38579f",
        "sha256_in_prefix": "43fd32e37a94eff1aa01a6c9f32dcf59584e8acbab9c202adc6cee0aed38579f",
        "size_in_bytes": 697
      },
      {
        "_path": "site-packages/joblib/test/data/joblib_0.10.0_pickle_py34_np19.pkl.xz",
        "path_type": "hardlink",
        "sha256": "04d7e68907e978b56975f9309492b8849e42a60974beb795c9e93273977f3cd3",
        "sha256_in_prefix": "04d7e68907e978b56975f9309492b8849e42a60974beb795c9e93273977f3cd3",
        "size_in_bytes": 752
      },
      {
        "_path": "site-packages/joblib/test/data/joblib_0.10.0_pickle_py35_np19.pkl",
        "path_type": "hardlink",
        "sha256": "97b9ef2e896104321d3c5ce73b3de504788c38f04f08c8b56d7a29d6d1520a96",
        "sha256_in_prefix": "97b9ef2e896104321d3c5ce73b3de504788c38f04f08c8b56d7a29d6d1520a96",
        "size_in_bytes": 1068
      },
      {
        "_path": "site-packages/joblib/test/data/joblib_0.10.0_pickle_py35_np19.pkl.bz2",
        "path_type": "hardlink",
        "sha256": "a6a1a9b884be654e2e3fc9a48251ecf0c6920e255c3f2ee5dd71d8252a694606",
        "sha256_in_prefix": "a6a1a9b884be654e2e3fc9a48251ecf0c6920e255c3f2ee5dd71d8252a694606",
        "size_in_bytes": 1005
      },
      {
        "_path": "site-packages/joblib/test/data/joblib_0.10.0_pickle_py35_np19.pkl.gzip",
        "path_type": "hardlink",
        "sha256": "61115713a2c46faa8aef6c8faa75dda90558f13b3cc4a512f4f5902a12f15af9",
        "sha256_in_prefix": "61115713a2c46faa8aef6c8faa75dda90558f13b3cc4a512f4f5902a12f15af9",
        "size_in_bytes": 833
      },
      {
        "_path": "site-packages/joblib/test/data/joblib_0.10.0_pickle_py35_np19.pkl.lzma",
        "path_type": "hardlink",
        "sha256": "05fee0094793b938c291b708772658cfaf62adb957e12015404cf10a731084d5",
        "sha256_in_prefix": "05fee0094793b938c291b708772658cfaf62adb957e12015404cf10a731084d5",
        "size_in_bytes": 701
      },
      {
        "_path": "site-packages/joblib/test/data/joblib_0.10.0_pickle_py35_np19.pkl.xz",
        "path_type": "hardlink",
        "sha256": "02cf30d8b196c303662b2dd035d2a58caeb762ae3a82345ffd1274961e7f5aa0",
        "sha256_in_prefix": "02cf30d8b196c303662b2dd035d2a58caeb762ae3a82345ffd1274961e7f5aa0",
        "size_in_bytes": 752
      },
      {
        "_path": "site-packages/joblib/test/data/joblib_0.11.0_compressed_pickle_py36_np111.gz",
        "path_type": "hardlink",
        "sha256": "d56ae75c3a83a0d10f60e657d50e56af6e3addbf2f555e9fc385a6e52e1b32de",
        "sha256_in_prefix": "d56ae75c3a83a0d10f60e657d50e56af6e3addbf2f555e9fc385a6e52e1b32de",
        "size_in_bytes": 800
      },
      {
        "_path": "site-packages/joblib/test/data/joblib_0.11.0_pickle_py36_np111.pkl",
        "path_type": "hardlink",
        "sha256": "5e6b0e171782d5fd5a61d1844dc946eb27c5f6b2e8075d436b23808433142ebc",
        "sha256_in_prefix": "5e6b0e171782d5fd5a61d1844dc946eb27c5f6b2e8075d436b23808433142ebc",
        "size_in_bytes": 1068
      },
      {
        "_path": "site-packages/joblib/test/data/joblib_0.11.0_pickle_py36_np111.pkl.bz2",
        "path_type": "hardlink",
        "sha256": "bc8db259be742ca2ff36067277f5e4a03e6d78883ddee238da65a7c7d79ef804",
        "sha256_in_prefix": "bc8db259be742ca2ff36067277f5e4a03e6d78883ddee238da65a7c7d79ef804",
        "size_in_bytes": 991
      },
      {
        "_path": "site-packages/joblib/test/data/joblib_0.11.0_pickle_py36_np111.pkl.gzip",
        "path_type": "hardlink",
        "sha256": "d56ae75c3a83a0d10f60e657d50e56af6e3addbf2f555e9fc385a6e52e1b32de",
        "sha256_in_prefix": "d56ae75c3a83a0d10f60e657d50e56af6e3addbf2f555e9fc385a6e52e1b32de",
        "size_in_bytes": 800
      },
      {
        "_path": "site-packages/joblib/test/data/joblib_0.11.0_pickle_py36_np111.pkl.lzma",
        "path_type": "hardlink",
        "sha256": "216034265646daeaf9dc78135039759bbabbf5d715aba6f454eab7de02a8254d",
        "sha256_in_prefix": "216034265646daeaf9dc78135039759bbabbf5d715aba6f454eab7de02a8254d",
        "size_in_bytes": 715
      },
      {
        "_path": "site-packages/joblib/test/data/joblib_0.11.0_pickle_py36_np111.pkl.xz",
        "path_type": "hardlink",
        "sha256": "dd787f35b3197418d8c7bca77c9dc5ca47b6f22cd24524b3ccd074cf90f893d6",
        "sha256_in_prefix": "dd787f35b3197418d8c7bca77c9dc5ca47b6f22cd24524b3ccd074cf90f893d6",
        "size_in_bytes": 752
      },
      {
        "_path": "site-packages/joblib/test/data/joblib_0.8.4_compressed_pickle_py27_np17.gz",
        "path_type": "hardlink",
        "sha256": "4a9f994fb8baa63e689f681ba6db33bbb45aaf32693a61c9ebb50a3a608f40c8",
        "sha256_in_prefix": "4a9f994fb8baa63e689f681ba6db33bbb45aaf32693a61c9ebb50a3a608f40c8",
        "size_in_bytes": 659
      },
      {
        "_path": "site-packages/joblib/test/data/joblib_0.9.2_compressed_pickle_py27_np16.gz",
        "path_type": "hardlink",
        "sha256": "34bb43aefa365c81f42af51402f84ea8c7a85c48c65b422e4e4fe8b2ee57883c",
        "sha256_in_prefix": "34bb43aefa365c81f42af51402f84ea8c7a85c48c65b422e4e4fe8b2ee57883c",
        "size_in_bytes": 658
      },
      {
        "_path": "site-packages/joblib/test/data/joblib_0.9.2_compressed_pickle_py27_np17.gz",
        "path_type": "hardlink",
        "sha256": "34bb43aefa365c81f42af51402f84ea8c7a85c48c65b422e4e4fe8b2ee57883c",
        "sha256_in_prefix": "34bb43aefa365c81f42af51402f84ea8c7a85c48c65b422e4e4fe8b2ee57883c",
        "size_in_bytes": 658
      },
      {
        "_path": "site-packages/joblib/test/data/joblib_0.9.2_compressed_pickle_py34_np19.gz",
        "path_type": "hardlink",
        "sha256": "9f33bd8a21a41b729b05dac5deeb0e868f218a092b0e3fe5988094cf167217f6",
        "sha256_in_prefix": "9f33bd8a21a41b729b05dac5deeb0e868f218a092b0e3fe5988094cf167217f6",
        "size_in_bytes": 673
      },
      {
        "_path": "site-packages/joblib/test/data/joblib_0.9.2_compressed_pickle_py35_np19.gz",
        "path_type": "hardlink",
        "sha256": "9f33bd8a21a41b729b05dac5deeb0e868f218a092b0e3fe5988094cf167217f6",
        "sha256_in_prefix": "9f33bd8a21a41b729b05dac5deeb0e868f218a092b0e3fe5988094cf167217f6",
        "size_in_bytes": 673
      },
      {
        "_path": "site-packages/joblib/test/data/joblib_0.9.2_pickle_py27_np16.pkl",
        "path_type": "hardlink",
        "sha256": "9da8a3764db121e29d21ade67c9c3426598e76d88deae44cd7238983af8cef73",
        "sha256_in_prefix": "9da8a3764db121e29d21ade67c9c3426598e76d88deae44cd7238983af8cef73",
        "size_in_bytes": 670
      },
      {
        "_path": "site-packages/joblib/test/data/joblib_0.9.2_pickle_py27_np16.pkl_01.npy",
        "path_type": "hardlink",
        "sha256": "0efbd7d9ce7eec3a6e0a0db41e795e0396cca3d6b037dad6c61b464843d28809",
        "sha256_in_prefix": "0efbd7d9ce7eec3a6e0a0db41e795e0396cca3d6b037dad6c61b464843d28809",
        "size_in_bytes": 120
      },
      {
        "_path": "site-packages/joblib/test/data/joblib_0.9.2_pickle_py27_np16.pkl_02.npy",
        "path_type": "hardlink",
        "sha256": "1c1cf36cb781fbcc21b953bb0a0b45df092da0eae0e765882e5963ccd70105b1",
        "sha256_in_prefix": "1c1cf36cb781fbcc21b953bb0a0b45df092da0eae0e765882e5963ccd70105b1",
        "size_in_bytes": 120
      },
      {
        "_path": "site-packages/joblib/test/data/joblib_0.9.2_pickle_py27_np16.pkl_03.npy",
        "path_type": "hardlink",
        "sha256": "a0c45ae2a289841cbeba2443b7ebaa3b31c0a9e9dcc73294aca5729da0092405",
        "sha256_in_prefix": "a0c45ae2a289841cbeba2443b7ebaa3b31c0a9e9dcc73294aca5729da0092405",
        "size_in_bytes": 236
      },
      {
        "_path": "site-packages/joblib/test/data/joblib_0.9.2_pickle_py27_np16.pkl_04.npy",
        "path_type": "hardlink",
        "sha256": "3ecbe244294ba93e08479b16c1b9a9411e3569ff660ed0459dca1d241381df05",
        "sha256_in_prefix": "3ecbe244294ba93e08479b16c1b9a9411e3569ff660ed0459dca1d241381df05",
        "size_in_bytes": 104
      },
      {
        "_path": "site-packages/joblib/test/data/joblib_0.9.2_pickle_py27_np17.pkl",
        "path_type": "hardlink",
        "sha256": "2f29d7f1d2ceca07f10df172c0e826ef08163a14b12c6ef3fa80ec53a5fcdc3c",
        "sha256_in_prefix": "2f29d7f1d2ceca07f10df172c0e826ef08163a14b12c6ef3fa80ec53a5fcdc3c",
        "size_in_bytes": 670
      },
      {
        "_path": "site-packages/joblib/test/data/joblib_0.9.2_pickle_py27_np17.pkl_01.npy",
        "path_type": "hardlink",
        "sha256": "0efbd7d9ce7eec3a6e0a0db41e795e0396cca3d6b037dad6c61b464843d28809",
        "sha256_in_prefix": "0efbd7d9ce7eec3a6e0a0db41e795e0396cca3d6b037dad6c61b464843d28809",
        "size_in_bytes": 120
      },
      {
        "_path": "site-packages/joblib/test/data/joblib_0.9.2_pickle_py27_np17.pkl_02.npy",
        "path_type": "hardlink",
        "sha256": "1c1cf36cb781fbcc21b953bb0a0b45df092da0eae0e765882e5963ccd70105b1",
        "sha256_in_prefix": "1c1cf36cb781fbcc21b953bb0a0b45df092da0eae0e765882e5963ccd70105b1",
        "size_in_bytes": 120
      },
      {
        "_path": "site-packages/joblib/test/data/joblib_0.9.2_pickle_py27_np17.pkl_03.npy",
        "path_type": "hardlink",
        "sha256": "a0c45ae2a289841cbeba2443b7ebaa3b31c0a9e9dcc73294aca5729da0092405",
        "sha256_in_prefix": "a0c45ae2a289841cbeba2443b7ebaa3b31c0a9e9dcc73294aca5729da0092405",
        "size_in_bytes": 236
      },
      {
        "_path": "site-packages/joblib/test/data/joblib_0.9.2_pickle_py27_np17.pkl_04.npy",
        "path_type": "hardlink",
        "sha256": "3ecbe244294ba93e08479b16c1b9a9411e3569ff660ed0459dca1d241381df05",
        "sha256_in_prefix": "3ecbe244294ba93e08479b16c1b9a9411e3569ff660ed0459dca1d241381df05",
        "size_in_bytes": 104
      },
      {
        "_path": "site-packages/joblib/test/data/joblib_0.9.2_pickle_py33_np18.pkl",
        "path_type": "hardlink",
        "sha256": "c3d4cbc690d3ce9e5323a714ea546f32c01ab1710285c420184f6cdf4b26fc25",
        "sha256_in_prefix": "c3d4cbc690d3ce9e5323a714ea546f32c01ab1710285c420184f6cdf4b26fc25",
        "size_in_bytes": 691
      },
      {
        "_path": "site-packages/joblib/test/data/joblib_0.9.2_pickle_py33_np18.pkl_01.npy",
        "path_type": "hardlink",
        "sha256": "0efbd7d9ce7eec3a6e0a0db41e795e0396cca3d6b037dad6c61b464843d28809",
        "sha256_in_prefix": "0efbd7d9ce7eec3a6e0a0db41e795e0396cca3d6b037dad6c61b464843d28809",
        "size_in_bytes": 120
      },
      {
        "_path": "site-packages/joblib/test/data/joblib_0.9.2_pickle_py33_np18.pkl_02.npy",
        "path_type": "hardlink",
        "sha256": "1c1cf36cb781fbcc21b953bb0a0b45df092da0eae0e765882e5963ccd70105b1",
        "sha256_in_prefix": "1c1cf36cb781fbcc21b953bb0a0b45df092da0eae0e765882e5963ccd70105b1",
        "size_in_bytes": 120
      },
      {
        "_path": "site-packages/joblib/test/data/joblib_0.9.2_pickle_py33_np18.pkl_03.npy",
        "path_type": "hardlink",
        "sha256": "8ede9a64a52b25d7db30950956c978ec0b3932b7d14acd5abc63216e64babde7",
        "sha256_in_prefix": "8ede9a64a52b25d7db30950956c978ec0b3932b7d14acd5abc63216e64babde7",
        "size_in_bytes": 307
      },
      {
        "_path": "site-packages/joblib/test/data/joblib_0.9.2_pickle_py33_np18.pkl_04.npy",
        "path_type": "hardlink",
        "sha256": "3ecbe244294ba93e08479b16c1b9a9411e3569ff660ed0459dca1d241381df05",
        "sha256_in_prefix": "3ecbe244294ba93e08479b16c1b9a9411e3569ff660ed0459dca1d241381df05",
        "size_in_bytes": 104
      },
      {
        "_path": "site-packages/joblib/test/data/joblib_0.9.2_pickle_py34_np19.pkl",
        "path_type": "hardlink",
        "sha256": "8a538100e6ae94b16f2ab0f7d92d4d7e7a622be2dfcc0f6b0b73b623bc513ae2",
        "sha256_in_prefix": "8a538100e6ae94b16f2ab0f7d92d4d7e7a622be2dfcc0f6b0b73b623bc513ae2",
        "size_in_bytes": 691
      },
      {
        "_path": "site-packages/joblib/test/data/joblib_0.9.2_pickle_py34_np19.pkl_01.npy",
        "path_type": "hardlink",
        "sha256": "0efbd7d9ce7eec3a6e0a0db41e795e0396cca3d6b037dad6c61b464843d28809",
        "sha256_in_prefix": "0efbd7d9ce7eec3a6e0a0db41e795e0396cca3d6b037dad6c61b464843d28809",
        "size_in_bytes": 120
      },
      {
        "_path": "site-packages/joblib/test/data/joblib_0.9.2_pickle_py34_np19.pkl_02.npy",
        "path_type": "hardlink",
        "sha256": "1c1cf36cb781fbcc21b953bb0a0b45df092da0eae0e765882e5963ccd70105b1",
        "sha256_in_prefix": "1c1cf36cb781fbcc21b953bb0a0b45df092da0eae0e765882e5963ccd70105b1",
        "size_in_bytes": 120
      },
      {
        "_path": "site-packages/joblib/test/data/joblib_0.9.2_pickle_py34_np19.pkl_03.npy",
        "path_type": "hardlink",
        "sha256": "8ede9a64a52b25d7db30950956c978ec0b3932b7d14acd5abc63216e64babde7",
        "sha256_in_prefix": "8ede9a64a52b25d7db30950956c978ec0b3932b7d14acd5abc63216e64babde7",
        "size_in_bytes": 307
      },
      {
        "_path": "site-packages/joblib/test/data/joblib_0.9.2_pickle_py34_np19.pkl_04.npy",
        "path_type": "hardlink",
        "sha256": "3ecbe244294ba93e08479b16c1b9a9411e3569ff660ed0459dca1d241381df05",
        "sha256_in_prefix": "3ecbe244294ba93e08479b16c1b9a9411e3569ff660ed0459dca1d241381df05",
        "size_in_bytes": 104
      },
      {
        "_path": "site-packages/joblib/test/data/joblib_0.9.2_pickle_py35_np19.pkl",
        "path_type": "hardlink",
        "sha256": "59f0d522a29c333ce1d60480b2121fcc1a08a5d2dd650b86efdc987f991fa4ea",
        "sha256_in_prefix": "59f0d522a29c333ce1d60480b2121fcc1a08a5d2dd650b86efdc987f991fa4ea",
        "size_in_bytes": 691
      },
      {
        "_path": "site-packages/joblib/test/data/joblib_0.9.2_pickle_py35_np19.pkl_01.npy",
        "path_type": "hardlink",
        "sha256": "0efbd7d9ce7eec3a6e0a0db41e795e0396cca3d6b037dad6c61b464843d28809",
        "sha256_in_prefix": "0efbd7d9ce7eec3a6e0a0db41e795e0396cca3d6b037dad6c61b464843d28809",
        "size_in_bytes": 120
      },
      {
        "_path": "site-packages/joblib/test/data/joblib_0.9.2_pickle_py35_np19.pkl_02.npy",
        "path_type": "hardlink",
        "sha256": "1c1cf36cb781fbcc21b953bb0a0b45df092da0eae0e765882e5963ccd70105b1",
        "sha256_in_prefix": "1c1cf36cb781fbcc21b953bb0a0b45df092da0eae0e765882e5963ccd70105b1",
        "size_in_bytes": 120
      },
      {
        "_path": "site-packages/joblib/test/data/joblib_0.9.2_pickle_py35_np19.pkl_03.npy",
        "path_type": "hardlink",
        "sha256": "8ede9a64a52b25d7db30950956c978ec0b3932b7d14acd5abc63216e64babde7",
        "sha256_in_prefix": "8ede9a64a52b25d7db30950956c978ec0b3932b7d14acd5abc63216e64babde7",
        "size_in_bytes": 307
      },
      {
        "_path": "site-packages/joblib/test/data/joblib_0.9.2_pickle_py35_np19.pkl_04.npy",
        "path_type": "hardlink",
        "sha256": "3ecbe244294ba93e08479b16c1b9a9411e3569ff660ed0459dca1d241381df05",
        "sha256_in_prefix": "3ecbe244294ba93e08479b16c1b9a9411e3569ff660ed0459dca1d241381df05",
        "size_in_bytes": 104
      },
      {
        "_path": "site-packages/joblib/test/data/joblib_0.9.4.dev0_compressed_cache_size_pickle_py35_np19.gz",
        "path_type": "hardlink",
        "sha256": "f2361f589b31d2863627edcb96612280ae5c0a59c9496d89dab7de493670f93b",
        "sha256_in_prefix": "f2361f589b31d2863627edcb96612280ae5c0a59c9496d89dab7de493670f93b",
        "size_in_bytes": 802
      },
      {
        "_path": "site-packages/joblib/test/data/joblib_0.9.4.dev0_compressed_cache_size_pickle_py35_np19.gz_01.npy.z",
        "path_type": "hardlink",
        "sha256": "613f55bd3dec125dae5a53b2bc7d8293213d4a8938a1df4ede45ad81eb9452a1",
        "sha256_in_prefix": "613f55bd3dec125dae5a53b2bc7d8293213d4a8938a1df4ede45ad81eb9452a1",
        "size_in_bytes": 43
      },
      {
        "_path": "site-packages/joblib/test/data/joblib_0.9.4.dev0_compressed_cache_size_pickle_py35_np19.gz_02.npy.z",
        "path_type": "hardlink",
        "sha256": "b710394432343d1ba253f50d298f291a9fb3420410f6f695bcc8bad2138f695b",
        "sha256_in_prefix": "b710394432343d1ba253f50d298f291a9fb3420410f6f695bcc8bad2138f695b",
        "size_in_bytes": 43
      },
      {
        "_path": "site-packages/joblib/test/data/joblib_0.9.4.dev0_compressed_cache_size_pickle_py35_np19.gz_03.npy.z",
        "path_type": "hardlink",
        "sha256": "777030202bd4d8ca5236387668f22c74978664b9438c03401754a86bab8cd0fa",
        "sha256_in_prefix": "777030202bd4d8ca5236387668f22c74978664b9438c03401754a86bab8cd0fa",
        "size_in_bytes": 37
      },
      {
        "_path": "site-packages/joblib/test/test_backports.py",
        "path_type": "hardlink",
        "sha256": "63d6e119ae87f8afc580b903c976921f3a5a5a4d78f118e7f11f4828229dcbe9",
        "sha256_in_prefix": "63d6e119ae87f8afc580b903c976921f3a5a5a4d78f118e7f11f4828229dcbe9",
        "size_in_bytes": 1175
      },
      {
        "_path": "site-packages/joblib/test/test_dask.py",
        "path_type": "hardlink",
        "sha256": "1bda4a69b36e66933e7bef9984d95717e16ccbc0c300de3017f23fac2c8d7b85",
        "sha256_in_prefix": "1bda4a69b36e66933e7bef9984d95717e16ccbc0c300de3017f23fac2c8d7b85",
        "size_in_bytes": 11889
      },
      {
        "_path": "site-packages/joblib/test/test_disk.py",
        "path_type": "hardlink",
        "sha256": "c09775a3d9cbcea1232eac7192007d4bbf9470a8c73d0f2a2b997473370da74a",
        "sha256_in_prefix": "c09775a3d9cbcea1232eac7192007d4bbf9470a8c73d0f2a2b997473370da74a",
        "size_in_bytes": 2205
      },
      {
        "_path": "site-packages/joblib/test/test_format_stack.py",
        "path_type": "hardlink",
        "sha256": "c13b63465a7479d36feff373c5953a0c054942879b2fe9671ac5043305595e93",
        "sha256_in_prefix": "c13b63465a7479d36feff373c5953a0c054942879b2fe9671ac5043305595e93",
        "size_in_bytes": 4250
      },
      {
        "_path": "site-packages/joblib/test/test_func_inspect.py",
        "path_type": "hardlink",
        "sha256": "a4d3bd7167a62320547cfa9be022015709dc68e6311aca746e883f1f5adf364b",
        "sha256_in_prefix": "a4d3bd7167a62320547cfa9be022015709dc68e6311aca746e883f1f5adf364b",
        "size_in_bytes": 9668
      },
      {
        "_path": "site-packages/joblib/test/test_func_inspect_special_encoding.py",
        "path_type": "hardlink",
        "sha256": "a076cc4cf38add7234615a12d06b28b89f867ccfe778fe06388242f932a73605",
        "sha256_in_prefix": "a076cc4cf38add7234615a12d06b28b89f867ccfe778fe06388242f932a73605",
        "size_in_bytes": 146
      },
      {
        "_path": "site-packages/joblib/test/test_hashing.py",
        "path_type": "hardlink",
        "sha256": "e38d3f6006ce7caefbc3d76af94e767e0da0843b5b026828ba010127f773eb94",
        "sha256_in_prefix": "e38d3f6006ce7caefbc3d76af94e767e0da0843b5b026828ba010127f773eb94",
        "size_in_bytes": 15708
      },
      {
        "_path": "site-packages/joblib/test/test_init.py",
        "path_type": "hardlink",
        "sha256": "6e0345fbd088265d4c14d03be4b05639a88db6f76e55fbaf825cffbbd4edf147",
        "sha256_in_prefix": "6e0345fbd088265d4c14d03be4b05639a88db6f76e55fbaf825cffbbd4edf147",
        "size_in_bytes": 422
      },
      {
        "_path": "site-packages/joblib/test/test_logger.py",
        "path_type": "hardlink",
        "sha256": "6bcbb7b6e8cbd30bff2fef85f7fd4267c088f8a8dc4e96004739790ba732c848",
        "sha256_in_prefix": "6bcbb7b6e8cbd30bff2fef85f7fd4267c088f8a8dc4e96004739790ba732c848",
        "size_in_bytes": 1112
      },
      {
        "_path": "site-packages/joblib/test/test_memmapping.py",
        "path_type": "hardlink",
        "sha256": "a168d2981c53fd6a90c4e2838b28de3e27b8dd4d4dfe33c8abe0ffc25ea93d15",
        "sha256_in_prefix": "a168d2981c53fd6a90c4e2838b28de3e27b8dd4d4dfe33c8abe0ffc25ea93d15",
        "size_in_bytes": 23435
      },
      {
        "_path": "site-packages/joblib/test/test_memory.py",
        "path_type": "hardlink",
        "sha256": "5388dc18f0ac8971bd0c2690a31aef3882e20f4e213be7c70a839e32548ee37e",
        "sha256_in_prefix": "5388dc18f0ac8971bd0c2690a31aef3882e20f4e213be7c70a839e32548ee37e",
        "size_in_bytes": 39993
      },
      {
        "_path": "site-packages/joblib/test/test_module.py",
        "path_type": "hardlink",
        "sha256": "aa93ea76021df1e0d4bc3b4cd2e813606e9f005797c12fff9e0c2856d67ee624",
        "sha256_in_prefix": "aa93ea76021df1e0d4bc3b4cd2e813606e9f005797c12fff9e0c2856d67ee624",
        "size_in_bytes": 1969
      },
      {
        "_path": "site-packages/joblib/test/test_my_exceptions.py",
        "path_type": "hardlink",
        "sha256": "75effeec0dc463302fdeef929ed0eb12455f6800bda44eff6076923b56e58109",
        "sha256_in_prefix": "75effeec0dc463302fdeef929ed0eb12455f6800bda44eff6076923b56e58109",
        "size_in_bytes": 2383
      },
      {
        "_path": "site-packages/joblib/test/test_numpy_pickle.py",
        "path_type": "hardlink",
        "sha256": "8f9fe9729a4df8efb1c5326ce12be2809ae4e9c87a140756cb1f22106cf421e9",
        "sha256_in_prefix": "8f9fe9729a4df8efb1c5326ce12be2809ae4e9c87a140756cb1f22106cf421e9",
        "size_in_bytes": 39373
      },
      {
        "_path": "site-packages/joblib/test/test_numpy_pickle_compat.py",
        "path_type": "hardlink",
        "sha256": "0b93a2685aea9b1603e7b7ebfcba6622d77a38e64f78e31fa3d455afa6592249",
        "sha256_in_prefix": "0b93a2685aea9b1603e7b7ebfcba6622d77a38e64f78e31fa3d455afa6592249",
        "size_in_bytes": 624
      },
      {
        "_path": "site-packages/joblib/test/test_numpy_pickle_utils.py",
        "path_type": "hardlink",
        "sha256": "3c955582bfafdeca3da007fd2db9404910a9b7ec17028d7d16fb14a70f9f6632",
        "sha256_in_prefix": "3c955582bfafdeca3da007fd2db9404910a9b7ec17028d7d16fb14a70f9f6632",
        "size_in_bytes": 421
      },
      {
        "_path": "site-packages/joblib/test/test_parallel.py",
        "path_type": "hardlink",
        "sha256": "f9991794c485ca2171ab8fec5073f6fc551c8eee39632d56db28b37952505584",
        "sha256_in_prefix": "f9991794c485ca2171ab8fec5073f6fc551c8eee39632d56db28b37952505584",
        "size_in_bytes": 62342
      },
      {
        "_path": "site-packages/joblib/test/test_store_backends.py",
        "path_type": "hardlink",
        "sha256": "7d9874fc4e518f955327f5331f76aeb47a56c0469642f59389007c7de95500de",
        "sha256_in_prefix": "7d9874fc4e518f955327f5331f76aeb47a56c0469642f59389007c7de95500de",
        "size_in_bytes": 1942
      },
      {
        "_path": "site-packages/joblib/test/test_testing.py",
        "path_type": "hardlink",
        "sha256": "23e12474a1d6747bbc9b97e8d8d9f207402a47ccc0389d3558a2afc996119de6",
        "sha256_in_prefix": "23e12474a1d6747bbc9b97e8d8d9f207402a47ccc0389d3558a2afc996119de6",
        "size_in_bytes": 2467
      },
      {
        "_path": "site-packages/joblib/testing.py",
        "path_type": "hardlink",
        "sha256": "61a5d70257ca861df14f226a119a0ec4aaf3015dd03aa1dbbd68d91ecdcb4f35",
        "sha256_in_prefix": "61a5d70257ca861df14f226a119a0ec4aaf3015dd03aa1dbbd68d91ecdcb4f35",
        "size_in_bytes": 2204
      },
      {
        "_path": "lib/python3.7/site-packages/joblib/__pycache__/__init__.cpython-37.pyc",
        "path_type": "pyc_file"
      },
      {
        "_path": "lib/python3.7/site-packages/joblib/__pycache__/_compat.cpython-37.pyc",
        "path_type": "pyc_file"
      },
      {
        "_path": "lib/python3.7/site-packages/joblib/__pycache__/_dask.cpython-37.pyc",
        "path_type": "pyc_file"
      },
      {
        "_path": "lib/python3.7/site-packages/joblib/__pycache__/_memmapping_reducer.cpython-37.pyc",
        "path_type": "pyc_file"
      },
      {
        "_path": "lib/python3.7/site-packages/joblib/__pycache__/_memory_helpers.cpython-37.pyc",
        "path_type": "pyc_file"
      },
      {
        "_path": "lib/python3.7/site-packages/joblib/__pycache__/_multiprocessing_helpers.cpython-37.pyc",
        "path_type": "pyc_file"
      },
      {
        "_path": "lib/python3.7/site-packages/joblib/__pycache__/_parallel_backends.cpython-37.pyc",
        "path_type": "pyc_file"
      },
      {
        "_path": "lib/python3.7/site-packages/joblib/__pycache__/_store_backends.cpython-37.pyc",
        "path_type": "pyc_file"
      },
      {
        "_path": "lib/python3.7/site-packages/joblib/__pycache__/backports.cpython-37.pyc",
        "path_type": "pyc_file"
      },
      {
        "_path": "lib/python3.7/site-packages/joblib/__pycache__/compressor.cpython-37.pyc",
        "path_type": "pyc_file"
      },
      {
        "_path": "lib/python3.7/site-packages/joblib/__pycache__/disk.cpython-37.pyc",
        "path_type": "pyc_file"
      },
      {
        "_path": "lib/python3.7/site-packages/joblib/__pycache__/executor.cpython-37.pyc",
        "path_type": "pyc_file"
      },
      {
        "_path": "lib/python3.7/site-packages/joblib/externals/__pycache__/__init__.cpython-37.pyc",
        "path_type": "pyc_file"
      },
      {
        "_path": "lib/python3.7/site-packages/joblib/externals/cloudpickle/__pycache__/__init__.cpython-37.pyc",
        "path_type": "pyc_file"
      },
      {
        "_path": "lib/python3.7/site-packages/joblib/externals/cloudpickle/__pycache__/cloudpickle.cpython-37.pyc",
        "path_type": "pyc_file"
      },
      {
        "_path": "lib/python3.7/site-packages/joblib/externals/cloudpickle/__pycache__/cloudpickle_fast.cpython-37.pyc",
        "path_type": "pyc_file"
      },
      {
        "_path": "lib/python3.7/site-packages/joblib/externals/loky/__pycache__/__init__.cpython-37.pyc",
        "path_type": "pyc_file"
      },
      {
        "_path": "lib/python3.7/site-packages/joblib/externals/loky/__pycache__/_base.cpython-37.pyc",
        "path_type": "pyc_file"
      },
      {
        "_path": "lib/python3.7/site-packages/joblib/externals/loky/backend/__pycache__/__init__.cpython-37.pyc",
        "path_type": "pyc_file"
      },
      {
        "_path": "lib/python3.7/site-packages/joblib/externals/loky/backend/__pycache__/_posix_reduction.cpython-37.pyc",
        "path_type": "pyc_file"
      },
      {
        "_path": "lib/python3.7/site-packages/joblib/externals/loky/backend/__pycache__/_posix_wait.cpython-37.pyc",
        "path_type": "pyc_file"
      },
      {
        "_path": "lib/python3.7/site-packages/joblib/externals/loky/backend/__pycache__/_win_reduction.cpython-37.pyc",
        "path_type": "pyc_file"
      },
      {
        "_path": "lib/python3.7/site-packages/joblib/externals/loky/backend/__pycache__/_win_wait.cpython-37.pyc",
        "path_type": "pyc_file"
      },
      {
        "_path": "lib/python3.7/site-packages/joblib/externals/loky/backend/__pycache__/compat.cpython-37.pyc",
        "path_type": "pyc_file"
      },
      {
        "_path": "lib/python3.7/site-packages/joblib/externals/loky/backend/__pycache__/compat_posix.cpython-37.pyc",
        "path_type": "pyc_file"
      },
      {
        "_path": "lib/python3.7/site-packages/joblib/externals/loky/backend/__pycache__/compat_win32.cpython-37.pyc",
        "path_type": "pyc_file"
      },
      {
        "_path": "lib/python3.7/site-packages/joblib/externals/loky/backend/__pycache__/context.cpython-37.pyc",
        "path_type": "pyc_file"
      },
      {
        "_path": "lib/python3.7/site-packages/joblib/externals/loky/backend/__pycache__/fork_exec.cpython-37.pyc",
        "path_type": "pyc_file"
      },
      {
        "_path": "lib/python3.7/site-packages/joblib/externals/loky/backend/__pycache__/managers.cpython-37.pyc",
        "path_type": "pyc_file"
      },
      {
        "_path": "lib/python3.7/site-packages/joblib/externals/loky/backend/__pycache__/popen_loky_posix.cpython-37.pyc",
        "path_type": "pyc_file"
      },
      {
        "_path": "lib/python3.7/site-packages/joblib/externals/loky/backend/__pycache__/popen_loky_win32.cpython-37.pyc",
        "path_type": "pyc_file"
      },
      {
        "_path": "lib/python3.7/site-packages/joblib/externals/loky/backend/__pycache__/process.cpython-37.pyc",
        "path_type": "pyc_file"
      },
      {
        "_path": "lib/python3.7/site-packages/joblib/externals/loky/backend/__pycache__/queues.cpython-37.pyc",
        "path_type": "pyc_file"
      },
      {
        "_path": "lib/python3.7/site-packages/joblib/externals/loky/backend/__pycache__/reduction.cpython-37.pyc",
        "path_type": "pyc_file"
      },
      {
        "_path": "lib/python3.7/site-packages/joblib/externals/loky/backend/__pycache__/resource_tracker.cpython-37.pyc",
        "path_type": "pyc_file"
      },
      {
        "_path": "lib/python3.7/site-packages/joblib/externals/loky/backend/__pycache__/semlock.cpython-37.pyc",
        "path_type": "pyc_file"
      },
      {
        "_path": "lib/python3.7/site-packages/joblib/externals/loky/backend/__pycache__/spawn.cpython-37.pyc",
        "path_type": "pyc_file"
      },
      {
        "_path": "lib/python3.7/site-packages/joblib/externals/loky/backend/__pycache__/synchronize.cpython-37.pyc",
        "path_type": "pyc_file"
      },
      {
        "_path": "lib/python3.7/site-packages/joblib/externals/loky/backend/__pycache__/utils.cpython-37.pyc",
        "path_type": "pyc_file"
      },
      {
        "_path": "lib/python3.7/site-packages/joblib/externals/loky/__pycache__/cloudpickle_wrapper.cpython-37.pyc",
        "path_type": "pyc_file"
      },
      {
        "_path": "lib/python3.7/site-packages/joblib/externals/loky/__pycache__/process_executor.cpython-37.pyc",
        "path_type": "pyc_file"
      },
      {
        "_path": "lib/python3.7/site-packages/joblib/externals/loky/__pycache__/reusable_executor.cpython-37.pyc",
        "path_type": "pyc_file"
      },
      {
        "_path": "lib/python3.7/site-packages/joblib/__pycache__/format_stack.cpython-37.pyc",
        "path_type": "pyc_file"
      },
      {
        "_path": "lib/python3.7/site-packages/joblib/__pycache__/func_inspect.cpython-37.pyc",
        "path_type": "pyc_file"
      },
      {
        "_path": "lib/python3.7/site-packages/joblib/__pycache__/hashing.cpython-37.pyc",
        "path_type": "pyc_file"
      },
      {
        "_path": "lib/python3.7/site-packages/joblib/__pycache__/logger.cpython-37.pyc",
        "path_type": "pyc_file"
      },
      {
        "_path": "lib/python3.7/site-packages/joblib/__pycache__/memory.cpython-37.pyc",
        "path_type": "pyc_file"
      },
      {
        "_path": "lib/python3.7/site-packages/joblib/__pycache__/my_exceptions.cpython-37.pyc",
        "path_type": "pyc_file"
      },
      {
        "_path": "lib/python3.7/site-packages/joblib/__pycache__/numpy_pickle.cpython-37.pyc",
        "path_type": "pyc_file"
      },
      {
        "_path": "lib/python3.7/site-packages/joblib/__pycache__/numpy_pickle_compat.cpython-37.pyc",
        "path_type": "pyc_file"
      },
      {
        "_path": "lib/python3.7/site-packages/joblib/__pycache__/numpy_pickle_utils.cpython-37.pyc",
        "path_type": "pyc_file"
      },
      {
        "_path": "lib/python3.7/site-packages/joblib/__pycache__/parallel.cpython-37.pyc",
        "path_type": "pyc_file"
      },
      {
        "_path": "lib/python3.7/site-packages/joblib/__pycache__/pool.cpython-37.pyc",
        "path_type": "pyc_file"
      },
      {
        "_path": "lib/python3.7/site-packages/joblib/test/__pycache__/__init__.cpython-37.pyc",
        "path_type": "pyc_file"
      },
      {
        "_path": "lib/python3.7/site-packages/joblib/test/__pycache__/common.cpython-37.pyc",
        "path_type": "pyc_file"
      },
      {
        "_path": "lib/python3.7/site-packages/joblib/test/data/__pycache__/__init__.cpython-37.pyc",
        "path_type": "pyc_file"
      },
      {
        "_path": "lib/python3.7/site-packages/joblib/test/data/__pycache__/create_numpy_pickle.cpython-37.pyc",
        "path_type": "pyc_file"
      },
      {
        "_path": "lib/python3.7/site-packages/joblib/test/__pycache__/test_backports.cpython-37.pyc",
        "path_type": "pyc_file"
      },
      {
        "_path": "lib/python3.7/site-packages/joblib/test/__pycache__/test_dask.cpython-37.pyc",
        "path_type": "pyc_file"
      },
      {
        "_path": "lib/python3.7/site-packages/joblib/test/__pycache__/test_disk.cpython-37.pyc",
        "path_type": "pyc_file"
      },
      {
        "_path": "lib/python3.7/site-packages/joblib/test/__pycache__/test_format_stack.cpython-37.pyc",
        "path_type": "pyc_file"
      },
      {
        "_path": "lib/python3.7/site-packages/joblib/test/__pycache__/test_func_inspect.cpython-37.pyc",
        "path_type": "pyc_file"
      },
      {
        "_path": "lib/python3.7/site-packages/joblib/test/__pycache__/test_func_inspect_special_encoding.cpython-37.pyc",
        "path_type": "pyc_file"
      },
      {
        "_path": "lib/python3.7/site-packages/joblib/test/__pycache__/test_hashing.cpython-37.pyc",
        "path_type": "pyc_file"
      },
      {
        "_path": "lib/python3.7/site-packages/joblib/test/__pycache__/test_init.cpython-37.pyc",
        "path_type": "pyc_file"
      },
      {
        "_path": "lib/python3.7/site-packages/joblib/test/__pycache__/test_logger.cpython-37.pyc",
        "path_type": "pyc_file"
      },
      {
        "_path": "lib/python3.7/site-packages/joblib/test/__pycache__/test_memmapping.cpython-37.pyc",
        "path_type": "pyc_file"
      },
      {
        "_path": "lib/python3.7/site-packages/joblib/test/__pycache__/test_memory.cpython-37.pyc",
        "path_type": "pyc_file"
      },
      {
        "_path": "lib/python3.7/site-packages/joblib/test/__pycache__/test_module.cpython-37.pyc",
        "path_type": "pyc_file"
      },
      {
        "_path": "lib/python3.7/site-packages/joblib/test/__pycache__/test_my_exceptions.cpython-37.pyc",
        "path_type": "pyc_file"
      },
      {
        "_path": "lib/python3.7/site-packages/joblib/test/__pycache__/test_numpy_pickle.cpython-37.pyc",
        "path_type": "pyc_file"
      },
      {
        "_path": "lib/python3.7/site-packages/joblib/test/__pycache__/test_numpy_pickle_compat.cpython-37.pyc",
        "path_type": "pyc_file"
      },
      {
        "_path": "lib/python3.7/site-packages/joblib/test/__pycache__/test_numpy_pickle_utils.cpython-37.pyc",
        "path_type": "pyc_file"
      },
      {
        "_path": "lib/python3.7/site-packages/joblib/test/__pycache__/test_parallel.cpython-37.pyc",
        "path_type": "pyc_file"
      },
      {
        "_path": "lib/python3.7/site-packages/joblib/test/__pycache__/test_store_backends.cpython-37.pyc",
        "path_type": "pyc_file"
      },
      {
        "_path": "lib/python3.7/site-packages/joblib/test/__pycache__/test_testing.cpython-37.pyc",
        "path_type": "pyc_file"
      },
      {
        "_path": "lib/python3.7/site-packages/joblib/__pycache__/testing.cpython-37.pyc",
        "path_type": "pyc_file"
      }
    ],
    "paths_version": 1
  },
  "requested_spec": "None",
  "sha256": "262dd98ed6b26b8e7543d906bc12cc987709e232ae0ae321b743613710da72a4",
  "size": 206552,
  "subdir": "noarch",
  "timestamp": 1576513149573,
  "track_features": "",
  "url": "https://conda.anaconda.org/anaconda/noarch/joblib-0.14.1-py_0.tar.bz2",
  "version": "0.14.1"
}