{
  "build": "1",
  "build_number": 1,
  "channel": "https://conda.anaconda.org/conda-forge/linux-64",
  "constrains": [],
  "depends": [],
  "extracted_package_dir": "/home/samuel/anaconda3/pkgs/libgfortran-3.0.0-1",
  "features": "",
  "files": [
    "lib/libgfortran.so.3",
    "lib/libgfortran.so.3.0.0"
  ],
  "fn": "libgfortran-3.0.0-1.tar.bz2",
  "license": "GPL3",
  "link": {
    "source": "/home/samuel/anaconda3/pkgs/libgfortran-3.0.0-1",
    "type": 1
  },
  "md5": "d7c7e92a8ccc518709474dd3eda896b9",
  "name": "libgfortran",
  "package_tarball_full_path": "/home/samuel/anaconda3/pkgs/libgfortran-3.0.0-1.tar.bz2",
  "paths_data": {
    "paths": [
      {
        "_path": "lib/libgfortran.so.3",
        "path_type": "softlink"
      },
      {
        "_path": "lib/libgfortran.so.3.0.0",
        "path_type": "hardlink"
      }
    ],
    "paths_version": 1
  },
  "requested_spec": "None",
  "sha256": "9971bbc316b2d56be275ccd796aedabecc414260fa0f46ee9dd1f1e40531a837",
  "size": 287481,
  "subdir": "linux-64",
  "track_features": "",
  "url": "https://conda.anaconda.org/conda-forge/linux-64/libgfortran-3.0.0-1.tar.bz2",
  "version": "3.0.0"
}