{
  "build": "h1bed415_2",
  "build_number": 2,
  "channel": "https://repo.anaconda.com/pkgs/main/linux-64",
  "constrains": [],
  "depends": [
    "libgcc-ng >=7.2.0"
  ],
  "extracted_package_dir": "/home/samuel/anaconda3/pkgs/libuuid-1.0.3-h1bed415_2",
  "features": "",
  "files": [
    "include/uuid/uuid.h",
    "lib/libuuid.a",
    "lib/libuuid.la",
    "lib/libuuid.so",
    "lib/libuuid.so.1",
    "lib/libuuid.so.1.0.0",
    "lib/pkgconfig/uuid.pc"
  ],
  "fn": "libuuid-1.0.3-h1bed415_2.conda",
  "legacy_bz2_md5": "c139036e48b27c84ab08cdd18369851a",
  "license": "BSD 3-Clause",
  "link": {
    "source": "/home/samuel/anaconda3/pkgs/libuuid-1.0.3-h1bed415_2",
    "type": 1
  },
  "md5": "c7eb74a82210554559774327088c2582",
  "name": "libuuid",
  "package_tarball_full_path": "/home/samuel/anaconda3/pkgs/libuuid-1.0.3-h1bed415_2.conda",
  "paths_data": {
    "paths": [
      {
        "_path": "include/uuid/uuid.h",
        "path_type": "hardlink",
        "sha256": "d6471ec814fdc0517f448d2b42d1fc5403eaf4b27124a1cf4e151b0fb73704da",
        "sha256_in_prefix": "d6471ec814fdc0517f448d2b42d1fc5403eaf4b27124a1cf4e151b0fb73704da",
        "size_in_bytes": 3297
      },
      {
        "_path": "lib/libuuid.a",
        "path_type": "hardlink",
        "sha256": "9f9a827f120b0e97b551fcb4ef440af9449825e98c61ea88aaa3183f7d4583ac",
        "sha256_in_prefix": "9f9a827f120b0e97b551fcb4ef440af9449825e98c61ea88aaa3183f7d4583ac",
        "size_in_bytes": 26398
      },
      {
        "_path": "lib/libuuid.la",
        "file_mode": "text",
        "path_type": "hardlink",
        "prefix_placeholder": "/opt/anaconda1anaconda2anaconda3",
        "sha256": "765af53906f1527cecc9feeb72d53c0f006ac6ecd052eebd6d55ea297d61e9f8",
        "sha256_in_prefix": "e2871fe9e5a56fe2f6ae2c640021785a1ea57f34e3492fd4d813f320fa399744",
        "size_in_bytes": 978
      },
      {
        "_path": "lib/libuuid.so",
        "path_type": "softlink",
        "sha256": "08f304f183f0625161ed50026bfe03a435b5044de015c122883a34e3fe1981ff",
        "size_in_bytes": 18472
      },
      {
        "_path": "lib/libuuid.so.1",
        "path_type": "softlink",
        "sha256": "08f304f183f0625161ed50026bfe03a435b5044de015c122883a34e3fe1981ff",
        "size_in_bytes": 18472
      },
      {
        "_path": "lib/libuuid.so.1.0.0",
        "path_type": "hardlink",
        "sha256": "08f304f183f0625161ed50026bfe03a435b5044de015c122883a34e3fe1981ff",
        "sha256_in_prefix": "08f304f183f0625161ed50026bfe03a435b5044de015c122883a34e3fe1981ff",
        "size_in_bytes": 18472
      },
      {
        "_path": "lib/pkgconfig/uuid.pc",
        "file_mode": "text",
        "path_type": "hardlink",
        "prefix_placeholder": "/opt/anaconda1anaconda2anaconda3",
        "sha256": "5ea611521069dd1250318e13447bb8bd5d91e5d34633d62e82917c426ae1ed3b",
        "sha256_in_prefix": "06283f3a63cf16da08a10a4b9cc40b4f140ba92f0433ce1cbfaf334e34fbd012",
        "size_in_bytes": 251
      }
    ],
    "paths_version": 1
  },
  "requested_spec": "None",
  "sha256": "7c4bc14591f14cbe1c92bd0c658c21d1dbe7138a0067b0c9f0fe65bf5ceb8c53",
  "size": 15085,
  "subdir": "linux-64",
  "timestamp": 1515696691334,
  "track_features": "",
  "url": "https://repo.anaconda.com/pkgs/main/linux-64/libuuid-1.0.3-h1bed415_2.conda",
  "version": "1.0.3"
}