{
  "build": "281",
  "build_number": 281,
  "channel": "https://conda.anaconda.org/anaconda/linux-64",
  "constrains": [],
  "depends": [
    "intel-openmp"
  ],
  "extracted_package_dir": "/home/samuel/anaconda3/pkgs/mkl-2019.5-281",
  "features": "",
  "files": [
    "lib/libmkl_avx.so",
    "lib/libmkl_avx2.so",
    "lib/libmkl_avx512.so",
    "lib/libmkl_avx512_mic.so",
    "lib/libmkl_blacs_intelmpi_ilp64.so",
    "lib/libmkl_blacs_intelmpi_lp64.so",
    "lib/libmkl_blacs_openmpi_ilp64.so",
    "lib/libmkl_blacs_openmpi_lp64.so",
    "lib/libmkl_blacs_sgimpt_ilp64.so",
    "lib/libmkl_blacs_sgimpt_lp64.so",
    "lib/libmkl_cdft_core.so",
    "lib/libmkl_core.so",
    "lib/libmkl_def.so",
    "lib/libmkl_gf_ilp64.so",
    "lib/libmkl_gf_lp64.so",
    "lib/libmkl_gnu_thread.so",
    "lib/libmkl_intel_ilp64.so",
    "lib/libmkl_intel_lp64.so",
    "lib/libmkl_intel_thread.so",
    "lib/libmkl_mc.so",
    "lib/libmkl_mc3.so",
    "lib/libmkl_pgi_thread.so",
    "lib/libmkl_rt.so",
    "lib/libmkl_scalapack_ilp64.so",
    "lib/libmkl_scalapack_lp64.so",
    "lib/libmkl_sequential.so",
    "lib/libmkl_tbb_thread.so",
    "lib/libmkl_vml_avx.so",
    "lib/libmkl_vml_avx2.so",
    "lib/libmkl_vml_avx512.so",
    "lib/libmkl_vml_avx512_mic.so",
    "lib/libmkl_vml_cmpt.so",
    "lib/libmkl_vml_def.so",
    "lib/libmkl_vml_mc.so",
    "lib/libmkl_vml_mc2.so",
    "lib/libmkl_vml_mc3.so",
    "lib/mkl_msg.cat"
  ],
  "fn": "mkl-2019.5-281.tar.bz2",
  "license": "proprietary - Intel",
  "license_family": "Proprietary",
  "link": {
    "source": "/home/samuel/anaconda3/pkgs/mkl-2019.5-281",
    "type": 1
  },
  "md5": "b53770c11f4b3efc681bcf9703981099",
  "name": "mkl",
  "package_tarball_full_path": "/home/samuel/anaconda3/pkgs/mkl-2019.5-281.tar.bz2",
  "paths_data": {
    "paths": [
      {
        "_path": "lib/libmkl_avx.so",
        "path_type": "hardlink",
        "sha256": "6598f81a02abb53fe1ab616ac388e28d9a1659d2fc65aff43cb9fa117616ab7f",
        "sha256_in_prefix": "6598f81a02abb53fe1ab616ac388e28d9a1659d2fc65aff43cb9fa117616ab7f",
        "size_in_bytes": 53021811
      },
      {
        "_path": "lib/libmkl_avx2.so",
        "path_type": "hardlink",
        "sha256": "88ceac4bcc83ce0944ad8ded84d5618219826153f4ca85a1a8b097a020833407",
        "sha256_in_prefix": "88ceac4bcc83ce0944ad8ded84d5618219826153f4ca85a1a8b097a020833407",
        "size_in_bytes": 57255703
      },
      {
        "_path": "lib/libmkl_avx512.so",
        "path_type": "hardlink",
        "sha256": "85de2e124950cfa2ed7feddd8ba141830218f82fcea569bba6f43063e3e5a4de",
        "sha256_in_prefix": "85de2e124950cfa2ed7feddd8ba141830218f82fcea569bba6f43063e3e5a4de",
        "size_in_bytes": 70519811
      },
      {
        "_path": "lib/libmkl_avx512_mic.so",
        "path_type": "hardlink",
        "sha256": "fe3effcd8439d412f97473bc564296872e1d88c53d5e97e3c3151272ae50a356",
        "sha256_in_prefix": "fe3effcd8439d412f97473bc564296872e1d88c53d5e97e3c3151272ae50a356",
        "size_in_bytes": 75796868
      },
      {
        "_path": "lib/libmkl_blacs_intelmpi_ilp64.so",
        "path_type": "hardlink",
        "sha256": "bf9d990cd23cd847f6cd47fed6e1e26ec2fd1d68ae10a075a2eb8a1562a1d191",
        "sha256_in_prefix": "bf9d990cd23cd847f6cd47fed6e1e26ec2fd1d68ae10a075a2eb8a1562a1d191",
        "size_in_bytes": 499647
      },
      {
        "_path": "lib/libmkl_blacs_intelmpi_lp64.so",
        "path_type": "hardlink",
        "sha256": "f36b875c0b65bff1ac9b54ff527a18d97cc79bd295a2b1a02cf6a15079cc4612",
        "sha256_in_prefix": "f36b875c0b65bff1ac9b54ff527a18d97cc79bd295a2b1a02cf6a15079cc4612",
        "size_in_bytes": 302138
      },
      {
        "_path": "lib/libmkl_blacs_openmpi_ilp64.so",
        "path_type": "hardlink",
        "sha256": "5b107f53a70d4733d792e309872708d743180f4fbf90e7d9855f284a204e4f02",
        "sha256_in_prefix": "5b107f53a70d4733d792e309872708d743180f4fbf90e7d9855f284a204e4f02",
        "size_in_bytes": 500791
      },
      {
        "_path": "lib/libmkl_blacs_openmpi_lp64.so",
        "path_type": "hardlink",
        "sha256": "05c9f83eaa6f1694f365bf6507fc1ba980c549ba8cc2d2e7c84073278ed1de66",
        "sha256_in_prefix": "05c9f83eaa6f1694f365bf6507fc1ba980c549ba8cc2d2e7c84073278ed1de66",
        "size_in_bytes": 307346
      },
      {
        "_path": "lib/libmkl_blacs_sgimpt_ilp64.so",
        "path_type": "hardlink",
        "sha256": "67c57e8c782c49cbb3472002184469a22657d3078ebd50077082a04c8f51b6f2",
        "sha256_in_prefix": "67c57e8c782c49cbb3472002184469a22657d3078ebd50077082a04c8f51b6f2",
        "size_in_bytes": 499968
      },
      {
        "_path": "lib/libmkl_blacs_sgimpt_lp64.so",
        "path_type": "hardlink",
        "sha256": "90f6b6ee07eb01d3f2adaa8fc708c21aa3f185ed965fb6802dd1c33dfc64cad5",
        "sha256_in_prefix": "90f6b6ee07eb01d3f2adaa8fc708c21aa3f185ed965fb6802dd1c33dfc64cad5",
        "size_in_bytes": 302427
      },
      {
        "_path": "lib/libmkl_cdft_core.so",
        "path_type": "hardlink",
        "sha256": "abd04580e58f5fef6956f86257e2fc38892c8ce00b877a61fd37437d39af5e67",
        "sha256_in_prefix": "abd04580e58f5fef6956f86257e2fc38892c8ce00b877a61fd37437d39af5e67",
        "size_in_bytes": 169424
      },
      {
        "_path": "lib/libmkl_core.so",
        "path_type": "hardlink",
        "sha256": "286c433803ba649b877c49fe0ef5c444c95f9a16f0d0f0e98c03fca69cd51237",
        "sha256_in_prefix": "286c433803ba649b877c49fe0ef5c444c95f9a16f0d0f0e98c03fca69cd51237",
        "size_in_bytes": 71154246
      },
      {
        "_path": "lib/libmkl_def.so",
        "path_type": "hardlink",
        "sha256": "8f520d73761d05998f6a9e5f0af82918cdc7ede9bf97a26d615ea46faac7df61",
        "sha256_in_prefix": "8f520d73761d05998f6a9e5f0af82918cdc7ede9bf97a26d615ea46faac7df61",
        "size_in_bytes": 41122476
      },
      {
        "_path": "lib/libmkl_gf_ilp64.so",
        "path_type": "hardlink",
        "sha256": "475e9b949d87da4cc87a618b05efeca94df1813e92d98e26c2b38fcaaefd1a85",
        "sha256_in_prefix": "475e9b949d87da4cc87a618b05efeca94df1813e92d98e26c2b38fcaaefd1a85",
        "size_in_bytes": 10474921
      },
      {
        "_path": "lib/libmkl_gf_lp64.so",
        "path_type": "hardlink",
        "sha256": "f73ad8eb59db275921a721909e847b4989a39f5357342a9b31944c99bbb24ddc",
        "sha256_in_prefix": "f73ad8eb59db275921a721909e847b4989a39f5357342a9b31944c99bbb24ddc",
        "size_in_bytes": 11218080
      },
      {
        "_path": "lib/libmkl_gnu_thread.so",
        "path_type": "hardlink",
        "sha256": "fe572bb811de1661f5ca69c24928e193991e7f2c448b3830b42324f5fc3af859",
        "sha256_in_prefix": "fe572bb811de1661f5ca69c24928e193991e7f2c448b3830b42324f5fc3af859",
        "size_in_bytes": 25347578
      },
      {
        "_path": "lib/libmkl_intel_ilp64.so",
        "path_type": "hardlink",
        "sha256": "535040fb3b4d26900ce3e94d8c669e23c7003bfd3fc564ba49740e342011c1e2",
        "sha256_in_prefix": "535040fb3b4d26900ce3e94d8c669e23c7003bfd3fc564ba49740e342011c1e2",
        "size_in_bytes": 10526016
      },
      {
        "_path": "lib/libmkl_intel_lp64.so",
        "path_type": "hardlink",
        "sha256": "7ec2e740b081144dbb130482401f7dac4d93413ff64b7b58eed010861ea10167",
        "sha256_in_prefix": "7ec2e740b081144dbb130482401f7dac4d93413ff64b7b58eed010861ea10167",
        "size_in_bytes": 11273271
      },
      {
        "_path": "lib/libmkl_intel_thread.so",
        "path_type": "hardlink",
        "sha256": "bf3a096ef3430387e40888a3bf7d03a92a2d94eb38f42ee6c15f7e528e2689f8",
        "sha256_in_prefix": "bf3a096ef3430387e40888a3bf7d03a92a2d94eb38f42ee6c15f7e528e2689f8",
        "size_in_bytes": 40451049
      },
      {
        "_path": "lib/libmkl_mc.so",
        "path_type": "hardlink",
        "sha256": "8deb8a6e976c7e75ee3f98d261fae94aacb1ab9926fdcc518c40c47c603c2959",
        "sha256_in_prefix": "8deb8a6e976c7e75ee3f98d261fae94aacb1ab9926fdcc518c40c47c603c2959",
        "size_in_bytes": 47482475
      },
      {
        "_path": "lib/libmkl_mc3.so",
        "path_type": "hardlink",
        "sha256": "c25cd79c8dc426d4afbde7db06540c6106383acf1ae71f066b78ab980efe65cb",
        "sha256_in_prefix": "c25cd79c8dc426d4afbde7db06540c6106383acf1ae71f066b78ab980efe65cb",
        "size_in_bytes": 49008184
      },
      {
        "_path": "lib/libmkl_pgi_thread.so",
        "path_type": "hardlink",
        "sha256": "20c9ce549690dcbcd8ecd3731661c3e7c1d2c67d4e3c96936466f0f52d0074d3",
        "sha256_in_prefix": "20c9ce549690dcbcd8ecd3731661c3e7c1d2c67d4e3c96936466f0f52d0074d3",
        "size_in_bytes": 40589837
      },
      {
        "_path": "lib/libmkl_rt.so",
        "path_type": "hardlink",
        "sha256": "24a3a8f3cd7e77e1b9ed57fa8613d69ea51d6e06bfc0217fac821a884c483103",
        "sha256_in_prefix": "24a3a8f3cd7e77e1b9ed57fa8613d69ea51d6e06bfc0217fac821a884c483103",
        "size_in_bytes": 6639732
      },
      {
        "_path": "lib/libmkl_scalapack_ilp64.so",
        "path_type": "hardlink",
        "sha256": "c540b461d5ab51f03bd7c7b53fc132539d48806e5b916d16510a6e54edec9ef6",
        "sha256_in_prefix": "c540b461d5ab51f03bd7c7b53fc132539d48806e5b916d16510a6e54edec9ef6",
        "size_in_bytes": 7561041
      },
      {
        "_path": "lib/libmkl_scalapack_lp64.so",
        "path_type": "hardlink",
        "sha256": "f815e93702feb9b4e5d7b1574d9afac56a3e3eb45e5954d7849ba25980b157cf",
        "sha256_in_prefix": "f815e93702feb9b4e5d7b1574d9afac56a3e3eb45e5954d7849ba25980b157cf",
        "size_in_bytes": 7570734
      },
      {
        "_path": "lib/libmkl_sequential.so",
        "path_type": "hardlink",
        "sha256": "bb37cb6c687a5ee5573fa6ad1317ca3933c921ae34187c9b61172ec27074f183",
        "sha256_in_prefix": "bb37cb6c687a5ee5573fa6ad1317ca3933c921ae34187c9b61172ec27074f183",
        "size_in_bytes": 22118110
      },
      {
        "_path": "lib/libmkl_tbb_thread.so",
        "path_type": "hardlink",
        "sha256": "f5b0ed8ccce43b817f924d2f9ad2500107ded46bed3e11b05439913701265551",
        "sha256_in_prefix": "f5b0ed8ccce43b817f924d2f9ad2500107ded46bed3e11b05439913701265551",
        "size_in_bytes": 28196229
      },
      {
        "_path": "lib/libmkl_vml_avx.so",
        "path_type": "hardlink",
        "sha256": "8c1850befd964cc7d0884f08ae2d2899aa0785079b6ccf71fae297f20e88ced8",
        "sha256_in_prefix": "8c1850befd964cc7d0884f08ae2d2899aa0785079b6ccf71fae297f20e88ced8",
        "size_in_bytes": 12594257
      },
      {
        "_path": "lib/libmkl_vml_avx2.so",
        "path_type": "hardlink",
        "sha256": "92cbbbd1ffaa67fc6a62f8eb02a8750e826e8340a7d24e6ef1936a1aee6e44fb",
        "sha256_in_prefix": "92cbbbd1ffaa67fc6a62f8eb02a8750e826e8340a7d24e6ef1936a1aee6e44fb",
        "size_in_bytes": 12529324
      },
      {
        "_path": "lib/libmkl_vml_avx512.so",
        "path_type": "hardlink",
        "sha256": "6d77b563d026a2154f8edf3897c670966d16f3abd0d69012c127734739f6e1ce",
        "sha256_in_prefix": "6d77b563d026a2154f8edf3897c670966d16f3abd0d69012c127734739f6e1ce",
        "size_in_bytes": 12309766
      },
      {
        "_path": "lib/libmkl_vml_avx512_mic.so",
        "path_type": "hardlink",
        "sha256": "bb7bcdcffc9e93e7ddae2cecaa26b35c9b95ea8f7c5b5793b47620e8c16b7dfa",
        "sha256_in_prefix": "bb7bcdcffc9e93e7ddae2cecaa26b35c9b95ea8f7c5b5793b47620e8c16b7dfa",
        "size_in_bytes": 13741356
      },
      {
        "_path": "lib/libmkl_vml_cmpt.so",
        "path_type": "hardlink",
        "sha256": "14ae1b77867fcf878f166679395a966b7afb58dcf0bc3c0cf63593a63221bf1f",
        "sha256_in_prefix": "14ae1b77867fcf878f166679395a966b7afb58dcf0bc3c0cf63593a63221bf1f",
        "size_in_bytes": 6371682
      },
      {
        "_path": "lib/libmkl_vml_def.so",
        "path_type": "hardlink",
        "sha256": "73a2455fe99d71e3b03345b3af0dfd7aedf93121176255385f5a8946cbdb5b32",
        "sha256_in_prefix": "73a2455fe99d71e3b03345b3af0dfd7aedf93121176255385f5a8946cbdb5b32",
        "size_in_bytes": 6745014
      },
      {
        "_path": "lib/libmkl_vml_mc.so",
        "path_type": "hardlink",
        "sha256": "0849114ad76bb18a924678315041bc1cd57c4e18e93b4df628bb3e6187d271ec",
        "sha256_in_prefix": "0849114ad76bb18a924678315041bc1cd57c4e18e93b4df628bb3e6187d271ec",
        "size_in_bytes": 11388618
      },
      {
        "_path": "lib/libmkl_vml_mc2.so",
        "path_type": "hardlink",
        "sha256": "f444b4ab185850088baf9f10133ef2eb11a306f0c2d9d9b96d51e458ed4ae47e",
        "sha256_in_prefix": "f444b4ab185850088baf9f10133ef2eb11a306f0c2d9d9b96d51e458ed4ae47e",
        "size_in_bytes": 11332693
      },
      {
        "_path": "lib/libmkl_vml_mc3.so",
        "path_type": "hardlink",
        "sha256": "403b31a6a0399c192496847a9e0cf878cec583f464c896eb95a45235dc991df5",
        "sha256_in_prefix": "403b31a6a0399c192496847a9e0cf878cec583f464c896eb95a45235dc991df5",
        "size_in_bytes": 11410433
      },
      {
        "_path": "lib/mkl_msg.cat",
        "path_type": "hardlink",
        "sha256": "87e61d4ede7477fc8494200d203719705be912772b8a71f8d0445aefc01b2a4c",
        "sha256_in_prefix": "87e61d4ede7477fc8494200d203719705be912772b8a71f8d0445aefc01b2a4c",
        "size_in_bytes": 115671
      }
    ],
    "paths_version": 1
  },
  "requested_spec": "None",
  "sha256": "040bed2cb07db1e74b46e2a47fbb31c4173932f05acabfe4433f20549b17cbfc",
  "size": 215244485,
  "subdir": "linux-64",
  "timestamp": 1568828161249,
  "track_features": "",
  "url": "https://conda.anaconda.org/anaconda/linux-64/mkl-2019.5-281.tar.bz2",
  "version": "2019.5"
}