{
  "build": "py37_0",
  "build_number": 0,
  "channel": "https://repo.anaconda.com/pkgs/main/linux-64",
  "constrains": [],
  "depends": [
    "python >=3.7,<3.8.0a0"
  ],
  "extracted_package_dir": "/home/samuel/anaconda3/pkgs/olefile-0.46-py37_0",
  "features": "",
  "files": [
    "lib/python3.7/site-packages/olefile-0.46-py3.7.egg-info/PKG-INFO",
    "lib/python3.7/site-packages/olefile-0.46-py3.7.egg-info/SOURCES.txt",
    "lib/python3.7/site-packages/olefile-0.46-py3.7.egg-info/dependency_links.txt",
    "lib/python3.7/site-packages/olefile-0.46-py3.7.egg-info/installed-files.txt",
    "lib/python3.7/site-packages/olefile-0.46-py3.7.egg-info/top_level.txt",
    "lib/python3.7/site-packages/olefile/__init__.py",
    "lib/python3.7/site-packages/olefile/__pycache__/__init__.cpython-37.pyc",
    "lib/python3.7/site-packages/olefile/__pycache__/olefile.cpython-37.pyc",
    "lib/python3.7/site-packages/olefile/olefile.py"
  ],
  "fn": "olefile-0.46-py37_0.conda",
  "legacy_bz2_md5": "66eccdf0f485e5ee525ef3becd423067",
  "license": "BSD 2-Clause",
  "license_family": "BSD",
  "link": {
    "source": "/home/samuel/anaconda3/pkgs/olefile-0.46-py37_0",
    "type": 1
  },
  "md5": "9a0c0faad20393a813e10c731325eadf",
  "name": "olefile",
  "package_tarball_full_path": "/home/samuel/anaconda3/pkgs/olefile-0.46-py37_0.conda",
  "paths_data": {
    "paths": [
      {
        "_path": "lib/python3.7/site-packages/olefile-0.46-py3.7.egg-info/PKG-INFO",
        "path_type": "hardlink",
        "sha256": "607b9a2d7dd50e644a27f58c2bdd4a3a412f72a3cc4d59e8485fafa9ef0a44c2",
        "sha256_in_prefix": "607b9a2d7dd50e644a27f58c2bdd4a3a412f72a3cc4d59e8485fafa9ef0a44c2",
        "size_in_bytes": 11094
      },
      {
        "_path": "lib/python3.7/site-packages/olefile-0.46-py3.7.egg-info/SOURCES.txt",
        "path_type": "hardlink",
        "sha256": "af9795f3018cfa75311649b424f5201c5b295825bf753de162cf78e499312472",
        "sha256_in_prefix": "af9795f3018cfa75311649b424f5201c5b295825bf753de162cf78e499312472",
        "size_in_bytes": 584
      },
      {
        "_path": "lib/python3.7/site-packages/olefile-0.46-py3.7.egg-info/dependency_links.txt",
        "path_type": "hardlink",
        "sha256": "01ba4719c80b6fe911b091a7c05124b64eeece964e09c058ef8f9805daca546b",
        "sha256_in_prefix": "01ba4719c80b6fe911b091a7c05124b64eeece964e09c058ef8f9805daca546b",
        "size_in_bytes": 1
      },
      {
        "_path": "lib/python3.7/site-packages/olefile-0.46-py3.7.egg-info/installed-files.txt",
        "path_type": "hardlink",
        "sha256": "2a155fe62f7563804374ec736297710a3a03509280bcab6b0c7d5aba9912215e",
        "sha256_in_prefix": "2a155fe62f7563804374ec736297710a3a03509280bcab6b0c7d5aba9912215e",
        "size_in_bytes": 194
      },
      {
        "_path": "lib/python3.7/site-packages/olefile-0.46-py3.7.egg-info/top_level.txt",
        "path_type": "hardlink",
        "sha256": "bad496e3f9cfa7eaf2b510fb56f312fbc812a7d05498a6110cd7757b1f50da4b",
        "sha256_in_prefix": "bad496e3f9cfa7eaf2b510fb56f312fbc812a7d05498a6110cd7757b1f50da4b",
        "size_in_bytes": 8
      },
      {
        "_path": "lib/python3.7/site-packages/olefile/__init__.py",
        "path_type": "hardlink",
        "sha256": "5e81aec95ac09c993ad53fcfd93b3a6f67f1d1ff0bfee49214cabcfe51f0c17a",
        "sha256_in_prefix": "5e81aec95ac09c993ad53fcfd93b3a6f67f1d1ff0bfee49214cabcfe51f0c17a",
        "size_in_bytes": 995
      },
      {
        "_path": "lib/python3.7/site-packages/olefile/__pycache__/__init__.cpython-37.pyc",
        "path_type": "hardlink",
        "sha256": "f2aa6b4ea6ba90d22487acd391f247699a81f1b3d408dc8ac28a157b7704da1c",
        "sha256_in_prefix": "f2aa6b4ea6ba90d22487acd391f247699a81f1b3d408dc8ac28a157b7704da1c",
        "size_in_bytes": 1104
      },
      {
        "_path": "lib/python3.7/site-packages/olefile/__pycache__/olefile.cpython-37.pyc",
        "path_type": "hardlink",
        "sha256": "10487d9f7bbf85cf2e8b090dc7a614fc726f1a61a3193dbe5c825afe6bae138d",
        "sha256_in_prefix": "10487d9f7bbf85cf2e8b090dc7a614fc726f1a61a3193dbe5c825afe6bae138d",
        "size_in_bytes": 55761
      },
      {
        "_path": "lib/python3.7/site-packages/olefile/olefile.py",
        "path_type": "hardlink",
        "sha256": "e8e1a9ee52dca783b7e8e6fff9d344e18926fafefd4ce48e41f03b2d4725c47e",
        "sha256_in_prefix": "e8e1a9ee52dca783b7e8e6fff9d344e18926fafefd4ce48e41f03b2d4725c47e",
        "size_in_bytes": 105311
      }
    ],
    "paths_version": 1
  },
  "requested_spec": "None",
  "sha256": "5fc9fea1b28873f503e5fbb5d12b3aa37a93d13a0919e1f268e196d2676d7c2c",
  "size": 50707,
  "subdir": "linux-64",
  "timestamp": 1536697142672,
  "track_features": "",
  "url": "https://repo.anaconda.com/pkgs/main/linux-64/olefile-0.46-py37_0.conda",
  "version": "0.46"
}