{
  "build": "py37hb342d67_1",
  "build_number": 1,
  "channel": "https://repo.anaconda.com/pkgs/main/linux-64",
  "constrains": [],
  "depends": [
    "libgcc-ng >=7.3.0",
    "libopencv 3.4.2 hb342d67_1",
    "libstdcxx-ng >=7.3.0",
    "numpy >=1.11.3,<2.0a0",
    "python >=3.7,<3.8.0a0"
  ],
  "extracted_package_dir": "/home/samuel/anaconda3/pkgs/py-opencv-3.4.2-py37hb342d67_1",
  "features": "",
  "files": [
    "lib/python3.7/site-packages/cv2.cpython-37m-x86_64-linux-gnu.so"
  ],
  "fn": "py-opencv-3.4.2-py37hb342d67_1.conda",
  "legacy_bz2_md5": "829be55bba1c8e756c8cfc81aa780c1b",
  "legacy_bz2_size": 1273097,
  "license": "BSD 3-clause",
  "license_family": "BSD",
  "link": {
    "source": "/home/samuel/anaconda3/pkgs/py-opencv-3.4.2-py37hb342d67_1",
    "type": 1
  },
  "md5": "4ad275950c862ee05446b427f28c4dba",
  "name": "py-opencv",
  "package_tarball_full_path": "/home/samuel/anaconda3/pkgs/py-opencv-3.4.2-py37hb342d67_1.conda",
  "paths_data": {
    "paths": [
      {
        "_path": "lib/python3.7/site-packages/cv2.cpython-37m-x86_64-linux-gnu.so",
        "path_type": "hardlink",
        "sha256": "6ebfc48cb1f3b7fed57f63ac7b1d84513d9b72000c26399f9219da037f0675b8",
        "sha256_in_prefix": "6ebfc48cb1f3b7fed57f63ac7b1d84513d9b72000c26399f9219da037f0675b8",
        "size_in_bytes": 5289392
      }
    ],
    "paths_version": 1
  },
  "requested_spec": "None",
  "sha256": "798c59e45d5527e405c5331b996f0d10faea34ee930422d00fca3d81d9ddcc63",
  "size": 1076794,
  "subdir": "linux-64",
  "timestamp": 1535562103938,
  "track_features": "",
  "url": "https://repo.anaconda.com/pkgs/main/linux-64/py-opencv-3.4.2-py37hb342d67_1.conda",
  "version": "3.4.2"
}