{
  "build": "py37h7b6447c_0",
  "build_number": 0,
  "channel": "https://conda.anaconda.org/anaconda/linux-64",
  "constrains": [],
  "depends": [
    "libgcc-ng >=7.3.0",
    "python >=3.7,<3.8.0a0",
    "yaml >=0.1.7,<0.2.0a0"
  ],
  "extracted_package_dir": "/home/samuel/anaconda3/pkgs/pyyaml-5.3.1-py37h7b6447c_0",
  "features": "",
  "files": [
    "lib/python3.7/site-packages/PyYAML-5.3.1-py3.7.egg-info",
    "lib/python3.7/site-packages/_yaml.cpython-37m-x86_64-linux-gnu.so",
    "lib/python3.7/site-packages/yaml/__init__.py",
    "lib/python3.7/site-packages/yaml/__pycache__/__init__.cpython-37.pyc",
    "lib/python3.7/site-packages/yaml/__pycache__/composer.cpython-37.pyc",
    "lib/python3.7/site-packages/yaml/__pycache__/constructor.cpython-37.pyc",
    "lib/python3.7/site-packages/yaml/__pycache__/cyaml.cpython-37.pyc",
    "lib/python3.7/site-packages/yaml/__pycache__/dumper.cpython-37.pyc",
    "lib/python3.7/site-packages/yaml/__pycache__/emitter.cpython-37.pyc",
    "lib/python3.7/site-packages/yaml/__pycache__/error.cpython-37.pyc",
    "lib/python3.7/site-packages/yaml/__pycache__/events.cpython-37.pyc",
    "lib/python3.7/site-packages/yaml/__pycache__/loader.cpython-37.pyc",
    "lib/python3.7/site-packages/yaml/__pycache__/nodes.cpython-37.pyc",
    "lib/python3.7/site-packages/yaml/__pycache__/parser.cpython-37.pyc",
    "lib/python3.7/site-packages/yaml/__pycache__/reader.cpython-37.pyc",
    "lib/python3.7/site-packages/yaml/__pycache__/representer.cpython-37.pyc",
    "lib/python3.7/site-packages/yaml/__pycache__/resolver.cpython-37.pyc",
    "lib/python3.7/site-packages/yaml/__pycache__/scanner.cpython-37.pyc",
    "lib/python3.7/site-packages/yaml/__pycache__/serializer.cpython-37.pyc",
    "lib/python3.7/site-packages/yaml/__pycache__/tokens.cpython-37.pyc",
    "lib/python3.7/site-packages/yaml/composer.py",
    "lib/python3.7/site-packages/yaml/constructor.py",
    "lib/python3.7/site-packages/yaml/cyaml.py",
    "lib/python3.7/site-packages/yaml/dumper.py",
    "lib/python3.7/site-packages/yaml/emitter.py",
    "lib/python3.7/site-packages/yaml/error.py",
    "lib/python3.7/site-packages/yaml/events.py",
    "lib/python3.7/site-packages/yaml/loader.py",
    "lib/python3.7/site-packages/yaml/nodes.py",
    "lib/python3.7/site-packages/yaml/parser.py",
    "lib/python3.7/site-packages/yaml/reader.py",
    "lib/python3.7/site-packages/yaml/representer.py",
    "lib/python3.7/site-packages/yaml/resolver.py",
    "lib/python3.7/site-packages/yaml/scanner.py",
    "lib/python3.7/site-packages/yaml/serializer.py",
    "lib/python3.7/site-packages/yaml/tokens.py"
  ],
  "fn": "pyyaml-5.3.1-py37h7b6447c_0.tar.bz2",
  "license": "MIT",
  "license_family": "MIT",
  "link": {
    "source": "/home/samuel/anaconda3/pkgs/pyyaml-5.3.1-py37h7b6447c_0",
    "type": 1
  },
  "md5": "c5c508152178014bd09f736b5530738b",
  "name": "pyyaml",
  "package_tarball_full_path": "/home/samuel/anaconda3/pkgs/pyyaml-5.3.1-py37h7b6447c_0.tar.bz2",
  "paths_data": {
    "paths": [
      {
        "_path": "lib/python3.7/site-packages/PyYAML-5.3.1-py3.7.egg-info",
        "path_type": "hardlink",
        "sha256": "9f66200481eb78cbcd4820df6d0bec76bb7c93d3b59444b670870f8e93ed75e3",
        "sha256_in_prefix": "9f66200481eb78cbcd4820df6d0bec76bb7c93d3b59444b670870f8e93ed75e3",
        "size_in_bytes": 1781
      },
      {
        "_path": "lib/python3.7/site-packages/_yaml.cpython-37m-x86_64-linux-gnu.so",
        "path_type": "hardlink",
        "sha256": "84f72b345c686aa487557b7bd7c70040289cc57353f640641d2433c2578a1a58",
        "sha256_in_prefix": "84f72b345c686aa487557b7bd7c70040289cc57353f640641d2433c2578a1a58",
        "size_in_bytes": 300144
      },
      {
        "_path": "lib/python3.7/site-packages/yaml/__init__.py",
        "path_type": "hardlink",
        "sha256": "5c550d6ca4e0e1a7c07740444e3190d66290f7bfe0e636c4d42d16a0a73be1d7",
        "sha256_in_prefix": "5c550d6ca4e0e1a7c07740444e3190d66290f7bfe0e636c4d42d16a0a73be1d7",
        "size_in_bytes": 13170
      },
      {
        "_path": "lib/python3.7/site-packages/yaml/__pycache__/__init__.cpython-37.pyc",
        "path_type": "hardlink",
        "sha256": "3582d8f5c975f64aa90be19586157dc1ff57dfad5d18a87329369ba1dc14f2da",
        "sha256_in_prefix": "3582d8f5c975f64aa90be19586157dc1ff57dfad5d18a87329369ba1dc14f2da",
        "size_in_bytes": 11731
      },
      {
        "_path": "lib/python3.7/site-packages/yaml/__pycache__/composer.cpython-37.pyc",
        "path_type": "hardlink",
        "sha256": "fbf540edee8aec607d1cc40912026e9807e193ea0a5d3b2086bde7da98196088",
        "sha256_in_prefix": "fbf540edee8aec607d1cc40912026e9807e193ea0a5d3b2086bde7da98196088",
        "size_in_bytes": 3492
      },
      {
        "_path": "lib/python3.7/site-packages/yaml/__pycache__/constructor.cpython-37.pyc",
        "path_type": "hardlink",
        "sha256": "56dc22889ff3ad93cf6c3fcb460cea2c0308fe78d6052102541ff1a531799b60",
        "sha256_in_prefix": "56dc22889ff3ad93cf6c3fcb460cea2c0308fe78d6052102541ff1a531799b60",
        "size_in_bytes": 21218
      },
      {
        "_path": "lib/python3.7/site-packages/yaml/__pycache__/cyaml.cpython-37.pyc",
        "path_type": "hardlink",
        "sha256": "0c67f21e4a5d99bbac18d29780a782676e1d04ea272223f77dc20d22ac8eb998",
        "sha256_in_prefix": "0c67f21e4a5d99bbac18d29780a782676e1d04ea272223f77dc20d22ac8eb998",
        "size_in_bytes": 3657
      },
      {
        "_path": "lib/python3.7/site-packages/yaml/__pycache__/dumper.cpython-37.pyc",
        "path_type": "hardlink",
        "sha256": "ffcf9e1edc785eeb25cb898a0dbce30bf91b48da02943f31abcc82c6af633891",
        "sha256_in_prefix": "ffcf9e1edc785eeb25cb898a0dbce30bf91b48da02943f31abcc82c6af633891",
        "size_in_bytes": 2032
      },
      {
        "_path": "lib/python3.7/site-packages/yaml/__pycache__/emitter.cpython-37.pyc",
        "path_type": "hardlink",
        "sha256": "89d67347b3eae629f4bd9b24b298b6ce399c18905caca8551fa0cfa90efb3cdb",
        "sha256_in_prefix": "89d67347b3eae629f4bd9b24b298b6ce399c18905caca8551fa0cfa90efb3cdb",
        "size_in_bytes": 25282
      },
      {
        "_path": "lib/python3.7/site-packages/yaml/__pycache__/error.cpython-37.pyc",
        "path_type": "hardlink",
        "sha256": "49cd96ee91b09dff2b8d5011636139b9357770478d5d0e90c4f644eeef9c92e3",
        "sha256_in_prefix": "49cd96ee91b09dff2b8d5011636139b9357770478d5d0e90c4f644eeef9c92e3",
        "size_in_bytes": 2243
      },
      {
        "_path": "lib/python3.7/site-packages/yaml/__pycache__/events.cpython-37.pyc",
        "path_type": "hardlink",
        "sha256": "18afda2eebe4560eac14bd352706447ed31af226a08069e3ad1c11d2fbc30991",
        "sha256_in_prefix": "18afda2eebe4560eac14bd352706447ed31af226a08069e3ad1c11d2fbc30991",
        "size_in_bytes": 4009
      },
      {
        "_path": "lib/python3.7/site-packages/yaml/__pycache__/loader.cpython-37.pyc",
        "path_type": "hardlink",
        "sha256": "642f159cfdd9d2f6d360604561252f19b5352b7c0918d4408c75fab8b96bd6fc",
        "sha256_in_prefix": "642f159cfdd9d2f6d360604561252f19b5352b7c0918d4408c75fab8b96bd6fc",
        "size_in_bytes": 2241
      },
      {
        "_path": "lib/python3.7/site-packages/yaml/__pycache__/nodes.cpython-37.pyc",
        "path_type": "hardlink",
        "sha256": "df146217eebc72b19eecb63f7b662515b720a35fe5ebe29e2202aaf8062633a1",
        "sha256_in_prefix": "df146217eebc72b19eecb63f7b662515b720a35fe5ebe29e2202aaf8062633a1",
        "size_in_bytes": 1687
      },
      {
        "_path": "lib/python3.7/site-packages/yaml/__pycache__/parser.cpython-37.pyc",
        "path_type": "hardlink",
        "sha256": "6255173e48984e3d8e72a811969be881ff3b204b1637592c7a959cae9ecb2253",
        "sha256_in_prefix": "6255173e48984e3d8e72a811969be881ff3b204b1637592c7a959cae9ecb2253",
        "size_in_bytes": 11837
      },
      {
        "_path": "lib/python3.7/site-packages/yaml/__pycache__/reader.cpython-37.pyc",
        "path_type": "hardlink",
        "sha256": "bfb3eacb31bab075225e306383f1fb5a77715d5ee5f9c5190ef9598a2ab9ead7",
        "sha256_in_prefix": "bfb3eacb31bab075225e306383f1fb5a77715d5ee5f9c5190ef9598a2ab9ead7",
        "size_in_bytes": 4450
      },
      {
        "_path": "lib/python3.7/site-packages/yaml/__pycache__/representer.cpython-37.pyc",
        "path_type": "hardlink",
        "sha256": "bd3335e74386b19e6ca2572195aaaf75aa2b89ac44dca2b53e297f307f6c3807",
        "sha256_in_prefix": "bd3335e74386b19e6ca2572195aaaf75aa2b89ac44dca2b53e297f307f6c3807",
        "size_in_bytes": 10073
      },
      {
        "_path": "lib/python3.7/site-packages/yaml/__pycache__/resolver.cpython-37.pyc",
        "path_type": "hardlink",
        "sha256": "2f034a99997a6bb7c20cf7ec35aaabdf6d174df2897b7276ae3939c43bd59c02",
        "sha256_in_prefix": "2f034a99997a6bb7c20cf7ec35aaabdf6d174df2897b7276ae3939c43bd59c02",
        "size_in_bytes": 5423
      },
      {
        "_path": "lib/python3.7/site-packages/yaml/__pycache__/scanner.cpython-37.pyc",
        "path_type": "hardlink",
        "sha256": "80c2f8d89cb05422aeac7f3345e885f1ea5881b39ed22ebe838e5e10c4930bee",
        "sha256_in_prefix": "80c2f8d89cb05422aeac7f3345e885f1ea5881b39ed22ebe838e5e10c4930bee",
        "size_in_bytes": 25783
      },
      {
        "_path": "lib/python3.7/site-packages/yaml/__pycache__/serializer.cpython-37.pyc",
        "path_type": "hardlink",
        "sha256": "30b4f43ad018efbd34e88758b42b060d9ed9c4af627e60245453a44f127bbf44",
        "sha256_in_prefix": "30b4f43ad018efbd34e88758b42b060d9ed9c4af627e60245453a44f127bbf44",
        "size_in_bytes": 3322
      },
      {
        "_path": "lib/python3.7/site-packages/yaml/__pycache__/tokens.cpython-37.pyc",
        "path_type": "hardlink",
        "sha256": "45bc64eb69e15d3b758951aeea309f8390bc2ba09bf6466ee712a9a8a7fe147c",
        "sha256_in_prefix": "45bc64eb69e15d3b758951aeea309f8390bc2ba09bf6466ee712a9a8a7fe147c",
        "size_in_bytes": 5186
      },
      {
        "_path": "lib/python3.7/site-packages/yaml/composer.py",
        "path_type": "hardlink",
        "sha256": "fcaa37d16afa783594794a5ab94193dcb720f503c19ce3d59539c8311189f453",
        "sha256_in_prefix": "fcaa37d16afa783594794a5ab94193dcb720f503c19ce3d59539c8311189f453",
        "size_in_bytes": 4883
      },
      {
        "_path": "lib/python3.7/site-packages/yaml/constructor.py",
        "path_type": "hardlink",
        "sha256": "3b751a7f4fc9ff9190068788f59361a49021b5d6a0aff5f61f30e019b64e327c",
        "sha256_in_prefix": "3b751a7f4fc9ff9190068788f59361a49021b5d6a0aff5f61f30e019b64e327c",
        "size_in_bytes": 28627
      },
      {
        "_path": "lib/python3.7/site-packages/yaml/cyaml.py",
        "path_type": "hardlink",
        "sha256": "2e2324bdc84da277e8cb517a79cf4bd81894cf7af46f01788729a9012257d487",
        "sha256_in_prefix": "2e2324bdc84da277e8cb517a79cf4bd81894cf7af46f01788729a9012257d487",
        "size_in_bytes": 3846
      },
      {
        "_path": "lib/python3.7/site-packages/yaml/dumper.py",
        "path_type": "hardlink",
        "sha256": "3cb72d66563064ba7b5e679477046ebf89d8399d940670c8532f3e94a7cb17ea",
        "sha256_in_prefix": "3cb72d66563064ba7b5e679477046ebf89d8399d940670c8532f3e94a7cb17ea",
        "size_in_bytes": 2837
      },
      {
        "_path": "lib/python3.7/site-packages/yaml/emitter.py",
        "path_type": "hardlink",
        "sha256": "8e086d694ede170837d5b1b407b45979aff6f40762f422a65eafd08e04290a44",
        "sha256_in_prefix": "8e086d694ede170837d5b1b407b45979aff6f40762f422a65eafd08e04290a44",
        "size_in_bytes": 43006
      },
      {
        "_path": "lib/python3.7/site-packages/yaml/error.py",
        "path_type": "hardlink",
        "sha256": "021f73fada072546c4f63f8cf18a7181244ce4280b09cc15cc980b2d1176171a",
        "sha256_in_prefix": "021f73fada072546c4f63f8cf18a7181244ce4280b09cc15cc980b2d1176171a",
        "size_in_bytes": 2533
      },
      {
        "_path": "lib/python3.7/site-packages/yaml/events.py",
        "path_type": "hardlink",
        "sha256": "e74fd392c810884e2ea7e94aa3f57e9c1cbeb402319083d0c58e6a0e1282787c",
        "sha256_in_prefix": "e74fd392c810884e2ea7e94aa3f57e9c1cbeb402319083d0c58e6a0e1282787c",
        "size_in_bytes": 2445
      },
      {
        "_path": "lib/python3.7/site-packages/yaml/loader.py",
        "path_type": "hardlink",
        "sha256": "5156becc8aa6905482218abf3e04869b835226db4763645fff3438fdbd5f1cdd",
        "sha256_in_prefix": "5156becc8aa6905482218abf3e04869b835226db4763645fff3438fdbd5f1cdd",
        "size_in_bytes": 2061
      },
      {
        "_path": "lib/python3.7/site-packages/yaml/nodes.py",
        "path_type": "hardlink",
        "sha256": "80f28d8fca4a09d87677882bde021820d9cf39a3b11a12405226211919cf13ce",
        "sha256_in_prefix": "80f28d8fca4a09d87677882bde021820d9cf39a3b11a12405226211919cf13ce",
        "size_in_bytes": 1440
      },
      {
        "_path": "lib/python3.7/site-packages/yaml/parser.py",
        "path_type": "hardlink",
        "sha256": "8a55a9e6fbe0a07146cef3990c8b45a068c3e83e369e1959ad9ca30306b4a09a",
        "sha256_in_prefix": "8a55a9e6fbe0a07146cef3990c8b45a068c3e83e369e1959ad9ca30306b4a09a",
        "size_in_bytes": 25495
      },
      {
        "_path": "lib/python3.7/site-packages/yaml/reader.py",
        "path_type": "hardlink",
        "sha256": "d1d9b38ab3a20c6e17a38d519ee412ecaf6b918df18c78956ac7c330d4ea08dc",
        "sha256_in_prefix": "d1d9b38ab3a20c6e17a38d519ee412ecaf6b918df18c78956ac7c330d4ea08dc",
        "size_in_bytes": 6794
      },
      {
        "_path": "lib/python3.7/site-packages/yaml/representer.py",
        "path_type": "hardlink",
        "sha256": "f3650cdd9c5440aaac28017896d58ec424ba8c63c816d5e91acee6beacafe17b",
        "sha256_in_prefix": "f3650cdd9c5440aaac28017896d58ec424ba8c63c816d5e91acee6beacafe17b",
        "size_in_bytes": 14184
      },
      {
        "_path": "lib/python3.7/site-packages/yaml/resolver.py",
        "path_type": "hardlink",
        "sha256": "0c90a3a50afc6100846188ca118a939741abb198a5d87e1a14e23d6f439ef94e",
        "sha256_in_prefix": "0c90a3a50afc6100846188ca118a939741abb198a5d87e1a14e23d6f439ef94e",
        "size_in_bytes": 8970
      },
      {
        "_path": "lib/python3.7/site-packages/yaml/scanner.py",
        "path_type": "hardlink",
        "sha256": "29e4082863654b23c4f100f08a89c7c72f4281ba84e6d789133d39151f7e9c08",
        "sha256_in_prefix": "29e4082863654b23c4f100f08a89c7c72f4281ba84e6d789133d39151f7e9c08",
        "size_in_bytes": 51277
      },
      {
        "_path": "lib/python3.7/site-packages/yaml/serializer.py",
        "path_type": "hardlink",
        "sha256": "0a1b85826854d35863e31808f0668abfabdf33606e8f06bd8bb7761401e3edc0",
        "sha256_in_prefix": "0a1b85826854d35863e31808f0668abfabdf33606e8f06bd8bb7761401e3edc0",
        "size_in_bytes": 4165
      },
      {
        "_path": "lib/python3.7/site-packages/yaml/tokens.py",
        "path_type": "hardlink",
        "sha256": "953408cd2570f0c83dc2fe39f7e4e388e41eeb05738aa69196a5f6ffcf6ba79e",
        "sha256_in_prefix": "953408cd2570f0c83dc2fe39f7e4e388e41eeb05738aa69196a5f6ffcf6ba79e",
        "size_in_bytes": 2573
      }
    ],
    "paths_version": 1
  },
  "requested_spec": "None",
  "sha256": "df3e6afe161ac8cc823b4d03fc8653df2468fee80b47c113e41943b09705bfcd",
  "size": 195269,
  "subdir": "linux-64",
  "timestamp": 1584979030736,
  "track_features": "",
  "url": "https://conda.anaconda.org/anaconda/linux-64/pyyaml-5.3.1-py37h7b6447c_0.tar.bz2",
  "version": "5.3.1"
}