{
  "build": "py_0",
  "build_number": 0,
  "channel": "https://repo.anaconda.com/pkgs/main/noarch",
  "constrains": [],
  "depends": [
    "python >=3.5"
  ],
  "extracted_package_dir": "/home/samuel/anaconda3/pkgs/sphinxcontrib-htmlhelp-1.0.3-py_0",
  "features": "",
  "files": [
    "lib/python3.7/site-packages/sphinxcontrib/htmlhelp/__init__.py",
    "lib/python3.7/site-packages/sphinxcontrib/htmlhelp/locales/.tx/config",
    "lib/python3.7/site-packages/sphinxcontrib/htmlhelp/locales/ar/LC_MESSAGES/sphinxcontrib.htmlhelp.mo",
    "lib/python3.7/site-packages/sphinxcontrib/htmlhelp/locales/ar/LC_MESSAGES/sphinxcontrib.htmlhelp.po",
    "lib/python3.7/site-packages/sphinxcontrib/htmlhelp/locales/bn/LC_MESSAGES/sphinxcontrib.htmlhelp.mo",
    "lib/python3.7/site-packages/sphinxcontrib/htmlhelp/locales/bn/LC_MESSAGES/sphinxcontrib.htmlhelp.po",
    "lib/python3.7/site-packages/sphinxcontrib/htmlhelp/locales/ca/LC_MESSAGES/sphinxcontrib.htmlhelp.mo",
    "lib/python3.7/site-packages/sphinxcontrib/htmlhelp/locales/ca/LC_MESSAGES/sphinxcontrib.htmlhelp.po",
    "lib/python3.7/site-packages/sphinxcontrib/htmlhelp/locales/cak/LC_MESSAGES/sphinxcontrib.htmlhelp.mo",
    "lib/python3.7/site-packages/sphinxcontrib/htmlhelp/locales/cak/LC_MESSAGES/sphinxcontrib.htmlhelp.po",
    "lib/python3.7/site-packages/sphinxcontrib/htmlhelp/locales/cs/LC_MESSAGES/sphinxcontrib.htmlhelp.mo",
    "lib/python3.7/site-packages/sphinxcontrib/htmlhelp/locales/cs/LC_MESSAGES/sphinxcontrib.htmlhelp.po",
    "lib/python3.7/site-packages/sphinxcontrib/htmlhelp/locales/cy/LC_MESSAGES/sphinxcontrib.htmlhelp.mo",
    "lib/python3.7/site-packages/sphinxcontrib/htmlhelp/locales/cy/LC_MESSAGES/sphinxcontrib.htmlhelp.po",
    "lib/python3.7/site-packages/sphinxcontrib/htmlhelp/locales/da/LC_MESSAGES/sphinxcontrib.htmlhelp.mo",
    "lib/python3.7/site-packages/sphinxcontrib/htmlhelp/locales/da/LC_MESSAGES/sphinxcontrib.htmlhelp.po",
    "lib/python3.7/site-packages/sphinxcontrib/htmlhelp/locales/de/LC_MESSAGES/sphinxcontrib.htmlhelp.mo",
    "lib/python3.7/site-packages/sphinxcontrib/htmlhelp/locales/de/LC_MESSAGES/sphinxcontrib.htmlhelp.po",
    "lib/python3.7/site-packages/sphinxcontrib/htmlhelp/locales/el/LC_MESSAGES/sphinxcontrib.htmlhelp.mo",
    "lib/python3.7/site-packages/sphinxcontrib/htmlhelp/locales/el/LC_MESSAGES/sphinxcontrib.htmlhelp.po",
    "lib/python3.7/site-packages/sphinxcontrib/htmlhelp/locales/eo/LC_MESSAGES/sphinxcontrib.htmlhelp.mo",
    "lib/python3.7/site-packages/sphinxcontrib/htmlhelp/locales/eo/LC_MESSAGES/sphinxcontrib.htmlhelp.po",
    "lib/python3.7/site-packages/sphinxcontrib/htmlhelp/locales/es/LC_MESSAGES/sphinxcontrib.htmlhelp.mo",
    "lib/python3.7/site-packages/sphinxcontrib/htmlhelp/locales/es/LC_MESSAGES/sphinxcontrib.htmlhelp.po",
    "lib/python3.7/site-packages/sphinxcontrib/htmlhelp/locales/et/LC_MESSAGES/sphinxcontrib.htmlhelp.mo",
    "lib/python3.7/site-packages/sphinxcontrib/htmlhelp/locales/et/LC_MESSAGES/sphinxcontrib.htmlhelp.po",
    "lib/python3.7/site-packages/sphinxcontrib/htmlhelp/locales/eu/LC_MESSAGES/sphinxcontrib.htmlhelp.mo",
    "lib/python3.7/site-packages/sphinxcontrib/htmlhelp/locales/eu/LC_MESSAGES/sphinxcontrib.htmlhelp.po",
    "lib/python3.7/site-packages/sphinxcontrib/htmlhelp/locales/fa/LC_MESSAGES/sphinxcontrib.htmlhelp.mo",
    "lib/python3.7/site-packages/sphinxcontrib/htmlhelp/locales/fa/LC_MESSAGES/sphinxcontrib.htmlhelp.po",
    "lib/python3.7/site-packages/sphinxcontrib/htmlhelp/locales/fi/LC_MESSAGES/sphinxcontrib.htmlhelp.mo",
    "lib/python3.7/site-packages/sphinxcontrib/htmlhelp/locales/fi/LC_MESSAGES/sphinxcontrib.htmlhelp.po",
    "lib/python3.7/site-packages/sphinxcontrib/htmlhelp/locales/fr/LC_MESSAGES/sphinxcontrib.htmlhelp.mo",
    "lib/python3.7/site-packages/sphinxcontrib/htmlhelp/locales/fr/LC_MESSAGES/sphinxcontrib.htmlhelp.po",
    "lib/python3.7/site-packages/sphinxcontrib/htmlhelp/locales/he/LC_MESSAGES/sphinxcontrib.htmlhelp.mo",
    "lib/python3.7/site-packages/sphinxcontrib/htmlhelp/locales/he/LC_MESSAGES/sphinxcontrib.htmlhelp.po",
    "lib/python3.7/site-packages/sphinxcontrib/htmlhelp/locales/hi/LC_MESSAGES/sphinxcontrib.htmlhelp.mo",
    "lib/python3.7/site-packages/sphinxcontrib/htmlhelp/locales/hi/LC_MESSAGES/sphinxcontrib.htmlhelp.po",
    "lib/python3.7/site-packages/sphinxcontrib/htmlhelp/locales/hi_IN/LC_MESSAGES/sphinxcontrib.htmlhelp.mo",
    "lib/python3.7/site-packages/sphinxcontrib/htmlhelp/locales/hi_IN/LC_MESSAGES/sphinxcontrib.htmlhelp.po",
    "lib/python3.7/site-packages/sphinxcontrib/htmlhelp/locales/hr/LC_MESSAGES/sphinxcontrib.htmlhelp.mo",
    "lib/python3.7/site-packages/sphinxcontrib/htmlhelp/locales/hr/LC_MESSAGES/sphinxcontrib.htmlhelp.po",
    "lib/python3.7/site-packages/sphinxcontrib/htmlhelp/locales/hu/LC_MESSAGES/sphinxcontrib.htmlhelp.mo",
    "lib/python3.7/site-packages/sphinxcontrib/htmlhelp/locales/hu/LC_MESSAGES/sphinxcontrib.htmlhelp.po",
    "lib/python3.7/site-packages/sphinxcontrib/htmlhelp/locales/id/LC_MESSAGES/sphinxcontrib.htmlhelp.mo",
    "lib/python3.7/site-packages/sphinxcontrib/htmlhelp/locales/id/LC_MESSAGES/sphinxcontrib.htmlhelp.po",
    "lib/python3.7/site-packages/sphinxcontrib/htmlhelp/locales/it/LC_MESSAGES/sphinxcontrib.htmlhelp.mo",
    "lib/python3.7/site-packages/sphinxcontrib/htmlhelp/locales/it/LC_MESSAGES/sphinxcontrib.htmlhelp.po",
    "lib/python3.7/site-packages/sphinxcontrib/htmlhelp/locales/ja/LC_MESSAGES/sphinxcontrib.htmlhelp.mo",
    "lib/python3.7/site-packages/sphinxcontrib/htmlhelp/locales/ja/LC_MESSAGES/sphinxcontrib.htmlhelp.po",
    "lib/python3.7/site-packages/sphinxcontrib/htmlhelp/locales/ko/LC_MESSAGES/sphinxcontrib.htmlhelp.mo",
    "lib/python3.7/site-packages/sphinxcontrib/htmlhelp/locales/ko/LC_MESSAGES/sphinxcontrib.htmlhelp.po",
    "lib/python3.7/site-packages/sphinxcontrib/htmlhelp/locales/lt/LC_MESSAGES/sphinxcontrib.htmlhelp.mo",
    "lib/python3.7/site-packages/sphinxcontrib/htmlhelp/locales/lt/LC_MESSAGES/sphinxcontrib.htmlhelp.po",
    "lib/python3.7/site-packages/sphinxcontrib/htmlhelp/locales/lv/LC_MESSAGES/sphinxcontrib.htmlhelp.mo",
    "lib/python3.7/site-packages/sphinxcontrib/htmlhelp/locales/lv/LC_MESSAGES/sphinxcontrib.htmlhelp.po",
    "lib/python3.7/site-packages/sphinxcontrib/htmlhelp/locales/mk/LC_MESSAGES/sphinxcontrib.htmlhelp.mo",
    "lib/python3.7/site-packages/sphinxcontrib/htmlhelp/locales/mk/LC_MESSAGES/sphinxcontrib.htmlhelp.po",
    "lib/python3.7/site-packages/sphinxcontrib/htmlhelp/locales/nb_NO/LC_MESSAGES/sphinxcontrib.htmlhelp.mo",
    "lib/python3.7/site-packages/sphinxcontrib/htmlhelp/locales/nb_NO/LC_MESSAGES/sphinxcontrib.htmlhelp.po",
    "lib/python3.7/site-packages/sphinxcontrib/htmlhelp/locales/ne/LC_MESSAGES/sphinxcontrib.htmlhelp.mo",
    "lib/python3.7/site-packages/sphinxcontrib/htmlhelp/locales/ne/LC_MESSAGES/sphinxcontrib.htmlhelp.po",
    "lib/python3.7/site-packages/sphinxcontrib/htmlhelp/locales/nl/LC_MESSAGES/sphinxcontrib.htmlhelp.mo",
    "lib/python3.7/site-packages/sphinxcontrib/htmlhelp/locales/nl/LC_MESSAGES/sphinxcontrib.htmlhelp.po",
    "lib/python3.7/site-packages/sphinxcontrib/htmlhelp/locales/pl/LC_MESSAGES/sphinxcontrib.htmlhelp.mo",
    "lib/python3.7/site-packages/sphinxcontrib/htmlhelp/locales/pl/LC_MESSAGES/sphinxcontrib.htmlhelp.po",
    "lib/python3.7/site-packages/sphinxcontrib/htmlhelp/locales/pt/LC_MESSAGES/sphinxcontrib.htmlhelp.mo",
    "lib/python3.7/site-packages/sphinxcontrib/htmlhelp/locales/pt/LC_MESSAGES/sphinxcontrib.htmlhelp.po",
    "lib/python3.7/site-packages/sphinxcontrib/htmlhelp/locales/pt_BR/LC_MESSAGES/sphinxcontrib.htmlhelp.mo",
    "lib/python3.7/site-packages/sphinxcontrib/htmlhelp/locales/pt_BR/LC_MESSAGES/sphinxcontrib.htmlhelp.po",
    "lib/python3.7/site-packages/sphinxcontrib/htmlhelp/locales/pt_PT/LC_MESSAGES/sphinxcontrib.htmlhelp.mo",
    "lib/python3.7/site-packages/sphinxcontrib/htmlhelp/locales/pt_PT/LC_MESSAGES/sphinxcontrib.htmlhelp.po",
    "lib/python3.7/site-packages/sphinxcontrib/htmlhelp/locales/ro/LC_MESSAGES/sphinxcontrib.htmlhelp.mo",
    "lib/python3.7/site-packages/sphinxcontrib/htmlhelp/locales/ro/LC_MESSAGES/sphinxcontrib.htmlhelp.po",
    "lib/python3.7/site-packages/sphinxcontrib/htmlhelp/locales/ru/LC_MESSAGES/sphinxcontrib.htmlhelp.mo",
    "lib/python3.7/site-packages/sphinxcontrib/htmlhelp/locales/ru/LC_MESSAGES/sphinxcontrib.htmlhelp.po",
    "lib/python3.7/site-packages/sphinxcontrib/htmlhelp/locales/si/LC_MESSAGES/sphinxcontrib.htmlhelp.mo",
    "lib/python3.7/site-packages/sphinxcontrib/htmlhelp/locales/si/LC_MESSAGES/sphinxcontrib.htmlhelp.po",
    "lib/python3.7/site-packages/sphinxcontrib/htmlhelp/locales/sk/LC_MESSAGES/sphinxcontrib.htmlhelp.mo",
    "lib/python3.7/site-packages/sphinxcontrib/htmlhelp/locales/sk/LC_MESSAGES/sphinxcontrib.htmlhelp.po",
    "lib/python3.7/site-packages/sphinxcontrib/htmlhelp/locales/sl/LC_MESSAGES/sphinxcontrib.htmlhelp.mo",
    "lib/python3.7/site-packages/sphinxcontrib/htmlhelp/locales/sl/LC_MESSAGES/sphinxcontrib.htmlhelp.po",
    "lib/python3.7/site-packages/sphinxcontrib/htmlhelp/locales/sphinxcontrib.htmlhelp.pot",
    "lib/python3.7/site-packages/sphinxcontrib/htmlhelp/locales/sr/LC_MESSAGES/sphinxcontrib.htmlhelp.mo",
    "lib/python3.7/site-packages/sphinxcontrib/htmlhelp/locales/sr/LC_MESSAGES/sphinxcontrib.htmlhelp.po",
    "lib/python3.7/site-packages/sphinxcontrib/htmlhelp/locales/sr@latin/LC_MESSAGES/sphinxcontrib.htmlhelp.mo",
    "lib/python3.7/site-packages/sphinxcontrib/htmlhelp/locales/sr@latin/LC_MESSAGES/sphinxcontrib.htmlhelp.po",
    "lib/python3.7/site-packages/sphinxcontrib/htmlhelp/locales/sr_RS/LC_MESSAGES/sphinxcontrib.htmlhelp.mo",
    "lib/python3.7/site-packages/sphinxcontrib/htmlhelp/locales/sr_RS/LC_MESSAGES/sphinxcontrib.htmlhelp.po",
    "lib/python3.7/site-packages/sphinxcontrib/htmlhelp/locales/sv/LC_MESSAGES/sphinxcontrib.htmlhelp.mo",
    "lib/python3.7/site-packages/sphinxcontrib/htmlhelp/locales/sv/LC_MESSAGES/sphinxcontrib.htmlhelp.po",
    "lib/python3.7/site-packages/sphinxcontrib/htmlhelp/locales/ta/LC_MESSAGES/sphinxcontrib.htmlhelp.mo",
    "lib/python3.7/site-packages/sphinxcontrib/htmlhelp/locales/ta/LC_MESSAGES/sphinxcontrib.htmlhelp.po",
    "lib/python3.7/site-packages/sphinxcontrib/htmlhelp/locales/tr/LC_MESSAGES/sphinxcontrib.htmlhelp.mo",
    "lib/python3.7/site-packages/sphinxcontrib/htmlhelp/locales/tr/LC_MESSAGES/sphinxcontrib.htmlhelp.po",
    "lib/python3.7/site-packages/sphinxcontrib/htmlhelp/locales/uk_UA/LC_MESSAGES/sphinxcontrib.htmlhelp.mo",
    "lib/python3.7/site-packages/sphinxcontrib/htmlhelp/locales/uk_UA/LC_MESSAGES/sphinxcontrib.htmlhelp.po",
    "lib/python3.7/site-packages/sphinxcontrib/htmlhelp/locales/ur/LC_MESSAGES/sphinxcontrib.htmlhelp.mo",
    "lib/python3.7/site-packages/sphinxcontrib/htmlhelp/locales/ur/LC_MESSAGES/sphinxcontrib.htmlhelp.po",
    "lib/python3.7/site-packages/sphinxcontrib/htmlhelp/locales/vi/LC_MESSAGES/sphinxcontrib.htmlhelp.mo",
    "lib/python3.7/site-packages/sphinxcontrib/htmlhelp/locales/vi/LC_MESSAGES/sphinxcontrib.htmlhelp.po",
    "lib/python3.7/site-packages/sphinxcontrib/htmlhelp/locales/zh_CN/LC_MESSAGES/sphinxcontrib.htmlhelp.mo",
    "lib/python3.7/site-packages/sphinxcontrib/htmlhelp/locales/zh_CN/LC_MESSAGES/sphinxcontrib.htmlhelp.po",
    "lib/python3.7/site-packages/sphinxcontrib/htmlhelp/locales/zh_TW/LC_MESSAGES/sphinxcontrib.htmlhelp.mo",
    "lib/python3.7/site-packages/sphinxcontrib/htmlhelp/locales/zh_TW/LC_MESSAGES/sphinxcontrib.htmlhelp.po",
    "lib/python3.7/site-packages/sphinxcontrib/htmlhelp/templates/project.hhc",
    "lib/python3.7/site-packages/sphinxcontrib/htmlhelp/templates/project.hhp",
    "lib/python3.7/site-packages/sphinxcontrib/htmlhelp/templates/project.stp",
    "lib/python3.7/site-packages/sphinxcontrib/htmlhelp/version.py",
    "lib/python3.7/site-packages/sphinxcontrib_htmlhelp-1.0.3-py3.8-nspkg.pth",
    "lib/python3.7/site-packages/sphinxcontrib_htmlhelp-1.0.3.dist-info/INSTALLER",
    "lib/python3.7/site-packages/sphinxcontrib_htmlhelp-1.0.3.dist-info/LICENSE",
    "lib/python3.7/site-packages/sphinxcontrib_htmlhelp-1.0.3.dist-info/METADATA",
    "lib/python3.7/site-packages/sphinxcontrib_htmlhelp-1.0.3.dist-info/RECORD",
    "lib/python3.7/site-packages/sphinxcontrib_htmlhelp-1.0.3.dist-info/WHEEL",
    "lib/python3.7/site-packages/sphinxcontrib_htmlhelp-1.0.3.dist-info/namespace_packages.txt",
    "lib/python3.7/site-packages/sphinxcontrib_htmlhelp-1.0.3.dist-info/top_level.txt",
    "lib/python3.7/site-packages/sphinxcontrib/htmlhelp/__pycache__/__init__.cpython-37.pyc",
    "lib/python3.7/site-packages/sphinxcontrib/htmlhelp/__pycache__/version.cpython-37.pyc"
  ],
  "fn": "sphinxcontrib-htmlhelp-1.0.3-py_0.conda",
  "legacy_bz2_md5": "996288dde6e9c712f4cb62a7a02a3e03",
  "license": "BSD-2-Clause",
  "license_family": "BSD",
  "link": {
    "source": "/home/samuel/anaconda3/pkgs/sphinxcontrib-htmlhelp-1.0.3-py_0",
    "type": 1
  },
  "md5": "e2d0dafe22d7f65ecaa5ac306b5099a4",
  "name": "sphinxcontrib-htmlhelp",
  "noarch": "python",
  "package_tarball_full_path": "/home/samuel/anaconda3/pkgs/sphinxcontrib-htmlhelp-1.0.3-py_0.conda",
  "package_type": "noarch_python",
  "paths_data": {
    "paths": [
      {
        "_path": "site-packages/sphinxcontrib/htmlhelp/__init__.py",
        "path_type": "hardlink",
        "sha256": "0f39104468b4d783e6b3c0b37d4d07471e90ea0c87064888d6e05f0b5ae6a2c1",
        "sha256_in_prefix": "0f39104468b4d783e6b3c0b37d4d07471e90ea0c87064888d6e05f0b5ae6a2c1",
        "size_in_bytes": 12364
      },
      {
        "_path": "site-packages/sphinxcontrib/htmlhelp/locales/.tx/config",
        "path_type": "hardlink",
        "sha256": "dc5b5265d289587023393b73c6263b15f3a5c93af444d9c361327ac57a568a25",
        "sha256_in_prefix": "dc5b5265d289587023393b73c6263b15f3a5c93af444d9c361327ac57a568a25",
        "size_in_bytes": 224
      },
      {
        "_path": "site-packages/sphinxcontrib/htmlhelp/locales/ar/LC_MESSAGES/sphinxcontrib.htmlhelp.mo",
        "path_type": "hardlink",
        "sha256": "5e541d9b7fd08dfce000a033c6ff329a3bdc33502b269a1e4548eb5f64a98501",
        "sha256_in_prefix": "5e541d9b7fd08dfce000a033c6ff329a3bdc33502b269a1e4548eb5f64a98501",
        "size_in_bytes": 968
      },
      {
        "_path": "site-packages/sphinxcontrib/htmlhelp/locales/ar/LC_MESSAGES/sphinxcontrib.htmlhelp.po",
        "path_type": "hardlink",
        "sha256": "664069e37935dcbbea18b454351168689b09b94c9a8d092d8e6773fa466138e5",
        "sha256_in_prefix": "664069e37935dcbbea18b454351168689b09b94c9a8d092d8e6773fa466138e5",
        "size_in_bytes": 1261
      },
      {
        "_path": "site-packages/sphinxcontrib/htmlhelp/locales/bn/LC_MESSAGES/sphinxcontrib.htmlhelp.mo",
        "path_type": "hardlink",
        "sha256": "89304af6b59669674d0089443f7ba3f5ad29ab43a149add764620d44bb29b350",
        "sha256_in_prefix": "89304af6b59669674d0089443f7ba3f5ad29ab43a149add764620d44bb29b350",
        "size_in_bytes": 886
      },
      {
        "_path": "site-packages/sphinxcontrib/htmlhelp/locales/bn/LC_MESSAGES/sphinxcontrib.htmlhelp.po",
        "path_type": "hardlink",
        "sha256": "3a9a6967d3aab4a47427dd150a0302f4970a546f4e481dc38d45c5246711f09e",
        "sha256_in_prefix": "3a9a6967d3aab4a47427dd150a0302f4970a546f4e481dc38d45c5246711f09e",
        "size_in_bytes": 1179
      },
      {
        "_path": "site-packages/sphinxcontrib/htmlhelp/locales/ca/LC_MESSAGES/sphinxcontrib.htmlhelp.mo",
        "path_type": "hardlink",
        "sha256": "e863c5b9bf904ce0ce1104eac4c9f7676cd5b86deaa62ee563e3647e24887441",
        "sha256_in_prefix": "e863c5b9bf904ce0ce1104eac4c9f7676cd5b86deaa62ee563e3647e24887441",
        "size_in_bytes": 886
      },
      {
        "_path": "site-packages/sphinxcontrib/htmlhelp/locales/ca/LC_MESSAGES/sphinxcontrib.htmlhelp.po",
        "path_type": "hardlink",
        "sha256": "d3f3f4fb40fb397d35d573d061b88a3863cd6323166491e1495e384a1c892f5c",
        "sha256_in_prefix": "d3f3f4fb40fb397d35d573d061b88a3863cd6323166491e1495e384a1c892f5c",
        "size_in_bytes": 1179
      },
      {
        "_path": "site-packages/sphinxcontrib/htmlhelp/locales/cak/LC_MESSAGES/sphinxcontrib.htmlhelp.mo",
        "path_type": "hardlink",
        "sha256": "a79c49a0d3c11e3210d84c239764ce6732da4ea7da405d637950a5db6d6f3e75",
        "sha256_in_prefix": "a79c49a0d3c11e3210d84c239764ce6732da4ea7da405d637950a5db6d6f3e75",
        "size_in_bytes": 848
      },
      {
        "_path": "site-packages/sphinxcontrib/htmlhelp/locales/cak/LC_MESSAGES/sphinxcontrib.htmlhelp.po",
        "path_type": "hardlink",
        "sha256": "3faf9dce643eb415037999c8059e0a74ba9b4166cfbebb096b6133d594e32b52",
        "sha256_in_prefix": "3faf9dce643eb415037999c8059e0a74ba9b4166cfbebb096b6133d594e32b52",
        "size_in_bytes": 1183
      },
      {
        "_path": "site-packages/sphinxcontrib/htmlhelp/locales/cs/LC_MESSAGES/sphinxcontrib.htmlhelp.mo",
        "path_type": "hardlink",
        "sha256": "6ad4b7b8c0c30881d08bd106e90b98b97a9e00bd62a73d2906c2b127311a8db4",
        "sha256_in_prefix": "6ad4b7b8c0c30881d08bd106e90b98b97a9e00bd62a73d2906c2b127311a8db4",
        "size_in_bytes": 964
      },
      {
        "_path": "site-packages/sphinxcontrib/htmlhelp/locales/cs/LC_MESSAGES/sphinxcontrib.htmlhelp.po",
        "path_type": "hardlink",
        "sha256": "881339f398675203132ca26e51a3f51c37ce4f99f991873fdf60c31bf16d0fb6",
        "sha256_in_prefix": "881339f398675203132ca26e51a3f51c37ce4f99f991873fdf60c31bf16d0fb6",
        "size_in_bytes": 1257
      },
      {
        "_path": "site-packages/sphinxcontrib/htmlhelp/locales/cy/LC_MESSAGES/sphinxcontrib.htmlhelp.mo",
        "path_type": "hardlink",
        "sha256": "76a1a947eb703b01622b86c4504dbbe28e6dd0aecd90c425546f782b54fa53e9",
        "sha256_in_prefix": "76a1a947eb703b01622b86c4504dbbe28e6dd0aecd90c425546f782b54fa53e9",
        "size_in_bytes": 929
      },
      {
        "_path": "site-packages/sphinxcontrib/htmlhelp/locales/cy/LC_MESSAGES/sphinxcontrib.htmlhelp.po",
        "path_type": "hardlink",
        "sha256": "c21e95d645424ffe41f6aaaadda5c525c9fc6b486f8f0100a8a25da124bdc5c6",
        "sha256_in_prefix": "c21e95d645424ffe41f6aaaadda5c525c9fc6b486f8f0100a8a25da124bdc5c6",
        "size_in_bytes": 1222
      },
      {
        "_path": "site-packages/sphinxcontrib/htmlhelp/locales/da/LC_MESSAGES/sphinxcontrib.htmlhelp.mo",
        "path_type": "hardlink",
        "sha256": "4d49f620ebbeb6dfbaec7a24b00aceaf5c04585269dce99f2e3cb52c95cb650c",
        "sha256_in_prefix": "4d49f620ebbeb6dfbaec7a24b00aceaf5c04585269dce99f2e3cb52c95cb650c",
        "size_in_bytes": 885
      },
      {
        "_path": "site-packages/sphinxcontrib/htmlhelp/locales/da/LC_MESSAGES/sphinxcontrib.htmlhelp.po",
        "path_type": "hardlink",
        "sha256": "25530eef547ded5bd42fe821c0a41856b278a05177dbc6404082490b4bd31115",
        "sha256_in_prefix": "25530eef547ded5bd42fe821c0a41856b278a05177dbc6404082490b4bd31115",
        "size_in_bytes": 1178
      },
      {
        "_path": "site-packages/sphinxcontrib/htmlhelp/locales/de/LC_MESSAGES/sphinxcontrib.htmlhelp.mo",
        "path_type": "hardlink",
        "sha256": "56809830e65ba233b1dfd5c6f130732e61e0d9052eba949a819681c247031475",
        "sha256_in_prefix": "56809830e65ba233b1dfd5c6f130732e61e0d9052eba949a819681c247031475",
        "size_in_bytes": 885
      },
      {
        "_path": "site-packages/sphinxcontrib/htmlhelp/locales/de/LC_MESSAGES/sphinxcontrib.htmlhelp.po",
        "path_type": "hardlink",
        "sha256": "01267605673a882731dcc7854d10155d22898e968ef6a3eac7af30e93b3876a3",
        "sha256_in_prefix": "01267605673a882731dcc7854d10155d22898e968ef6a3eac7af30e93b3876a3",
        "size_in_bytes": 1178
      },
      {
        "_path": "site-packages/sphinxcontrib/htmlhelp/locales/el/LC_MESSAGES/sphinxcontrib.htmlhelp.mo",
        "path_type": "hardlink",
        "sha256": "788738f88b8c1f30e4098006ca7ffce502b4be412073784f1c8d571c33beeb28",
        "sha256_in_prefix": "788738f88b8c1f30e4098006ca7ffce502b4be412073784f1c8d571c33beeb28",
        "size_in_bytes": 884
      },
      {
        "_path": "site-packages/sphinxcontrib/htmlhelp/locales/el/LC_MESSAGES/sphinxcontrib.htmlhelp.po",
        "path_type": "hardlink",
        "sha256": "73b80b47af6df1ffd75a5648aeec7118bd1f439f63a185f3b63f2b2ecd9281e2",
        "sha256_in_prefix": "73b80b47af6df1ffd75a5648aeec7118bd1f439f63a185f3b63f2b2ecd9281e2",
        "size_in_bytes": 1177
      },
      {
        "_path": "site-packages/sphinxcontrib/htmlhelp/locales/eo/LC_MESSAGES/sphinxcontrib.htmlhelp.mo",
        "path_type": "hardlink",
        "sha256": "8b46f8ced0c41c44092b48c7aa484dd11e6705fd8ad09f0d75b9340c5f30644c",
        "sha256_in_prefix": "8b46f8ced0c41c44092b48c7aa484dd11e6705fd8ad09f0d75b9340c5f30644c",
        "size_in_bytes": 888
      },
      {
        "_path": "site-packages/sphinxcontrib/htmlhelp/locales/eo/LC_MESSAGES/sphinxcontrib.htmlhelp.po",
        "path_type": "hardlink",
        "sha256": "030f5d2c7d2340c3542ee898a572c4d309d200ff8475913c54e0566a53961cac",
        "sha256_in_prefix": "030f5d2c7d2340c3542ee898a572c4d309d200ff8475913c54e0566a53961cac",
        "size_in_bytes": 1181
      },
      {
        "_path": "site-packages/sphinxcontrib/htmlhelp/locales/es/LC_MESSAGES/sphinxcontrib.htmlhelp.mo",
        "path_type": "hardlink",
        "sha256": "85ae660d27ccad67313d5ac9480895ccfd40ab14583fd8e3bdbe624f72f4d016",
        "sha256_in_prefix": "85ae660d27ccad67313d5ac9480895ccfd40ab14583fd8e3bdbe624f72f4d016",
        "size_in_bytes": 895
      },
      {
        "_path": "site-packages/sphinxcontrib/htmlhelp/locales/es/LC_MESSAGES/sphinxcontrib.htmlhelp.po",
        "path_type": "hardlink",
        "sha256": "71428b52d6cba8cd063d7b981cab208eeb3ff6d8314bd7b4013983efbe745d77",
        "sha256_in_prefix": "71428b52d6cba8cd063d7b981cab208eeb3ff6d8314bd7b4013983efbe745d77",
        "size_in_bytes": 1307
      },
      {
        "_path": "site-packages/sphinxcontrib/htmlhelp/locales/et/LC_MESSAGES/sphinxcontrib.htmlhelp.mo",
        "path_type": "hardlink",
        "sha256": "4d68289c9af5b018f1a556630de391e1ce3ef5afaffc0f9d2adb55daca7e8acb",
        "sha256_in_prefix": "4d68289c9af5b018f1a556630de391e1ce3ef5afaffc0f9d2adb55daca7e8acb",
        "size_in_bytes": 900
      },
      {
        "_path": "site-packages/sphinxcontrib/htmlhelp/locales/et/LC_MESSAGES/sphinxcontrib.htmlhelp.po",
        "path_type": "hardlink",
        "sha256": "116f4602a7e5f1469d00368df7b01c4f43b61fbef1fa7ecf514adb310d11e724",
        "sha256_in_prefix": "116f4602a7e5f1469d00368df7b01c4f43b61fbef1fa7ecf514adb310d11e724",
        "size_in_bytes": 1315
      },
      {
        "_path": "site-packages/sphinxcontrib/htmlhelp/locales/eu/LC_MESSAGES/sphinxcontrib.htmlhelp.mo",
        "path_type": "hardlink",
        "sha256": "1f45fc00981f9ed93e867894e35179fafb5d5b0b7df68148a82d74969b0416a0",
        "sha256_in_prefix": "1f45fc00981f9ed93e867894e35179fafb5d5b0b7df68148a82d74969b0416a0",
        "size_in_bytes": 885
      },
      {
        "_path": "site-packages/sphinxcontrib/htmlhelp/locales/eu/LC_MESSAGES/sphinxcontrib.htmlhelp.po",
        "path_type": "hardlink",
        "sha256": "0c006f461fee6233c2133107694b7ad746d1090449d0b9884a670eb0cc692ef9",
        "sha256_in_prefix": "0c006f461fee6233c2133107694b7ad746d1090449d0b9884a670eb0cc692ef9",
        "size_in_bytes": 1178
      },
      {
        "_path": "site-packages/sphinxcontrib/htmlhelp/locales/fa/LC_MESSAGES/sphinxcontrib.htmlhelp.mo",
        "path_type": "hardlink",
        "sha256": "64ccf2b9748d14867342ee91806e80b573e548ed39dafdf19a469d6138e814e8",
        "sha256_in_prefix": "64ccf2b9748d14867342ee91806e80b573e548ed39dafdf19a469d6138e814e8",
        "size_in_bytes": 885
      },
      {
        "_path": "site-packages/sphinxcontrib/htmlhelp/locales/fa/LC_MESSAGES/sphinxcontrib.htmlhelp.po",
        "path_type": "hardlink",
        "sha256": "7bf2a7d352f6407f719a4c8cf4e53829ac28bd54bc13757137ce28b343fa596a",
        "sha256_in_prefix": "7bf2a7d352f6407f719a4c8cf4e53829ac28bd54bc13757137ce28b343fa596a",
        "size_in_bytes": 1178
      },
      {
        "_path": "site-packages/sphinxcontrib/htmlhelp/locales/fi/LC_MESSAGES/sphinxcontrib.htmlhelp.mo",
        "path_type": "hardlink",
        "sha256": "0c4d361e0386c5704deca570fbd6dfcf0a145cf9980685bffcfbab0a97ed96a1",
        "sha256_in_prefix": "0c4d361e0386c5704deca570fbd6dfcf0a145cf9980685bffcfbab0a97ed96a1",
        "size_in_bytes": 886
      },
      {
        "_path": "site-packages/sphinxcontrib/htmlhelp/locales/fi/LC_MESSAGES/sphinxcontrib.htmlhelp.po",
        "path_type": "hardlink",
        "sha256": "be2348c8cdbc432d796264076806e7462186aa5471ccea0e876506feb66b6180",
        "sha256_in_prefix": "be2348c8cdbc432d796264076806e7462186aa5471ccea0e876506feb66b6180",
        "size_in_bytes": 1179
      },
      {
        "_path": "site-packages/sphinxcontrib/htmlhelp/locales/fr/LC_MESSAGES/sphinxcontrib.htmlhelp.mo",
        "path_type": "hardlink",
        "sha256": "63c74dbf3e4aa0918133fa4fb5739499d09dd14e92fce9b42def443c94fcb469",
        "sha256_in_prefix": "63c74dbf3e4aa0918133fa4fb5739499d09dd14e92fce9b42def443c94fcb469",
        "size_in_bytes": 914
      },
      {
        "_path": "site-packages/sphinxcontrib/htmlhelp/locales/fr/LC_MESSAGES/sphinxcontrib.htmlhelp.po",
        "path_type": "hardlink",
        "sha256": "520087beaf41294f1e646e3f18ba59373cd0f5dbdf3cbfe840028958324c2e41",
        "sha256_in_prefix": "520087beaf41294f1e646e3f18ba59373cd0f5dbdf3cbfe840028958324c2e41",
        "size_in_bytes": 1336
      },
      {
        "_path": "site-packages/sphinxcontrib/htmlhelp/locales/he/LC_MESSAGES/sphinxcontrib.htmlhelp.mo",
        "path_type": "hardlink",
        "sha256": "65b9571ff38ecd56200fcdd20b72b7ab83a30acd3616b0fb0e4ba0a2c7da6f18",
        "sha256_in_prefix": "65b9571ff38ecd56200fcdd20b72b7ab83a30acd3616b0fb0e4ba0a2c7da6f18",
        "size_in_bytes": 979
      },
      {
        "_path": "site-packages/sphinxcontrib/htmlhelp/locales/he/LC_MESSAGES/sphinxcontrib.htmlhelp.po",
        "path_type": "hardlink",
        "sha256": "ff2b0d0d5a0d041b88f73e25de35a178b27402e1fec043bc7ad4d5f10caef7bd",
        "sha256_in_prefix": "ff2b0d0d5a0d041b88f73e25de35a178b27402e1fec043bc7ad4d5f10caef7bd",
        "size_in_bytes": 1272
      },
      {
        "_path": "site-packages/sphinxcontrib/htmlhelp/locales/hi/LC_MESSAGES/sphinxcontrib.htmlhelp.mo",
        "path_type": "hardlink",
        "sha256": "57f56e2272c95e5ba5f50bbdee9381bc8be5a5f0083c92c8bd7c201a5d0c7cc3",
        "sha256_in_prefix": "57f56e2272c95e5ba5f50bbdee9381bc8be5a5f0083c92c8bd7c201a5d0c7cc3",
        "size_in_bytes": 884
      },
      {
        "_path": "site-packages/sphinxcontrib/htmlhelp/locales/hi/LC_MESSAGES/sphinxcontrib.htmlhelp.po",
        "path_type": "hardlink",
        "sha256": "3a2d01f42db0b49f01a8be734c99ed97ed37fbf22436e771273e2f346d41bb5f",
        "sha256_in_prefix": "3a2d01f42db0b49f01a8be734c99ed97ed37fbf22436e771273e2f346d41bb5f",
        "size_in_bytes": 1177
      },
      {
        "_path": "site-packages/sphinxcontrib/htmlhelp/locales/hi_IN/LC_MESSAGES/sphinxcontrib.htmlhelp.mo",
        "path_type": "hardlink",
        "sha256": "cd2328970c34f482dfaa3afaa67b3d4ae9011544aa3f5a2b5d7b8d41aca92369",
        "sha256_in_prefix": "cd2328970c34f482dfaa3afaa67b3d4ae9011544aa3f5a2b5d7b8d41aca92369",
        "size_in_bytes": 898
      },
      {
        "_path": "site-packages/sphinxcontrib/htmlhelp/locales/hi_IN/LC_MESSAGES/sphinxcontrib.htmlhelp.po",
        "path_type": "hardlink",
        "sha256": "8188fbe6ef9242477e0d74b37f074e6ab3353780a9dec7fdadeac817fda27e77",
        "sha256_in_prefix": "8188fbe6ef9242477e0d74b37f074e6ab3353780a9dec7fdadeac817fda27e77",
        "size_in_bytes": 1191
      },
      {
        "_path": "site-packages/sphinxcontrib/htmlhelp/locales/hr/LC_MESSAGES/sphinxcontrib.htmlhelp.mo",
        "path_type": "hardlink",
        "sha256": "1fee586360ff61f244663c3f293aa4e4fd3cb0f7c6450c51ca0ea48158239650",
        "sha256_in_prefix": "1fee586360ff61f244663c3f293aa4e4fd3cb0f7c6450c51ca0ea48158239650",
        "size_in_bytes": 959
      },
      {
        "_path": "site-packages/sphinxcontrib/htmlhelp/locales/hr/LC_MESSAGES/sphinxcontrib.htmlhelp.po",
        "path_type": "hardlink",
        "sha256": "72a0726af22f134bbfd4e59bfd7666707996e3dc9197dfd98a5e031d03a0f94c",
        "sha256_in_prefix": "72a0726af22f134bbfd4e59bfd7666707996e3dc9197dfd98a5e031d03a0f94c",
        "size_in_bytes": 1252
      },
      {
        "_path": "site-packages/sphinxcontrib/htmlhelp/locales/hu/LC_MESSAGES/sphinxcontrib.htmlhelp.mo",
        "path_type": "hardlink",
        "sha256": "ddba97305dcb869893c8d6497603b07e6d503eeb0d7ae148381148a178ba8e45",
        "sha256_in_prefix": "ddba97305dcb869893c8d6497603b07e6d503eeb0d7ae148381148a178ba8e45",
        "size_in_bytes": 888
      },
      {
        "_path": "site-packages/sphinxcontrib/htmlhelp/locales/hu/LC_MESSAGES/sphinxcontrib.htmlhelp.po",
        "path_type": "hardlink",
        "sha256": "f2bb2ff9969e37017535423c7edfd230654825cb74940b99e63848d83598a0c8",
        "sha256_in_prefix": "f2bb2ff9969e37017535423c7edfd230654825cb74940b99e63848d83598a0c8",
        "size_in_bytes": 1181
      },
      {
        "_path": "site-packages/sphinxcontrib/htmlhelp/locales/id/LC_MESSAGES/sphinxcontrib.htmlhelp.mo",
        "path_type": "hardlink",
        "sha256": "c91ed60bb0cf10bc490d449951c71024b2592454760777a1138d489934a351aa",
        "sha256_in_prefix": "c91ed60bb0cf10bc490d449951c71024b2592454760777a1138d489934a351aa",
        "size_in_bytes": 896
      },
      {
        "_path": "site-packages/sphinxcontrib/htmlhelp/locales/id/LC_MESSAGES/sphinxcontrib.htmlhelp.po",
        "path_type": "hardlink",
        "sha256": "c456f94192dfd26bd57f6d80e3dc9a0f672fbdc242e2854e48856561a4f5f67c",
        "sha256_in_prefix": "c456f94192dfd26bd57f6d80e3dc9a0f672fbdc242e2854e48856561a4f5f67c",
        "size_in_bytes": 1372
      },
      {
        "_path": "site-packages/sphinxcontrib/htmlhelp/locales/it/LC_MESSAGES/sphinxcontrib.htmlhelp.mo",
        "path_type": "hardlink",
        "sha256": "2dac3c314e1a0e82f479288c2a57dc03f00833895338474f7c175957af8b1633",
        "sha256_in_prefix": "2dac3c314e1a0e82f479288c2a57dc03f00833895338474f7c175957af8b1633",
        "size_in_bytes": 886
      },
      {
        "_path": "site-packages/sphinxcontrib/htmlhelp/locales/it/LC_MESSAGES/sphinxcontrib.htmlhelp.po",
        "path_type": "hardlink",
        "sha256": "9eeb7a18aaaaa4f6cc2b0a4561a780aa8dee1576710fe738ea5d5b5b85dd39d9",
        "sha256_in_prefix": "9eeb7a18aaaaa4f6cc2b0a4561a780aa8dee1576710fe738ea5d5b5b85dd39d9",
        "size_in_bytes": 1179
      },
      {
        "_path": "site-packages/sphinxcontrib/htmlhelp/locales/ja/LC_MESSAGES/sphinxcontrib.htmlhelp.mo",
        "path_type": "hardlink",
        "sha256": "37380c440d570bdec86711f4f8bd0376cc6598c2ebabc863e64b20634e069b10",
        "sha256_in_prefix": "37380c440d570bdec86711f4f8bd0376cc6598c2ebabc863e64b20634e069b10",
        "size_in_bytes": 880
      },
      {
        "_path": "site-packages/sphinxcontrib/htmlhelp/locales/ja/LC_MESSAGES/sphinxcontrib.htmlhelp.po",
        "path_type": "hardlink",
        "sha256": "9b4b42378551bfe8af635654d422226f8f7d678b6e71dff0aa5f71c8535fdfe3",
        "sha256_in_prefix": "9b4b42378551bfe8af635654d422226f8f7d678b6e71dff0aa5f71c8535fdfe3",
        "size_in_bytes": 1173
      },
      {
        "_path": "site-packages/sphinxcontrib/htmlhelp/locales/ko/LC_MESSAGES/sphinxcontrib.htmlhelp.mo",
        "path_type": "hardlink",
        "sha256": "fd6be29cf0ca6e94f55ca1b20e39f49a765942aadec1b4d640c0fab46f24b18f",
        "sha256_in_prefix": "fd6be29cf0ca6e94f55ca1b20e39f49a765942aadec1b4d640c0fab46f24b18f",
        "size_in_bytes": 878
      },
      {
        "_path": "site-packages/sphinxcontrib/htmlhelp/locales/ko/LC_MESSAGES/sphinxcontrib.htmlhelp.po",
        "path_type": "hardlink",
        "sha256": "2fa43b916e28a9c569347d8c7875da3d072328c012bed4f7aa3492e2800aae68",
        "sha256_in_prefix": "2fa43b916e28a9c569347d8c7875da3d072328c012bed4f7aa3492e2800aae68",
        "size_in_bytes": 1171
      },
      {
        "_path": "site-packages/sphinxcontrib/htmlhelp/locales/lt/LC_MESSAGES/sphinxcontrib.htmlhelp.mo",
        "path_type": "hardlink",
        "sha256": "cbdce62e7cea9fb348ceb56774bc960e15b18560baa4d1c1f345014567aabbce",
        "sha256_in_prefix": "cbdce62e7cea9fb348ceb56774bc960e15b18560baa4d1c1f345014567aabbce",
        "size_in_bytes": 1020
      },
      {
        "_path": "site-packages/sphinxcontrib/htmlhelp/locales/lt/LC_MESSAGES/sphinxcontrib.htmlhelp.po",
        "path_type": "hardlink",
        "sha256": "97f57288212c0ad4d4f8c3dcd0fcf1f0d3b577c04131f4b9711063bcb4aac0f1",
        "sha256_in_prefix": "97f57288212c0ad4d4f8c3dcd0fcf1f0d3b577c04131f4b9711063bcb4aac0f1",
        "size_in_bytes": 1313
      },
      {
        "_path": "site-packages/sphinxcontrib/htmlhelp/locales/lv/LC_MESSAGES/sphinxcontrib.htmlhelp.mo",
        "path_type": "hardlink",
        "sha256": "619b834d4606fdfa18469f05a1861913e266725a77f01e4b7b34d8d44e09925e",
        "sha256_in_prefix": "619b834d4606fdfa18469f05a1861913e266725a77f01e4b7b34d8d44e09925e",
        "size_in_bytes": 921
      },
      {
        "_path": "site-packages/sphinxcontrib/htmlhelp/locales/lv/LC_MESSAGES/sphinxcontrib.htmlhelp.po",
        "path_type": "hardlink",
        "sha256": "1c71ac864c926c881efa01d76a111bace9027167fc2f3b56ebf44f7595c5a495",
        "sha256_in_prefix": "1c71ac864c926c881efa01d76a111bace9027167fc2f3b56ebf44f7595c5a495",
        "size_in_bytes": 1214
      },
      {
        "_path": "site-packages/sphinxcontrib/htmlhelp/locales/mk/LC_MESSAGES/sphinxcontrib.htmlhelp.mo",
        "path_type": "hardlink",
        "sha256": "0bd3c6f185d26e147f2e807bfb266cfcebc85912e3fb0df5f367ed9f53d972df",
        "sha256_in_prefix": "0bd3c6f185d26e147f2e807bfb266cfcebc85912e3fb0df5f367ed9f53d972df",
        "size_in_bytes": 919
      },
      {
        "_path": "site-packages/sphinxcontrib/htmlhelp/locales/mk/LC_MESSAGES/sphinxcontrib.htmlhelp.po",
        "path_type": "hardlink",
        "sha256": "849b60956558a195a44ac1025d90c2ca288a2153a3ff98464bd9bd1049eefd8f",
        "sha256_in_prefix": "849b60956558a195a44ac1025d90c2ca288a2153a3ff98464bd9bd1049eefd8f",
        "size_in_bytes": 1212
      },
      {
        "_path": "site-packages/sphinxcontrib/htmlhelp/locales/nb_NO/LC_MESSAGES/sphinxcontrib.htmlhelp.mo",
        "path_type": "hardlink",
        "sha256": "fd2b815d03bbd4d0a9a8f8449f53aa795aa9b10b05a9879305700d8ee10e6656",
        "sha256_in_prefix": "fd2b815d03bbd4d0a9a8f8449f53aa795aa9b10b05a9879305700d8ee10e6656",
        "size_in_bytes": 911
      },
      {
        "_path": "site-packages/sphinxcontrib/htmlhelp/locales/nb_NO/LC_MESSAGES/sphinxcontrib.htmlhelp.po",
        "path_type": "hardlink",
        "sha256": "b17e57e51cf67e2444432fb541a3da3f02fa20ad33b76d74801c5b1fc59c544a",
        "sha256_in_prefix": "b17e57e51cf67e2444432fb541a3da3f02fa20ad33b76d74801c5b1fc59c544a",
        "size_in_bytes": 1204
      },
      {
        "_path": "site-packages/sphinxcontrib/htmlhelp/locales/ne/LC_MESSAGES/sphinxcontrib.htmlhelp.mo",
        "path_type": "hardlink",
        "sha256": "e21dcfc9ba294520097b36c037036c195b1eec31caf4d246fd14c8d15b88c313",
        "sha256_in_prefix": "e21dcfc9ba294520097b36c037036c195b1eec31caf4d246fd14c8d15b88c313",
        "size_in_bytes": 885
      },
      {
        "_path": "site-packages/sphinxcontrib/htmlhelp/locales/ne/LC_MESSAGES/sphinxcontrib.htmlhelp.po",
        "path_type": "hardlink",
        "sha256": "44c8842d5277c9550a64675d2734fa17a0378fc0d6b8ca1c80da5443a85e6977",
        "sha256_in_prefix": "44c8842d5277c9550a64675d2734fa17a0378fc0d6b8ca1c80da5443a85e6977",
        "size_in_bytes": 1178
      },
      {
        "_path": "site-packages/sphinxcontrib/htmlhelp/locales/nl/LC_MESSAGES/sphinxcontrib.htmlhelp.mo",
        "path_type": "hardlink",
        "sha256": "a200c13934afaaebfb478ebeae484aab9f5103867a9215b06779557c7914a8d4",
        "sha256_in_prefix": "a200c13934afaaebfb478ebeae484aab9f5103867a9215b06779557c7914a8d4",
        "size_in_bytes": 884
      },
      {
        "_path": "site-packages/sphinxcontrib/htmlhelp/locales/nl/LC_MESSAGES/sphinxcontrib.htmlhelp.po",
        "path_type": "hardlink",
        "sha256": "e37b772addf2bd66ec2bb3e9229bfb4b326632a341f62ae4c576fded84739c08",
        "sha256_in_prefix": "e37b772addf2bd66ec2bb3e9229bfb4b326632a341f62ae4c576fded84739c08",
        "size_in_bytes": 1177
      },
      {
        "_path": "site-packages/sphinxcontrib/htmlhelp/locales/pl/LC_MESSAGES/sphinxcontrib.htmlhelp.mo",
        "path_type": "hardlink",
        "sha256": "4b219aaf025bdd311111faedd19e040722309e5995c804087ebee48c967d7b32",
        "sha256_in_prefix": "4b219aaf025bdd311111faedd19e040722309e5995c804087ebee48c967d7b32",
        "size_in_bytes": 1031
      },
      {
        "_path": "site-packages/sphinxcontrib/htmlhelp/locales/pl/LC_MESSAGES/sphinxcontrib.htmlhelp.po",
        "path_type": "hardlink",
        "sha256": "882126814f6f3b647e4d69d79079075cde22aa24f10de7fa09fc0d185d59916c",
        "sha256_in_prefix": "882126814f6f3b647e4d69d79079075cde22aa24f10de7fa09fc0d185d59916c",
        "size_in_bytes": 1324
      },
      {
        "_path": "site-packages/sphinxcontrib/htmlhelp/locales/pt/LC_MESSAGES/sphinxcontrib.htmlhelp.mo",
        "path_type": "hardlink",
        "sha256": "d972fe54813a00d3a2138e0d071c33bce658da99152eb00f9a7440538925be26",
        "sha256_in_prefix": "d972fe54813a00d3a2138e0d071c33bce658da99152eb00f9a7440538925be26",
        "size_in_bytes": 889
      },
      {
        "_path": "site-packages/sphinxcontrib/htmlhelp/locales/pt/LC_MESSAGES/sphinxcontrib.htmlhelp.po",
        "path_type": "hardlink",
        "sha256": "6771ea5d13fb078cdc18f80dc56da15a3dc8289aa1f6be56b2023b3146d999e7",
        "sha256_in_prefix": "6771ea5d13fb078cdc18f80dc56da15a3dc8289aa1f6be56b2023b3146d999e7",
        "size_in_bytes": 1182
      },
      {
        "_path": "site-packages/sphinxcontrib/htmlhelp/locales/pt_BR/LC_MESSAGES/sphinxcontrib.htmlhelp.mo",
        "path_type": "hardlink",
        "sha256": "7105788008c43961bdc8f5872e1b8e148ce277f46d763f551a0a007672b9d0d3",
        "sha256_in_prefix": "7105788008c43961bdc8f5872e1b8e148ce277f46d763f551a0a007672b9d0d3",
        "size_in_bytes": 903
      },
      {
        "_path": "site-packages/sphinxcontrib/htmlhelp/locales/pt_BR/LC_MESSAGES/sphinxcontrib.htmlhelp.po",
        "path_type": "hardlink",
        "sha256": "d975ccfc7493ec9f106aa48408815ed7d211a4f893aee28f30c05d78567403fb",
        "sha256_in_prefix": "d975ccfc7493ec9f106aa48408815ed7d211a4f893aee28f30c05d78567403fb",
        "size_in_bytes": 1196
      },
      {
        "_path": "site-packages/sphinxcontrib/htmlhelp/locales/pt_PT/LC_MESSAGES/sphinxcontrib.htmlhelp.mo",
        "path_type": "hardlink",
        "sha256": "023b5a9b26c323b17504102b62933814663a18874c0210cf00b644038bcfe46b",
        "sha256_in_prefix": "023b5a9b26c323b17504102b62933814663a18874c0210cf00b644038bcfe46b",
        "size_in_bytes": 906
      },
      {
        "_path": "site-packages/sphinxcontrib/htmlhelp/locales/pt_PT/LC_MESSAGES/sphinxcontrib.htmlhelp.po",
        "path_type": "hardlink",
        "sha256": "1e356cbc72e0c20ed0582c64534ce583eaf574a49b145cda3922430d3a2e683e",
        "sha256_in_prefix": "1e356cbc72e0c20ed0582c64534ce583eaf574a49b145cda3922430d3a2e683e",
        "size_in_bytes": 1199
      },
      {
        "_path": "site-packages/sphinxcontrib/htmlhelp/locales/ro/LC_MESSAGES/sphinxcontrib.htmlhelp.mo",
        "path_type": "hardlink",
        "sha256": "00cf922b56c0524dc8b36e9e2c01bf7ecf6f1e7523c65b607b9a51e8f67ed287",
        "sha256_in_prefix": "00cf922b56c0524dc8b36e9e2c01bf7ecf6f1e7523c65b607b9a51e8f67ed287",
        "size_in_bytes": 928
      },
      {
        "_path": "site-packages/sphinxcontrib/htmlhelp/locales/ro/LC_MESSAGES/sphinxcontrib.htmlhelp.po",
        "path_type": "hardlink",
        "sha256": "c5702d22aabb076e4024f62b56c5f75b5e8747cfc51a4944065df8f9c7a94cb3",
        "sha256_in_prefix": "c5702d22aabb076e4024f62b56c5f75b5e8747cfc51a4944065df8f9c7a94cb3",
        "size_in_bytes": 1221
      },
      {
        "_path": "site-packages/sphinxcontrib/htmlhelp/locales/ru/LC_MESSAGES/sphinxcontrib.htmlhelp.mo",
        "path_type": "hardlink",
        "sha256": "e85f9b793205c7642e49f0b2279195bc7492e88044f4094b1552f2012f3e5bd6",
        "sha256_in_prefix": "e85f9b793205c7642e49f0b2279195bc7492e88044f4094b1552f2012f3e5bd6",
        "size_in_bytes": 1024
      },
      {
        "_path": "site-packages/sphinxcontrib/htmlhelp/locales/ru/LC_MESSAGES/sphinxcontrib.htmlhelp.po",
        "path_type": "hardlink",
        "sha256": "a8c9e58cc5b52786179115088339938324c8b0bae84a5c465c353aa7dfc86176",
        "sha256_in_prefix": "a8c9e58cc5b52786179115088339938324c8b0bae84a5c465c353aa7dfc86176",
        "size_in_bytes": 1317
      },
      {
        "_path": "site-packages/sphinxcontrib/htmlhelp/locales/si/LC_MESSAGES/sphinxcontrib.htmlhelp.mo",
        "path_type": "hardlink",
        "sha256": "f2a5494f7ff13171c7845804c92b66c208c7a6b27505b1b7562a7759915aaad8",
        "sha256_in_prefix": "f2a5494f7ff13171c7845804c92b66c208c7a6b27505b1b7562a7759915aaad8",
        "size_in_bytes": 886
      },
      {
        "_path": "site-packages/sphinxcontrib/htmlhelp/locales/si/LC_MESSAGES/sphinxcontrib.htmlhelp.po",
        "path_type": "hardlink",
        "sha256": "c12736818b99596e9c32e2da6fbe6aa66abb3bd5861140ebbf4dcff825f09f20",
        "sha256_in_prefix": "c12736818b99596e9c32e2da6fbe6aa66abb3bd5861140ebbf4dcff825f09f20",
        "size_in_bytes": 1179
      },
      {
        "_path": "site-packages/sphinxcontrib/htmlhelp/locales/sk/LC_MESSAGES/sphinxcontrib.htmlhelp.mo",
        "path_type": "hardlink",
        "sha256": "034b5b6dc8bd93e0b2e0b741aa513953348c14cb05927cab2d8ac808c80b554c",
        "sha256_in_prefix": "034b5b6dc8bd93e0b2e0b741aa513953348c14cb05927cab2d8ac808c80b554c",
        "size_in_bytes": 960
      },
      {
        "_path": "site-packages/sphinxcontrib/htmlhelp/locales/sk/LC_MESSAGES/sphinxcontrib.htmlhelp.po",
        "path_type": "hardlink",
        "sha256": "d85c920a28624e1af05870804241620949e863d56f12f8a35c560366ee80f90e",
        "sha256_in_prefix": "d85c920a28624e1af05870804241620949e863d56f12f8a35c560366ee80f90e",
        "size_in_bytes": 1253
      },
      {
        "_path": "site-packages/sphinxcontrib/htmlhelp/locales/sl/LC_MESSAGES/sphinxcontrib.htmlhelp.mo",
        "path_type": "hardlink",
        "sha256": "c6a707452b29b10d523482d829dade9dbe8dc5533b2964ed13a7121593c8ef94",
        "sha256_in_prefix": "c6a707452b29b10d523482d829dade9dbe8dc5533b2964ed13a7121593c8ef94",
        "size_in_bytes": 940
      },
      {
        "_path": "site-packages/sphinxcontrib/htmlhelp/locales/sl/LC_MESSAGES/sphinxcontrib.htmlhelp.po",
        "path_type": "hardlink",
        "sha256": "5b84f382299b1b650e73fdb31f6e473c8d57ce36eb046ecd4cdf717e1b40f87e",
        "sha256_in_prefix": "5b84f382299b1b650e73fdb31f6e473c8d57ce36eb046ecd4cdf717e1b40f87e",
        "size_in_bytes": 1233
      },
      {
        "_path": "site-packages/sphinxcontrib/htmlhelp/locales/sphinxcontrib.htmlhelp.pot",
        "path_type": "hardlink",
        "sha256": "bf6e0b9a8717f283fe2db8572f7e390f7c5a8284c39d5e7ee81d59961ced56d7",
        "sha256_in_prefix": "bf6e0b9a8717f283fe2db8572f7e390f7c5a8284c39d5e7ee81d59961ced56d7",
        "size_in_bytes": 1120
      },
      {
        "_path": "site-packages/sphinxcontrib/htmlhelp/locales/sr/LC_MESSAGES/sphinxcontrib.htmlhelp.mo",
        "path_type": "hardlink",
        "sha256": "8933fded23c8ea27f5bbf6ac25aae1f7ff68d1186e97d45723357a16ad43f2a3",
        "sha256_in_prefix": "8933fded23c8ea27f5bbf6ac25aae1f7ff68d1186e97d45723357a16ad43f2a3",
        "size_in_bytes": 960
      },
      {
        "_path": "site-packages/sphinxcontrib/htmlhelp/locales/sr/LC_MESSAGES/sphinxcontrib.htmlhelp.po",
        "path_type": "hardlink",
        "sha256": "bfe02f699b610dccf788adf6a4950b76f720524af2982b68487c9d1002dc4506",
        "sha256_in_prefix": "bfe02f699b610dccf788adf6a4950b76f720524af2982b68487c9d1002dc4506",
        "size_in_bytes": 1253
      },
      {
        "_path": "site-packages/sphinxcontrib/htmlhelp/locales/sr@latin/LC_MESSAGES/sphinxcontrib.htmlhelp.mo",
        "path_type": "hardlink",
        "sha256": "254e7315123e044ad78fff26fcbfc8b240a81f49405775c2832bf98c8f5ea7d6",
        "sha256_in_prefix": "254e7315123e044ad78fff26fcbfc8b240a81f49405775c2832bf98c8f5ea7d6",
        "size_in_bytes": 982
      },
      {
        "_path": "site-packages/sphinxcontrib/htmlhelp/locales/sr@latin/LC_MESSAGES/sphinxcontrib.htmlhelp.po",
        "path_type": "hardlink",
        "sha256": "038baf7c16427aaa1aa661a5fe7ab4fb92d57f532accc214c874998f8fdb387d",
        "sha256_in_prefix": "038baf7c16427aaa1aa661a5fe7ab4fb92d57f532accc214c874998f8fdb387d",
        "size_in_bytes": 1275
      },
      {
        "_path": "site-packages/sphinxcontrib/htmlhelp/locales/sr_RS/LC_MESSAGES/sphinxcontrib.htmlhelp.mo",
        "path_type": "hardlink",
        "sha256": "cb2022909a8f226f13e2d487d6733425f6da2286a3994b668648e4dfe9bf58d7",
        "sha256_in_prefix": "cb2022909a8f226f13e2d487d6733425f6da2286a3994b668648e4dfe9bf58d7",
        "size_in_bytes": 975
      },
      {
        "_path": "site-packages/sphinxcontrib/htmlhelp/locales/sr_RS/LC_MESSAGES/sphinxcontrib.htmlhelp.po",
        "path_type": "hardlink",
        "sha256": "a161dbf6032acce15c771ffbc847414b7ba90d677132bdce3eec6e0811fdce6c",
        "sha256_in_prefix": "a161dbf6032acce15c771ffbc847414b7ba90d677132bdce3eec6e0811fdce6c",
        "size_in_bytes": 1268
      },
      {
        "_path": "site-packages/sphinxcontrib/htmlhelp/locales/sv/LC_MESSAGES/sphinxcontrib.htmlhelp.mo",
        "path_type": "hardlink",
        "sha256": "df3ae277c58939f98ddb5da7bcc93a904b4aada33f569307aa17616e48f393be",
        "sha256_in_prefix": "df3ae277c58939f98ddb5da7bcc93a904b4aada33f569307aa17616e48f393be",
        "size_in_bytes": 886
      },
      {
        "_path": "site-packages/sphinxcontrib/htmlhelp/locales/sv/LC_MESSAGES/sphinxcontrib.htmlhelp.po",
        "path_type": "hardlink",
        "sha256": "469e80e95af2156f9e1189a3330238b6509a744e797dd49afd2112fefebff6ea",
        "sha256_in_prefix": "469e80e95af2156f9e1189a3330238b6509a744e797dd49afd2112fefebff6ea",
        "size_in_bytes": 1179
      },
      {
        "_path": "site-packages/sphinxcontrib/htmlhelp/locales/ta/LC_MESSAGES/sphinxcontrib.htmlhelp.mo",
        "path_type": "hardlink",
        "sha256": "960cabb6afb0e27fa96f25b41911eb55313ef535157e7442230a0b0eab0b009d",
        "sha256_in_prefix": "960cabb6afb0e27fa96f25b41911eb55313ef535157e7442230a0b0eab0b009d",
        "size_in_bytes": 884
      },
      {
        "_path": "site-packages/sphinxcontrib/htmlhelp/locales/ta/LC_MESSAGES/sphinxcontrib.htmlhelp.po",
        "path_type": "hardlink",
        "sha256": "42548a55b1c8eb87a0286e29b5e131db4ae6a5eb9a90c8cb35158d104265af74",
        "sha256_in_prefix": "42548a55b1c8eb87a0286e29b5e131db4ae6a5eb9a90c8cb35158d104265af74",
        "size_in_bytes": 1177
      },
      {
        "_path": "site-packages/sphinxcontrib/htmlhelp/locales/tr/LC_MESSAGES/sphinxcontrib.htmlhelp.mo",
        "path_type": "hardlink",
        "sha256": "cdc66eeee269949a5a7e08bacc1dcb39c005cca82cb46cc4fd0023ff1ab55440",
        "sha256_in_prefix": "cdc66eeee269949a5a7e08bacc1dcb39c005cca82cb46cc4fd0023ff1ab55440",
        "size_in_bytes": 885
      },
      {
        "_path": "site-packages/sphinxcontrib/htmlhelp/locales/tr/LC_MESSAGES/sphinxcontrib.htmlhelp.po",
        "path_type": "hardlink",
        "sha256": "aa46cdbc2909c19f0b26594a1ab198e436e5fb19cd0421006d091d8564dff4c7",
        "sha256_in_prefix": "aa46cdbc2909c19f0b26594a1ab198e436e5fb19cd0421006d091d8564dff4c7",
        "size_in_bytes": 1178
      },
      {
        "_path": "site-packages/sphinxcontrib/htmlhelp/locales/uk_UA/LC_MESSAGES/sphinxcontrib.htmlhelp.mo",
        "path_type": "hardlink",
        "sha256": "6fefa8005e61f6dbbcbbefa2e03b384d3c80281301662b5838f431e652d0cae7",
        "sha256_in_prefix": "6fefa8005e61f6dbbcbbefa2e03b384d3c80281301662b5838f431e652d0cae7",
        "size_in_bytes": 1126
      },
      {
        "_path": "site-packages/sphinxcontrib/htmlhelp/locales/uk_UA/LC_MESSAGES/sphinxcontrib.htmlhelp.po",
        "path_type": "hardlink",
        "sha256": "143979afb6cebb1871033a36683fb9a3b17c0be0c5e8d44b0e0773e54ee5cdbf",
        "sha256_in_prefix": "143979afb6cebb1871033a36683fb9a3b17c0be0c5e8d44b0e0773e54ee5cdbf",
        "size_in_bytes": 1419
      },
      {
        "_path": "site-packages/sphinxcontrib/htmlhelp/locales/ur/LC_MESSAGES/sphinxcontrib.htmlhelp.mo",
        "path_type": "hardlink",
        "sha256": "c36e4fbd8868ca5d8725da1bc289bfa822dbf5b7515f752013bb5257344bc5ef",
        "sha256_in_prefix": "c36e4fbd8868ca5d8725da1bc289bfa822dbf5b7515f752013bb5257344bc5ef",
        "size_in_bytes": 883
      },
      {
        "_path": "site-packages/sphinxcontrib/htmlhelp/locales/ur/LC_MESSAGES/sphinxcontrib.htmlhelp.po",
        "path_type": "hardlink",
        "sha256": "7f391fdb01dd28a222db4d1a6cab65424ff976cda4f708621f23398386ccd115",
        "sha256_in_prefix": "7f391fdb01dd28a222db4d1a6cab65424ff976cda4f708621f23398386ccd115",
        "size_in_bytes": 1176
      },
      {
        "_path": "site-packages/sphinxcontrib/htmlhelp/locales/vi/LC_MESSAGES/sphinxcontrib.htmlhelp.mo",
        "path_type": "hardlink",
        "sha256": "1432d999a51437d6ac06a982f30971aaba9c52a9cce638aa476429ede1c652a1",
        "sha256_in_prefix": "1432d999a51437d6ac06a982f30971aaba9c52a9cce638aa476429ede1c652a1",
        "size_in_bytes": 882
      },
      {
        "_path": "site-packages/sphinxcontrib/htmlhelp/locales/vi/LC_MESSAGES/sphinxcontrib.htmlhelp.po",
        "path_type": "hardlink",
        "sha256": "42306aa16f8a2bc161dfed26201abd8d827b96b99e155d086fa193bcdf8f9e8b",
        "sha256_in_prefix": "42306aa16f8a2bc161dfed26201abd8d827b96b99e155d086fa193bcdf8f9e8b",
        "size_in_bytes": 1175
      },
      {
        "_path": "site-packages/sphinxcontrib/htmlhelp/locales/zh_CN/LC_MESSAGES/sphinxcontrib.htmlhelp.mo",
        "path_type": "hardlink",
        "sha256": "80144481107382f771ae7552b79a9c089047b8d3ab56c03a935cb5095b8958c5",
        "sha256_in_prefix": "80144481107382f771ae7552b79a9c089047b8d3ab56c03a935cb5095b8958c5",
        "size_in_bytes": 925
      },
      {
        "_path": "site-packages/sphinxcontrib/htmlhelp/locales/zh_CN/LC_MESSAGES/sphinxcontrib.htmlhelp.po",
        "path_type": "hardlink",
        "sha256": "433c6cb14a2237ba319848def0a1090e0c1b8cb3acc4097d3d0a4a11eab34f31",
        "sha256_in_prefix": "433c6cb14a2237ba319848def0a1090e0c1b8cb3acc4097d3d0a4a11eab34f31",
        "size_in_bytes": 1414
      },
      {
        "_path": "site-packages/sphinxcontrib/htmlhelp/locales/zh_TW/LC_MESSAGES/sphinxcontrib.htmlhelp.mo",
        "path_type": "hardlink",
        "sha256": "d545daf721d74172449ac71efe4a53309ef0d36599c379fc9a9308813798b7c8",
        "sha256_in_prefix": "d545daf721d74172449ac71efe4a53309ef0d36599c379fc9a9308813798b7c8",
        "size_in_bytes": 894
      },
      {
        "_path": "site-packages/sphinxcontrib/htmlhelp/locales/zh_TW/LC_MESSAGES/sphinxcontrib.htmlhelp.po",
        "path_type": "hardlink",
        "sha256": "7cab4b5addeb62acc8ce00f36bd53228472e9ec4ded88e057a803243811efc18",
        "sha256_in_prefix": "7cab4b5addeb62acc8ce00f36bd53228472e9ec4ded88e057a803243811efc18",
        "size_in_bytes": 1187
      },
      {
        "_path": "site-packages/sphinxcontrib/htmlhelp/templates/project.hhc",
        "path_type": "hardlink",
        "sha256": "221cbb26bce49f31c8cc91a0386d571b7e09c55014c7649de7fcc8d845f36efa",
        "sha256_in_prefix": "221cbb26bce49f31c8cc91a0386d571b7e09c55014c7649de7fcc8d845f36efa",
        "size_in_bytes": 729
      },
      {
        "_path": "site-packages/sphinxcontrib/htmlhelp/templates/project.hhp",
        "path_type": "hardlink",
        "sha256": "00ef1565063833b510fa903d51c494369a5bf8ef2de26637e93a5eeb15f07887",
        "sha256_in_prefix": "00ef1565063833b510fa903d51c494369a5bf8ef2de26637e93a5eeb15f07887",
        "size_in_bytes": 1627
      },
      {
        "_path": "site-packages/sphinxcontrib/htmlhelp/templates/project.stp",
        "path_type": "hardlink",
        "sha256": "bf9d0b8ee6de8464c0609731c9335997865eb58aecded38c90b69093ec1d4f05",
        "sha256_in_prefix": "bf9d0b8ee6de8464c0609731c9335997865eb58aecded38c90b69093ec1d4f05",
        "size_in_bytes": 165
      },
      {
        "_path": "site-packages/sphinxcontrib/htmlhelp/version.py",
        "path_type": "hardlink",
        "sha256": "944b5a0f9ed5c2c20e52f145ec04711936b5915bfaa9c47fd3ba76438328b74d",
        "sha256_in_prefix": "944b5a0f9ed5c2c20e52f145ec04711936b5915bfaa9c47fd3ba76438328b74d",
        "size_in_bytes": 273
      },
      {
        "_path": "site-packages/sphinxcontrib_htmlhelp-1.0.3-py3.8-nspkg.pth",
        "path_type": "hardlink",
        "sha256": "6ef09bbd30e129409336dac26eee8755ef13b180b81b8fa14645de1dd109eade",
        "sha256_in_prefix": "6ef09bbd30e129409336dac26eee8755ef13b180b81b8fa14645de1dd109eade",
        "size_in_bytes": 574
      },
      {
        "_path": "site-packages/sphinxcontrib_htmlhelp-1.0.3.dist-info/INSTALLER",
        "path_type": "hardlink",
        "sha256": "d0edee15f91b406f3f99726e44eb990be6e34fd0345b52b910c568e0eef6a2a8",
        "sha256_in_prefix": "d0edee15f91b406f3f99726e44eb990be6e34fd0345b52b910c568e0eef6a2a8",
        "size_in_bytes": 5
      },
      {
        "_path": "site-packages/sphinxcontrib_htmlhelp-1.0.3.dist-info/LICENSE",
        "path_type": "hardlink",
        "sha256": "dccf210bbbdda1b97caff8333a45bd8a7621f32b6f8b1d13a748f24a4e5d99d3",
        "sha256_in_prefix": "dccf210bbbdda1b97caff8333a45bd8a7621f32b6f8b1d13a748f24a4e5d99d3",
        "size_in_bytes": 1439
      },
      {
        "_path": "site-packages/sphinxcontrib_htmlhelp-1.0.3.dist-info/METADATA",
        "path_type": "hardlink",
        "sha256": "88495edf9e9fb877620b121d57df2ec3556be23869d8b3e9a269b91f8d56ac9c",
        "sha256_in_prefix": "88495edf9e9fb877620b121d57df2ec3556be23869d8b3e9a269b91f8d56ac9c",
        "size_in_bytes": 1501
      },
      {
        "_path": "site-packages/sphinxcontrib_htmlhelp-1.0.3.dist-info/RECORD",
        "path_type": "hardlink",
        "sha256": "ee02eb6b21c93345f32e4cf855291cc434f4e37c8b8fff88baac92bf831cbf78",
        "sha256_in_prefix": "ee02eb6b21c93345f32e4cf855291cc434f4e37c8b8fff88baac92bf831cbf78",
        "size_in_bytes": 14784
      },
      {
        "_path": "site-packages/sphinxcontrib_htmlhelp-1.0.3.dist-info/WHEEL",
        "path_type": "hardlink",
        "sha256": "9064fbe0b5b245466b2f85602e1ebf835d8879597ff6ef5956169dae05d95046",
        "sha256_in_prefix": "9064fbe0b5b245466b2f85602e1ebf835d8879597ff6ef5956169dae05d95046",
        "size_in_bytes": 110
      },
      {
        "_path": "site-packages/sphinxcontrib_htmlhelp-1.0.3.dist-info/namespace_packages.txt",
        "path_type": "hardlink",
        "sha256": "549ad5dffbda88a415815a51d08d6279cc683b476bcc6bbe3348f8d0f54fd904",
        "sha256_in_prefix": "549ad5dffbda88a415815a51d08d6279cc683b476bcc6bbe3348f8d0f54fd904",
        "size_in_bytes": 14
      },
      {
        "_path": "site-packages/sphinxcontrib_htmlhelp-1.0.3.dist-info/top_level.txt",
        "path_type": "hardlink",
        "sha256": "549ad5dffbda88a415815a51d08d6279cc683b476bcc6bbe3348f8d0f54fd904",
        "sha256_in_prefix": "549ad5dffbda88a415815a51d08d6279cc683b476bcc6bbe3348f8d0f54fd904",
        "size_in_bytes": 14
      },
      {
        "_path": "lib/python3.7/site-packages/sphinxcontrib/htmlhelp/__pycache__/__init__.cpython-37.pyc",
        "path_type": "pyc_file"
      },
      {
        "_path": "lib/python3.7/site-packages/sphinxcontrib/htmlhelp/__pycache__/version.cpython-37.pyc",
        "path_type": "pyc_file"
      }
    ],
    "paths_version": 1
  },
  "requested_spec": "None",
  "sha256": "1dfdb0aa45cf75c3bea029fff98e3d7e28c4a9c47b98df3da8b8b4cefa984340",
  "size": 27577,
  "subdir": "noarch",
  "timestamp": 1584458685978,
  "track_features": "",
  "url": "https://repo.anaconda.com/pkgs/main/noarch/sphinxcontrib-htmlhelp-1.0.3-py_0.conda",
  "version": "1.0.3"
}