{
  "build": "py_0",
  "build_number": 0,
  "channel": "https://repo.anaconda.com/pkgs/main/noarch",
  "constrains": [],
  "depends": [
    "python"
  ],
  "extracted_package_dir": "/home/samuel/anaconda3/pkgs/yapf-0.28.0-py_0",
  "features": "",
  "files": [
    "lib/python3.7/site-packages/yapf-0.28.0.dist-info/AUTHORS",
    "lib/python3.7/site-packages/yapf-0.28.0.dist-info/INSTALLER",
    "lib/python3.7/site-packages/yapf-0.28.0.dist-info/LICENSE",
    "lib/python3.7/site-packages/yapf-0.28.0.dist-info/METADATA",
    "lib/python3.7/site-packages/yapf-0.28.0.dist-info/RECORD",
    "lib/python3.7/site-packages/yapf-0.28.0.dist-info/WHEEL",
    "lib/python3.7/site-packages/yapf-0.28.0.dist-info/entry_points.txt",
    "lib/python3.7/site-packages/yapf-0.28.0.dist-info/top_level.txt",
    "lib/python3.7/site-packages/yapf/__init__.py",
    "lib/python3.7/site-packages/yapf/__main__.py",
    "lib/python3.7/site-packages/yapf/yapflib/__init__.py",
    "lib/python3.7/site-packages/yapf/yapflib/blank_line_calculator.py",
    "lib/python3.7/site-packages/yapf/yapflib/comment_splicer.py",
    "lib/python3.7/site-packages/yapf/yapflib/continuation_splicer.py",
    "lib/python3.7/site-packages/yapf/yapflib/errors.py",
    "lib/python3.7/site-packages/yapf/yapflib/file_resources.py",
    "lib/python3.7/site-packages/yapf/yapflib/format_decision_state.py",
    "lib/python3.7/site-packages/yapf/yapflib/format_token.py",
    "lib/python3.7/site-packages/yapf/yapflib/identify_container.py",
    "lib/python3.7/site-packages/yapf/yapflib/line_joiner.py",
    "lib/python3.7/site-packages/yapf/yapflib/object_state.py",
    "lib/python3.7/site-packages/yapf/yapflib/py3compat.py",
    "lib/python3.7/site-packages/yapf/yapflib/pytree_unwrapper.py",
    "lib/python3.7/site-packages/yapf/yapflib/pytree_utils.py",
    "lib/python3.7/site-packages/yapf/yapflib/pytree_visitor.py",
    "lib/python3.7/site-packages/yapf/yapflib/reformatter.py",
    "lib/python3.7/site-packages/yapf/yapflib/split_penalty.py",
    "lib/python3.7/site-packages/yapf/yapflib/style.py",
    "lib/python3.7/site-packages/yapf/yapflib/subtype_assigner.py",
    "lib/python3.7/site-packages/yapf/yapflib/unwrapped_line.py",
    "lib/python3.7/site-packages/yapf/yapflib/verifier.py",
    "lib/python3.7/site-packages/yapf/yapflib/yapf_api.py",
    "lib/python3.7/site-packages/yapftests/__init__.py",
    "lib/python3.7/site-packages/yapftests/blank_line_calculator_test.py",
    "lib/python3.7/site-packages/yapftests/comment_splicer_test.py",
    "lib/python3.7/site-packages/yapftests/file_resources_test.py",
    "lib/python3.7/site-packages/yapftests/format_decision_state_test.py",
    "lib/python3.7/site-packages/yapftests/format_token_test.py",
    "lib/python3.7/site-packages/yapftests/line_joiner_test.py",
    "lib/python3.7/site-packages/yapftests/main_test.py",
    "lib/python3.7/site-packages/yapftests/pytree_unwrapper_test.py",
    "lib/python3.7/site-packages/yapftests/pytree_utils_test.py",
    "lib/python3.7/site-packages/yapftests/pytree_visitor_test.py",
    "lib/python3.7/site-packages/yapftests/reformatter_basic_test.py",
    "lib/python3.7/site-packages/yapftests/reformatter_buganizer_test.py",
    "lib/python3.7/site-packages/yapftests/reformatter_facebook_test.py",
    "lib/python3.7/site-packages/yapftests/reformatter_pep8_test.py",
    "lib/python3.7/site-packages/yapftests/reformatter_python3_test.py",
    "lib/python3.7/site-packages/yapftests/reformatter_style_config_test.py",
    "lib/python3.7/site-packages/yapftests/reformatter_verify_test.py",
    "lib/python3.7/site-packages/yapftests/split_penalty_test.py",
    "lib/python3.7/site-packages/yapftests/style_test.py",
    "lib/python3.7/site-packages/yapftests/subtype_assigner_test.py",
    "lib/python3.7/site-packages/yapftests/unwrapped_line_test.py",
    "lib/python3.7/site-packages/yapftests/utils.py",
    "lib/python3.7/site-packages/yapftests/yapf_test.py",
    "lib/python3.7/site-packages/yapftests/yapf_test_helper.py",
    "lib/python3.7/site-packages/yapf/__pycache__/__init__.cpython-37.pyc",
    "lib/python3.7/site-packages/yapf/__pycache__/__main__.cpython-37.pyc",
    "lib/python3.7/site-packages/yapf/yapflib/__pycache__/__init__.cpython-37.pyc",
    "lib/python3.7/site-packages/yapf/yapflib/__pycache__/blank_line_calculator.cpython-37.pyc",
    "lib/python3.7/site-packages/yapf/yapflib/__pycache__/comment_splicer.cpython-37.pyc",
    "lib/python3.7/site-packages/yapf/yapflib/__pycache__/continuation_splicer.cpython-37.pyc",
    "lib/python3.7/site-packages/yapf/yapflib/__pycache__/errors.cpython-37.pyc",
    "lib/python3.7/site-packages/yapf/yapflib/__pycache__/file_resources.cpython-37.pyc",
    "lib/python3.7/site-packages/yapf/yapflib/__pycache__/format_decision_state.cpython-37.pyc",
    "lib/python3.7/site-packages/yapf/yapflib/__pycache__/format_token.cpython-37.pyc",
    "lib/python3.7/site-packages/yapf/yapflib/__pycache__/identify_container.cpython-37.pyc",
    "lib/python3.7/site-packages/yapf/yapflib/__pycache__/line_joiner.cpython-37.pyc",
    "lib/python3.7/site-packages/yapf/yapflib/__pycache__/object_state.cpython-37.pyc",
    "lib/python3.7/site-packages/yapf/yapflib/__pycache__/py3compat.cpython-37.pyc",
    "lib/python3.7/site-packages/yapf/yapflib/__pycache__/pytree_unwrapper.cpython-37.pyc",
    "lib/python3.7/site-packages/yapf/yapflib/__pycache__/pytree_utils.cpython-37.pyc",
    "lib/python3.7/site-packages/yapf/yapflib/__pycache__/pytree_visitor.cpython-37.pyc",
    "lib/python3.7/site-packages/yapf/yapflib/__pycache__/reformatter.cpython-37.pyc",
    "lib/python3.7/site-packages/yapf/yapflib/__pycache__/split_penalty.cpython-37.pyc",
    "lib/python3.7/site-packages/yapf/yapflib/__pycache__/style.cpython-37.pyc",
    "lib/python3.7/site-packages/yapf/yapflib/__pycache__/subtype_assigner.cpython-37.pyc",
    "lib/python3.7/site-packages/yapf/yapflib/__pycache__/unwrapped_line.cpython-37.pyc",
    "lib/python3.7/site-packages/yapf/yapflib/__pycache__/verifier.cpython-37.pyc",
    "lib/python3.7/site-packages/yapf/yapflib/__pycache__/yapf_api.cpython-37.pyc",
    "lib/python3.7/site-packages/yapftests/__pycache__/__init__.cpython-37.pyc",
    "lib/python3.7/site-packages/yapftests/__pycache__/blank_line_calculator_test.cpython-37.pyc",
    "lib/python3.7/site-packages/yapftests/__pycache__/comment_splicer_test.cpython-37.pyc",
    "lib/python3.7/site-packages/yapftests/__pycache__/file_resources_test.cpython-37.pyc",
    "lib/python3.7/site-packages/yapftests/__pycache__/format_decision_state_test.cpython-37.pyc",
    "lib/python3.7/site-packages/yapftests/__pycache__/format_token_test.cpython-37.pyc",
    "lib/python3.7/site-packages/yapftests/__pycache__/line_joiner_test.cpython-37.pyc",
    "lib/python3.7/site-packages/yapftests/__pycache__/main_test.cpython-37.pyc",
    "lib/python3.7/site-packages/yapftests/__pycache__/pytree_unwrapper_test.cpython-37.pyc",
    "lib/python3.7/site-packages/yapftests/__pycache__/pytree_utils_test.cpython-37.pyc",
    "lib/python3.7/site-packages/yapftests/__pycache__/pytree_visitor_test.cpython-37.pyc",
    "lib/python3.7/site-packages/yapftests/__pycache__/reformatter_basic_test.cpython-37.pyc",
    "lib/python3.7/site-packages/yapftests/__pycache__/reformatter_buganizer_test.cpython-37.pyc",
    "lib/python3.7/site-packages/yapftests/__pycache__/reformatter_facebook_test.cpython-37.pyc",
    "lib/python3.7/site-packages/yapftests/__pycache__/reformatter_pep8_test.cpython-37.pyc",
    "lib/python3.7/site-packages/yapftests/__pycache__/reformatter_python3_test.cpython-37.pyc",
    "lib/python3.7/site-packages/yapftests/__pycache__/reformatter_style_config_test.cpython-37.pyc",
    "lib/python3.7/site-packages/yapftests/__pycache__/reformatter_verify_test.cpython-37.pyc",
    "lib/python3.7/site-packages/yapftests/__pycache__/split_penalty_test.cpython-37.pyc",
    "lib/python3.7/site-packages/yapftests/__pycache__/style_test.cpython-37.pyc",
    "lib/python3.7/site-packages/yapftests/__pycache__/subtype_assigner_test.cpython-37.pyc",
    "lib/python3.7/site-packages/yapftests/__pycache__/unwrapped_line_test.cpython-37.pyc",
    "lib/python3.7/site-packages/yapftests/__pycache__/utils.cpython-37.pyc",
    "lib/python3.7/site-packages/yapftests/__pycache__/yapf_test.cpython-37.pyc",
    "lib/python3.7/site-packages/yapftests/__pycache__/yapf_test_helper.cpython-37.pyc",
    "bin/yapf"
  ],
  "fn": "yapf-0.28.0-py_0.tar.bz2",
  "license": "Apache 2.0",
  "link": {
    "source": "/home/samuel/anaconda3/pkgs/yapf-0.28.0-py_0",
    "type": 1
  },
  "md5": "ff520328b9e0811ca3a8c2652dcf4e9b",
  "name": "yapf",
  "noarch": "python",
  "package_tarball_full_path": "/home/samuel/anaconda3/pkgs/yapf-0.28.0-py_0.tar.bz2",
  "package_type": "noarch_python",
  "paths_data": {
    "paths": [
      {
        "_path": "site-packages/yapf-0.28.0.dist-info/AUTHORS",
        "path_type": "hardlink",
        "sha256": "1a3591f17972f8397d56b2aecd32cebd1a026cc372dbbf03c4ad92b9df4b702c",
        "sha256_in_prefix": "1a3591f17972f8397d56b2aecd32cebd1a026cc372dbbf03c4ad92b9df4b702c",
        "size_in_bytes": 307
      },
      {
        "_path": "site-packages/yapf-0.28.0.dist-info/INSTALLER",
        "path_type": "hardlink",
        "sha256": "d0edee15f91b406f3f99726e44eb990be6e34fd0345b52b910c568e0eef6a2a8",
        "sha256_in_prefix": "d0edee15f91b406f3f99726e44eb990be6e34fd0345b52b910c568e0eef6a2a8",
        "size_in_bytes": 5
      },
      {
        "_path": "site-packages/yapf-0.28.0.dist-info/LICENSE",
        "path_type": "hardlink",
        "sha256": "cfc7749b96f63bd31c3c42b5c471bf756814053e847c10f3eb003417bc523d30",
        "sha256_in_prefix": "cfc7749b96f63bd31c3c42b5c471bf756814053e847c10f3eb003417bc523d30",
        "size_in_bytes": 11358
      },
      {
        "_path": "site-packages/yapf-0.28.0.dist-info/METADATA",
        "path_type": "hardlink",
        "sha256": "36357ee623407e3077b2ff521f415efabe8e6cfa14f74a9194d1667fdbd927db",
        "sha256_in_prefix": "36357ee623407e3077b2ff521f415efabe8e6cfa14f74a9194d1667fdbd927db",
        "size_in_bytes": 29138
      },
      {
        "_path": "site-packages/yapf-0.28.0.dist-info/RECORD",
        "path_type": "hardlink",
        "sha256": "30a8d4596bc946790878afe87cc10464f236f7c56ee1d0453fda03f1e1fc065f",
        "sha256_in_prefix": "30a8d4596bc946790878afe87cc10464f236f7c56ee1d0453fda03f1e1fc065f",
        "size_in_bytes": 6746
      },
      {
        "_path": "site-packages/yapf-0.28.0.dist-info/WHEEL",
        "path_type": "hardlink",
        "sha256": "87f6959f9381d8811152331b8b6a6e72647fcf3589b64df4dd85ef861eb4349f",
        "sha256_in_prefix": "87f6959f9381d8811152331b8b6a6e72647fcf3589b64df4dd85ef861eb4349f",
        "size_in_bytes": 110
      },
      {
        "_path": "site-packages/yapf-0.28.0.dist-info/entry_points.txt",
        "path_type": "hardlink",
        "sha256": "a2453b6006b4e3ad64cdaf43362353df972723c23be748fbbc4deb6be5e361d5",
        "sha256_in_prefix": "a2453b6006b4e3ad64cdaf43362353df972723c23be748fbbc4deb6be5e361d5",
        "size_in_bytes": 40
      },
      {
        "_path": "site-packages/yapf-0.28.0.dist-info/top_level.txt",
        "path_type": "hardlink",
        "sha256": "635b0a9b73abd7e2a504d5d4f33bf722e5d2271d65014f88fc2bffa9336af964",
        "sha256_in_prefix": "635b0a9b73abd7e2a504d5d4f33bf722e5d2271d65014f88fc2bffa9336af964",
        "size_in_bytes": 15
      },
      {
        "_path": "site-packages/yapf/__init__.py",
        "path_type": "hardlink",
        "sha256": "5fadace18a0df899d3892086c333a511b3f0184171f7cfdbc19e12a91273c5a4",
        "sha256_in_prefix": "5fadace18a0df899d3892086c333a511b3f0184171f7cfdbc19e12a91273c5a4",
        "size_in_bytes": 11869
      },
      {
        "_path": "site-packages/yapf/__main__.py",
        "path_type": "hardlink",
        "sha256": "8c9e457307bab5b5f1a92b94c513b7b9e978e2d1cfe77bd549ca2396eb347013",
        "sha256_in_prefix": "8c9e457307bab5b5f1a92b94c513b7b9e978e2d1cfe77bd549ca2396eb347013",
        "size_in_bytes": 680
      },
      {
        "_path": "site-packages/yapf/yapflib/__init__.py",
        "path_type": "hardlink",
        "sha256": "69b06a86aa8f3f5d232baa4d084b795435597d82b4bb47d0ba04e9d800b42b89",
        "sha256_in_prefix": "69b06a86aa8f3f5d232baa4d084b795435597d82b4bb47d0ba04e9d800b42b89",
        "size_in_bytes": 596
      },
      {
        "_path": "site-packages/yapf/yapflib/blank_line_calculator.py",
        "path_type": "hardlink",
        "sha256": "4539d3a27eb07ed99968b57218e94ef7fd245aa756406251c03f94279d0bede4",
        "sha256_in_prefix": "4539d3a27eb07ed99968b57218e94ef7fd245aa756406251c03f94279d0bede4",
        "size_in_bytes": 6343
      },
      {
        "_path": "site-packages/yapf/yapflib/comment_splicer.py",
        "path_type": "hardlink",
        "sha256": "2859b86a951b989e46356cb2a277ad2a37288bc385e531631b8e13a52f26bdf8",
        "sha256_in_prefix": "2859b86a951b989e46356cb2a277ad2a37288bc385e531631b8e13a52f26bdf8",
        "size_in_bytes": 15169
      },
      {
        "_path": "site-packages/yapf/yapflib/continuation_splicer.py",
        "path_type": "hardlink",
        "sha256": "e7f369ce7f7c48b212aa8a47da10777524c10d556cfe2b8264177e3494cd38a7",
        "sha256_in_prefix": "e7f369ce7f7c48b212aa8a47da10777524c10d556cfe2b8264177e3494cd38a7",
        "size_in_bytes": 1776
      },
      {
        "_path": "site-packages/yapf/yapflib/errors.py",
        "path_type": "hardlink",
        "sha256": "fdf40387834439700d91c9be63b1686c123a835f6cce0a91dfc1dfcbf1668aac",
        "sha256_in_prefix": "fdf40387834439700d91c9be63b1686c123a835f6cce0a91dfc1dfcbf1668aac",
        "size_in_bytes": 843
      },
      {
        "_path": "site-packages/yapf/yapflib/file_resources.py",
        "path_type": "hardlink",
        "sha256": "5b05749c104e3063ffe522a69947ddd4db7792523968873282e0649f3a0aeef6",
        "sha256_in_prefix": "5b05749c104e3063ffe522a69947ddd4db7792523968873282e0649f3a0aeef6",
        "size_in_bytes": 7165
      },
      {
        "_path": "site-packages/yapf/yapflib/format_decision_state.py",
        "path_type": "hardlink",
        "sha256": "e586ec04c1726c591d6d9ff20cbce09e79ef9aadb6e43c3e2f482a7a6bd503dc",
        "sha256_in_prefix": "e586ec04c1726c591d6d9ff20cbce09e79ef9aadb6e43c3e2f482a7a6bd503dc",
        "size_in_bytes": 42700
      },
      {
        "_path": "site-packages/yapf/yapflib/format_token.py",
        "path_type": "hardlink",
        "sha256": "340cf4a3598bc698153751d54a254e53e0b63a0117ba7c81bafb8266bd8a7b94",
        "sha256_in_prefix": "340cf4a3598bc698153751d54a254e53e0b63a0117ba7c81bafb8266bd8a7b94",
        "size_in_bytes": 12084
      },
      {
        "_path": "site-packages/yapf/yapflib/identify_container.py",
        "path_type": "hardlink",
        "sha256": "20b8761a006b72640cbf3d20f703c1cc842c3891b52a5983fe60144774abb873",
        "sha256_in_prefix": "20b8761a006b72640cbf3d20f703c1cc842c3891b52a5983fe60144774abb873",
        "size_in_bytes": 2279
      },
      {
        "_path": "site-packages/yapf/yapflib/line_joiner.py",
        "path_type": "hardlink",
        "sha256": "8c073b1adeac21b71b572db7cba7f20fc97c8d7308c9698fe1f5934934e195ec",
        "sha256_in_prefix": "8c073b1adeac21b71b572db7cba7f20fc97c8d7308c9698fe1f5934934e195ec",
        "size_in_bytes": 3924
      },
      {
        "_path": "site-packages/yapf/yapflib/object_state.py",
        "path_type": "hardlink",
        "sha256": "a9c4c0ae777673712ff17ee2bb425d0eda26ef55ea7fc74e6e78199937c8047a",
        "sha256_in_prefix": "a9c4c0ae777673712ff17ee2bb425d0eda26ef55ea7fc74e6e78199937c8047a",
        "size_in_bytes": 2842
      },
      {
        "_path": "site-packages/yapf/yapflib/py3compat.py",
        "path_type": "hardlink",
        "sha256": "7e205a2dc58e67891ed82570c94c068b033849d0400d8fe5be4323e813d44d2c",
        "sha256_in_prefix": "7e205a2dc58e67891ed82570c94c068b033849d0400d8fe5be4323e813d44d2c",
        "size_in_bytes": 4106
      },
      {
        "_path": "site-packages/yapf/yapflib/pytree_unwrapper.py",
        "path_type": "hardlink",
        "sha256": "55a19a587cd41e944a8853aa70fd6369ff6299ad506ae8009afacfe5dc66f87b",
        "sha256_in_prefix": "55a19a587cd41e944a8853aa70fd6369ff6299ad506ae8009afacfe5dc66f87b",
        "size_in_bytes": 13629
      },
      {
        "_path": "site-packages/yapf/yapflib/pytree_utils.py",
        "path_type": "hardlink",
        "sha256": "0efbc620e98ddc2dcfcef2eaa5e4847da0ad0eadf4ef97dc3934f6d842ab73e4",
        "sha256_in_prefix": "0efbc620e98ddc2dcfcef2eaa5e4847da0ad0eadf4ef97dc3934f6d842ab73e4",
        "size_in_bytes": 10864
      },
      {
        "_path": "site-packages/yapf/yapflib/pytree_visitor.py",
        "path_type": "hardlink",
        "sha256": "ab31fedf84ea3c0efbe98408895bfadd27d84653aec49887db1df29cbc6c8661",
        "sha256_in_prefix": "ab31fedf84ea3c0efbe98408895bfadd27d84653aec49887db1df29cbc6c8661",
        "size_in_bytes": 4528
      },
      {
        "_path": "site-packages/yapf/yapflib/reformatter.py",
        "path_type": "hardlink",
        "sha256": "fa734a9df97ceee5fde1530fe3494e668dc1e2b54a02517a248f3dffcb9a58c0",
        "sha256_in_prefix": "fa734a9df97ceee5fde1530fe3494e668dc1e2b54a02517a248f3dffcb9a58c0",
        "size_in_bytes": 27880
      },
      {
        "_path": "site-packages/yapf/yapflib/split_penalty.py",
        "path_type": "hardlink",
        "sha256": "69f1157bd63d17354f14c7736b6542d4c7403147e07707e239a5b38110504e26",
        "sha256_in_prefix": "69f1157bd63d17354f14c7736b6542d4c7403147e07707e239a5b38110504e26",
        "size_in_bytes": 24254
      },
      {
        "_path": "site-packages/yapf/yapflib/style.py",
        "path_type": "hardlink",
        "sha256": "e8f190eb8d558da557bf456eea3dbc59d44e336e43f1499a610add78d8868eed",
        "sha256_in_prefix": "e8f190eb8d558da557bf456eea3dbc59d44e336e43f1499a610add78d8868eed",
        "size_in_bytes": 27722
      },
      {
        "_path": "site-packages/yapf/yapflib/subtype_assigner.py",
        "path_type": "hardlink",
        "sha256": "72c8eecf019b7d5c451bcebe502d0820cffb5a3f46da8f7e3bc21947a9059841",
        "sha256_in_prefix": "72c8eecf019b7d5c451bcebe502d0820cffb5a3f46da8f7e3bc21947a9059841",
        "size_in_bytes": 18779
      },
      {
        "_path": "site-packages/yapf/yapflib/unwrapped_line.py",
        "path_type": "hardlink",
        "sha256": "efe214709e6181a5dc831bd08f7a077aa0199a056e701316b387f359f42dea6a",
        "sha256_in_prefix": "efe214709e6181a5dc831bd08f7a077aa0199a056e701316b387f359f42dea6a",
        "size_in_bytes": 22427
      },
      {
        "_path": "site-packages/yapf/yapflib/verifier.py",
        "path_type": "hardlink",
        "sha256": "a93e6394cd63f7a8de57b630a5d09ccca5fcbca9b9d48e354c4d6690b5fc7649",
        "sha256_in_prefix": "a93e6394cd63f7a8de57b630a5d09ccca5fcbca9b9d48e354c4d6690b5fc7649",
        "size_in_bytes": 3042
      },
      {
        "_path": "site-packages/yapf/yapflib/yapf_api.py",
        "path_type": "hardlink",
        "sha256": "a7ae26d7af4bc8ddda058bb948dda51789e40e6823c5c8a713d558ce6a4998ab",
        "sha256_in_prefix": "a7ae26d7af4bc8ddda058bb948dda51789e40e6823c5c8a713d558ce6a4998ab",
        "size_in_bytes": 9281
      },
      {
        "_path": "site-packages/yapftests/__init__.py",
        "path_type": "hardlink",
        "sha256": "69b06a86aa8f3f5d232baa4d084b795435597d82b4bb47d0ba04e9d800b42b89",
        "sha256_in_prefix": "69b06a86aa8f3f5d232baa4d084b795435597d82b4bb47d0ba04e9d800b42b89",
        "size_in_bytes": 596
      },
      {
        "_path": "site-packages/yapftests/blank_line_calculator_test.py",
        "path_type": "hardlink",
        "sha256": "739ab3c3c86bf612d78f04c308def78a1ff6619f702d71ea607d92c1f27f60c5",
        "sha256_in_prefix": "739ab3c3c86bf612d78f04c308def78a1ff6619f702d71ea607d92c1f27f60c5",
        "size_in_bytes": 9161
      },
      {
        "_path": "site-packages/yapftests/comment_splicer_test.py",
        "path_type": "hardlink",
        "sha256": "b26bd84c9686f7d0cb74aee751c2d9a822ee2719f3baa4140e60dfba31a5dea8",
        "sha256_in_prefix": "b26bd84c9686f7d0cb74aee751c2d9a822ee2719f3baa4140e60dfba31a5dea8",
        "size_in_bytes": 11005
      },
      {
        "_path": "site-packages/yapftests/file_resources_test.py",
        "path_type": "hardlink",
        "sha256": "16d58bed32478110527ec2e7d4675ddc7d0c1cb7368778b9d5b563d34dc4d4d8",
        "sha256_in_prefix": "16d58bed32478110527ec2e7d4675ddc7d0c1cb7368778b9d5b563d34dc4d4d8",
        "size_in_bytes": 13576
      },
      {
        "_path": "site-packages/yapftests/format_decision_state_test.py",
        "path_type": "hardlink",
        "sha256": "0906c51bc3265bc5a06845f707ea3d3ff4b6ab38393b40536b94a2458773feca",
        "sha256_in_prefix": "0906c51bc3265bc5a06845f707ea3d3ff4b6ab38393b40536b94a2458773feca",
        "size_in_bytes": 4426
      },
      {
        "_path": "site-packages/yapftests/format_token_test.py",
        "path_type": "hardlink",
        "sha256": "98c436ed8d53586e82d0c89c3d8668fd6bdfc2a5a6dc7437022a2ba9f17154f4",
        "sha256_in_prefix": "98c436ed8d53586e82d0c89c3d8668fd6bdfc2a5a6dc7437022a2ba9f17154f4",
        "size_in_bytes": 2933
      },
      {
        "_path": "site-packages/yapftests/line_joiner_test.py",
        "path_type": "hardlink",
        "sha256": "5cf1af80ffb2bdb5863bb3283d9735c2c2218a657ea3bdcc022ade48717f2bf3",
        "sha256_in_prefix": "5cf1af80ffb2bdb5863bb3283d9735c2c2218a657ea3bdcc022ade48717f2bf3",
        "size_in_bytes": 2616
      },
      {
        "_path": "site-packages/yapftests/main_test.py",
        "path_type": "hardlink",
        "sha256": "af13dd283339e276c15281b637eb40e06230be81b8d1e70d800236755d348687",
        "sha256_in_prefix": "af13dd283339e276c15281b637eb40e06230be81b8d1e70d800236755d348687",
        "size_in_bytes": 4186
      },
      {
        "_path": "site-packages/yapftests/pytree_unwrapper_test.py",
        "path_type": "hardlink",
        "sha256": "9c17ea0eb4a96c8cc2d2e92279caba3febd7718fc05d0ac83d10ff799fa71eb4",
        "sha256_in_prefix": "9c17ea0eb4a96c8cc2d2e92279caba3febd7718fc05d0ac83d10ff799fa71eb4",
        "size_in_bytes": 9368
      },
      {
        "_path": "site-packages/yapftests/pytree_utils_test.py",
        "path_type": "hardlink",
        "sha256": "e4d788d62a2b111e738a9a3f0b022c9b91415ad5aa79e3a36a5ca050c35a59ab",
        "sha256_in_prefix": "e4d788d62a2b111e738a9a3f0b022c9b91415ad5aa79e3a36a5ca050c35a59ab",
        "size_in_bytes": 8140
      },
      {
        "_path": "site-packages/yapftests/pytree_visitor_test.py",
        "path_type": "hardlink",
        "sha256": "96356c9949880cd1a73a96e0a043a660be9257e28020366835f8802db2a1acfd",
        "sha256_in_prefix": "96356c9949880cd1a73a96e0a043a660be9257e28020366835f8802db2a1acfd",
        "size_in_bytes": 4068
      },
      {
        "_path": "site-packages/yapftests/reformatter_basic_test.py",
        "path_type": "hardlink",
        "sha256": "4589a1ab7478c88082197f98f822ba89787c633cb6605353f7df9900eb8eb1e5",
        "sha256_in_prefix": "4589a1ab7478c88082197f98f822ba89787c633cb6605353f7df9900eb8eb1e5",
        "size_in_bytes": 98253
      },
      {
        "_path": "site-packages/yapftests/reformatter_buganizer_test.py",
        "path_type": "hardlink",
        "sha256": "ba4d09422140afcc5db3c96a1278f58d159206b51749e7dc05aea09f866ba64f",
        "sha256_in_prefix": "ba4d09422140afcc5db3c96a1278f58d159206b51749e7dc05aea09f866ba64f",
        "size_in_bytes": 84667
      },
      {
        "_path": "site-packages/yapftests/reformatter_facebook_test.py",
        "path_type": "hardlink",
        "sha256": "e06e3c0934112dd05589e5d2aa142ce54fbaa4dc74f82f168e8d9b301e707832",
        "sha256_in_prefix": "e06e3c0934112dd05589e5d2aa142ce54fbaa4dc74f82f168e8d9b301e707832",
        "size_in_bytes": 15205
      },
      {
        "_path": "site-packages/yapftests/reformatter_pep8_test.py",
        "path_type": "hardlink",
        "sha256": "fab8bd08466adc307d827efbf69db71bc1982c1d7e753047056deb9316100bf7",
        "sha256_in_prefix": "fab8bd08466adc307d827efbf69db71bc1982c1d7e753047056deb9316100bf7",
        "size_in_bytes": 20671
      },
      {
        "_path": "site-packages/yapftests/reformatter_python3_test.py",
        "path_type": "hardlink",
        "sha256": "e5eef0e7b38fd57c0636a010aef17b1e314e54a963dd31de418c70179e3df208",
        "sha256_in_prefix": "e5eef0e7b38fd57c0636a010aef17b1e314e54a963dd31de418c70179e3df208",
        "size_in_bytes": 11657
      },
      {
        "_path": "site-packages/yapftests/reformatter_style_config_test.py",
        "path_type": "hardlink",
        "sha256": "ac1430e26f15e9f79c0a0bb6ade8c7ed74852be5c17b3b1ace6fa9184c22e210",
        "sha256_in_prefix": "ac1430e26f15e9f79c0a0bb6ade8c7ed74852be5c17b3b1ace6fa9184c22e210",
        "size_in_bytes": 7223
      },
      {
        "_path": "site-packages/yapftests/reformatter_verify_test.py",
        "path_type": "hardlink",
        "sha256": "19bcb079383df003ae57e1f9b0774830ea38abb255e21246ba5e25cec88ab898",
        "sha256_in_prefix": "19bcb079383df003ae57e1f9b0774830ea38abb255e21246ba5e25cec88ab898",
        "size_in_bytes": 3579
      },
      {
        "_path": "site-packages/yapftests/split_penalty_test.py",
        "path_type": "hardlink",
        "sha256": "1969fd884e12802f3960535c74ac1e2d7eb03f4118d1f7e7dd59d280daac2e28",
        "sha256_in_prefix": "1969fd884e12802f3960535c74ac1e2d7eb03f4118d1f7e7dd59d280daac2e28",
        "size_in_bytes": 7421
      },
      {
        "_path": "site-packages/yapftests/style_test.py",
        "path_type": "hardlink",
        "sha256": "17eca610794786e0acafffb4f77365d49d89e76cbf6e7b4375f8f902692b4aa0",
        "sha256_in_prefix": "17eca610794786e0acafffb4f77365d49d89e76cbf6e7b4375f8f902692b4aa0",
        "size_in_bytes": 11330
      },
      {
        "_path": "site-packages/yapftests/subtype_assigner_test.py",
        "path_type": "hardlink",
        "sha256": "6e73e4624e734364ef28a056fead3f2e81a543b50a141295bf31ae61f04ad188",
        "sha256_in_prefix": "6e73e4624e734364ef28a056fead3f2e81a543b50a141295bf31ae61f04ad188",
        "size_in_bytes": 10006
      },
      {
        "_path": "site-packages/yapftests/unwrapped_line_test.py",
        "path_type": "hardlink",
        "sha256": "115997720311013738ebc8885a9bf791a5b50f20af7bec5826f11e28e8fcd8b1",
        "sha256_in_prefix": "115997720311013738ebc8885a9bf791a5b50f20af7bec5826f11e28e8fcd8b1",
        "size_in_bytes": 3218
      },
      {
        "_path": "site-packages/yapftests/utils.py",
        "path_type": "hardlink",
        "sha256": "91bae3f0f127be6ad5ee425410e688aea3866a99295d6604a02544a96da2ba03",
        "sha256_in_prefix": "91bae3f0f127be6ad5ee425410e688aea3866a99295d6604a02544a96da2ba03",
        "size_in_bytes": 2708
      },
      {
        "_path": "site-packages/yapftests/yapf_test.py",
        "path_type": "hardlink",
        "sha256": "733078237585c2989853f2f6da3b392ba8f515cd6d65878dbfbc5f35dd607de1",
        "sha256_in_prefix": "733078237585c2989853f2f6da3b392ba8f515cd6d65878dbfbc5f35dd607de1",
        "size_in_bytes": 55301
      },
      {
        "_path": "site-packages/yapftests/yapf_test_helper.py",
        "path_type": "hardlink",
        "sha256": "29dc5274fdcd2998aa5126dafeb7974665bbf440af96516f6b1de19fbaf2090e",
        "sha256_in_prefix": "29dc5274fdcd2998aa5126dafeb7974665bbf440af96516f6b1de19fbaf2090e",
        "size_in_bytes": 2825
      },
      {
        "_path": "lib/python3.7/site-packages/yapf/__pycache__/__init__.cpython-37.pyc",
        "path_type": "pyc_file"
      },
      {
        "_path": "lib/python3.7/site-packages/yapf/__pycache__/__main__.cpython-37.pyc",
        "path_type": "pyc_file"
      },
      {
        "_path": "lib/python3.7/site-packages/yapf/yapflib/__pycache__/__init__.cpython-37.pyc",
        "path_type": "pyc_file"
      },
      {
        "_path": "lib/python3.7/site-packages/yapf/yapflib/__pycache__/blank_line_calculator.cpython-37.pyc",
        "path_type": "pyc_file"
      },
      {
        "_path": "lib/python3.7/site-packages/yapf/yapflib/__pycache__/comment_splicer.cpython-37.pyc",
        "path_type": "pyc_file"
      },
      {
        "_path": "lib/python3.7/site-packages/yapf/yapflib/__pycache__/continuation_splicer.cpython-37.pyc",
        "path_type": "pyc_file"
      },
      {
        "_path": "lib/python3.7/site-packages/yapf/yapflib/__pycache__/errors.cpython-37.pyc",
        "path_type": "pyc_file"
      },
      {
        "_path": "lib/python3.7/site-packages/yapf/yapflib/__pycache__/file_resources.cpython-37.pyc",
        "path_type": "pyc_file"
      },
      {
        "_path": "lib/python3.7/site-packages/yapf/yapflib/__pycache__/format_decision_state.cpython-37.pyc",
        "path_type": "pyc_file"
      },
      {
        "_path": "lib/python3.7/site-packages/yapf/yapflib/__pycache__/format_token.cpython-37.pyc",
        "path_type": "pyc_file"
      },
      {
        "_path": "lib/python3.7/site-packages/yapf/yapflib/__pycache__/identify_container.cpython-37.pyc",
        "path_type": "pyc_file"
      },
      {
        "_path": "lib/python3.7/site-packages/yapf/yapflib/__pycache__/line_joiner.cpython-37.pyc",
        "path_type": "pyc_file"
      },
      {
        "_path": "lib/python3.7/site-packages/yapf/yapflib/__pycache__/object_state.cpython-37.pyc",
        "path_type": "pyc_file"
      },
      {
        "_path": "lib/python3.7/site-packages/yapf/yapflib/__pycache__/py3compat.cpython-37.pyc",
        "path_type": "pyc_file"
      },
      {
        "_path": "lib/python3.7/site-packages/yapf/yapflib/__pycache__/pytree_unwrapper.cpython-37.pyc",
        "path_type": "pyc_file"
      },
      {
        "_path": "lib/python3.7/site-packages/yapf/yapflib/__pycache__/pytree_utils.cpython-37.pyc",
        "path_type": "pyc_file"
      },
      {
        "_path": "lib/python3.7/site-packages/yapf/yapflib/__pycache__/pytree_visitor.cpython-37.pyc",
        "path_type": "pyc_file"
      },
      {
        "_path": "lib/python3.7/site-packages/yapf/yapflib/__pycache__/reformatter.cpython-37.pyc",
        "path_type": "pyc_file"
      },
      {
        "_path": "lib/python3.7/site-packages/yapf/yapflib/__pycache__/split_penalty.cpython-37.pyc",
        "path_type": "pyc_file"
      },
      {
        "_path": "lib/python3.7/site-packages/yapf/yapflib/__pycache__/style.cpython-37.pyc",
        "path_type": "pyc_file"
      },
      {
        "_path": "lib/python3.7/site-packages/yapf/yapflib/__pycache__/subtype_assigner.cpython-37.pyc",
        "path_type": "pyc_file"
      },
      {
        "_path": "lib/python3.7/site-packages/yapf/yapflib/__pycache__/unwrapped_line.cpython-37.pyc",
        "path_type": "pyc_file"
      },
      {
        "_path": "lib/python3.7/site-packages/yapf/yapflib/__pycache__/verifier.cpython-37.pyc",
        "path_type": "pyc_file"
      },
      {
        "_path": "lib/python3.7/site-packages/yapf/yapflib/__pycache__/yapf_api.cpython-37.pyc",
        "path_type": "pyc_file"
      },
      {
        "_path": "lib/python3.7/site-packages/yapftests/__pycache__/__init__.cpython-37.pyc",
        "path_type": "pyc_file"
      },
      {
        "_path": "lib/python3.7/site-packages/yapftests/__pycache__/blank_line_calculator_test.cpython-37.pyc",
        "path_type": "pyc_file"
      },
      {
        "_path": "lib/python3.7/site-packages/yapftests/__pycache__/comment_splicer_test.cpython-37.pyc",
        "path_type": "pyc_file"
      },
      {
        "_path": "lib/python3.7/site-packages/yapftests/__pycache__/file_resources_test.cpython-37.pyc",
        "path_type": "pyc_file"
      },
      {
        "_path": "lib/python3.7/site-packages/yapftests/__pycache__/format_decision_state_test.cpython-37.pyc",
        "path_type": "pyc_file"
      },
      {
        "_path": "lib/python3.7/site-packages/yapftests/__pycache__/format_token_test.cpython-37.pyc",
        "path_type": "pyc_file"
      },
      {
        "_path": "lib/python3.7/site-packages/yapftests/__pycache__/line_joiner_test.cpython-37.pyc",
        "path_type": "pyc_file"
      },
      {
        "_path": "lib/python3.7/site-packages/yapftests/__pycache__/main_test.cpython-37.pyc",
        "path_type": "pyc_file"
      },
      {
        "_path": "lib/python3.7/site-packages/yapftests/__pycache__/pytree_unwrapper_test.cpython-37.pyc",
        "path_type": "pyc_file"
      },
      {
        "_path": "lib/python3.7/site-packages/yapftests/__pycache__/pytree_utils_test.cpython-37.pyc",
        "path_type": "pyc_file"
      },
      {
        "_path": "lib/python3.7/site-packages/yapftests/__pycache__/pytree_visitor_test.cpython-37.pyc",
        "path_type": "pyc_file"
      },
      {
        "_path": "lib/python3.7/site-packages/yapftests/__pycache__/reformatter_basic_test.cpython-37.pyc",
        "path_type": "pyc_file"
      },
      {
        "_path": "lib/python3.7/site-packages/yapftests/__pycache__/reformatter_buganizer_test.cpython-37.pyc",
        "path_type": "pyc_file"
      },
      {
        "_path": "lib/python3.7/site-packages/yapftests/__pycache__/reformatter_facebook_test.cpython-37.pyc",
        "path_type": "pyc_file"
      },
      {
        "_path": "lib/python3.7/site-packages/yapftests/__pycache__/reformatter_pep8_test.cpython-37.pyc",
        "path_type": "pyc_file"
      },
      {
        "_path": "lib/python3.7/site-packages/yapftests/__pycache__/reformatter_python3_test.cpython-37.pyc",
        "path_type": "pyc_file"
      },
      {
        "_path": "lib/python3.7/site-packages/yapftests/__pycache__/reformatter_style_config_test.cpython-37.pyc",
        "path_type": "pyc_file"
      },
      {
        "_path": "lib/python3.7/site-packages/yapftests/__pycache__/reformatter_verify_test.cpython-37.pyc",
        "path_type": "pyc_file"
      },
      {
        "_path": "lib/python3.7/site-packages/yapftests/__pycache__/split_penalty_test.cpython-37.pyc",
        "path_type": "pyc_file"
      },
      {
        "_path": "lib/python3.7/site-packages/yapftests/__pycache__/style_test.cpython-37.pyc",
        "path_type": "pyc_file"
      },
      {
        "_path": "lib/python3.7/site-packages/yapftests/__pycache__/subtype_assigner_test.cpython-37.pyc",
        "path_type": "pyc_file"
      },
      {
        "_path": "lib/python3.7/site-packages/yapftests/__pycache__/unwrapped_line_test.cpython-37.pyc",
        "path_type": "pyc_file"
      },
      {
        "_path": "lib/python3.7/site-packages/yapftests/__pycache__/utils.cpython-37.pyc",
        "path_type": "pyc_file"
      },
      {
        "_path": "lib/python3.7/site-packages/yapftests/__pycache__/yapf_test.cpython-37.pyc",
        "path_type": "pyc_file"
      },
      {
        "_path": "lib/python3.7/site-packages/yapftests/__pycache__/yapf_test_helper.cpython-37.pyc",
        "path_type": "pyc_file"
      },
      {
        "_path": "bin/yapf",
        "path_type": "unix_python_entry_point"
      }
    ],
    "paths_version": 1
  },
  "requested_spec": "None",
  "sha256": "7274d7fb78852c21923f0917a0755e770f88ce6913fcf6b8bf1525e1998ff33b",
  "size": 122648,
  "subdir": "noarch",
  "timestamp": 1564711660704,
  "track_features": "",
  "url": "https://repo.anaconda.com/pkgs/main/noarch/yapf-0.28.0-py_0.tar.bz2",
  "version": "0.28.0"
}