GFORTRAN module version '10' created from H5Gff.F90
MD5:84adcb3b3cb74fc914c16b1665a992fd -- If you edit this, you'll get what you deserve.

(() () () () () () () () () () () () () () () () () () () () () () ()
() () () ())

()

(('c_funptr' '__iso_c_binding' 2) ('c_ptr' '__iso_c_binding' 3) (
'hdset_reg_ref_t_f' 'h5global' 4) ('hobj_ref_t_f' 'h5global' 5))

()

()

()

(2 'C_funptr' '__iso_c_binding' '' 1 ((DERIVED UNKNOWN-INTENT
UNKNOWN-PROC UNKNOWN UNKNOWN 0 0 IS_BIND_C IS_C_INTEROP IS_ISO_C) (
DERIVED 2 0 1 1 UNKNOWN ()) 0 0 () () 0 ((6 '__c_funptr_c_address' (
INTEGER 8 0 1 0 INTEGER ()) () (UNKNOWN-FL UNKNOWN-INTENT UNKNOWN-PROC
UNKNOWN UNKNOWN 0 0) UNKNOWN-ACCESS ())) UNKNOWN-ACCESS () () 2 44 0)
3 'C_ptr' '__iso_c_binding' '' 1 ((DERIVED UNKNOWN-INTENT UNKNOWN-PROC
UNKNOWN UNKNOWN 0 0 IS_BIND_C IS_C_INTEROP IS_ISO_C) (DERIVED 3 0 1 1
UNKNOWN ()) 0 0 () () 0 ((7 '__c_ptr_c_address' (INTEGER 8 0 1 0 INTEGER
()) () (UNKNOWN-FL UNKNOWN-INTENT UNKNOWN-PROC UNKNOWN UNKNOWN 0 0)
UNKNOWN-ACCESS ())) UNKNOWN-ACCESS () () 2 42 0)
4 'Hdset_reg_ref_t_f' 'h5global' '' 1 ((DERIVED UNKNOWN-INTENT
UNKNOWN-PROC UNKNOWN UNKNOWN 0 0) (UNKNOWN 0 0 0 0 UNKNOWN ()) 0 0 () ()
0 ((8 'ref' (INTEGER 4 0 0 0 INTEGER ()) (1 0 EXPLICIT (CONSTANT (
INTEGER 4 0 0 0 INTEGER ()) 0 '1') (CONSTANT (INTEGER 4 0 0 0 INTEGER ())
0 '3')) (UNKNOWN-FL UNKNOWN-INTENT UNKNOWN-PROC UNKNOWN UNKNOWN 0 0
DIMENSION) UNKNOWN-ACCESS ())) PUBLIC (() () () ()) () 0 0 53711708)
5 'Hobj_ref_t_f' 'h5global' '' 1 ((DERIVED UNKNOWN-INTENT UNKNOWN-PROC
UNKNOWN UNKNOWN 0 0) (UNKNOWN 0 0 0 0 UNKNOWN ()) 0 0 () () 0 ((9 'ref'
(INTEGER 8 0 0 0 INTEGER ()) () (UNKNOWN-FL UNKNOWN-INTENT UNKNOWN-PROC
UNKNOWN UNKNOWN 0 0) UNKNOWN-ACCESS ())) PUBLIC (() () () ()) () 0 0
65284270)
10 '__convert_i4_i8' '(intrinsic)' '' 1 ((PROCEDURE UNKNOWN-INTENT
UNKNOWN-PROC UNKNOWN UNKNOWN 0 0 FUNCTION ELEMENTAL PURE) (INTEGER 8 0 0
0 INTEGER ()) 0 0 () () 10 () () () 0 0)
11 '__iso_c_binding' '__iso_c_binding' '' 1 ((MODULE UNKNOWN-INTENT
UNKNOWN-PROC UNKNOWN UNKNOWN 0 0 INTRINSIC) (UNKNOWN 0 0 0 0 UNKNOWN ())
0 0 () () 0 () () () 2 0)
12 'c_alert' '__iso_c_binding' '' 1 ((PARAMETER UNKNOWN-INTENT
UNKNOWN-PROC UNKNOWN UNKNOWN 0 0 IS_C_INTEROP IS_ISO_C) (CHARACTER 1 0 1
1 CHARACTER ((CONSTANT (INTEGER 4 0 0 0 INTEGER ()) 0 '1'))) 0 0 () (
CONSTANT (CHARACTER 1 0 1 1 UNKNOWN (())) 0 1 '\U00000007') () 0 () () ()
2 35)
13 'c_associated' '__iso_c_binding' '__iso_c_binding_c_associated' 1 ((
PROCEDURE UNKNOWN-INTENT MODULE-PROC DECL UNKNOWN 0 0 FUNCTION
ALWAYS_EXPLICIT IS_ISO_C) (LOGICAL 4 0 0 0 LOGICAL ()) 14 0 (15 16) ()
13 () () () 2 47)
17 'c_backspace' '__iso_c_binding' '' 1 ((PARAMETER UNKNOWN-INTENT
UNKNOWN-PROC UNKNOWN UNKNOWN 0 0 IS_C_INTEROP IS_ISO_C) (CHARACTER 1 0 1
1 CHARACTER ((CONSTANT (INTEGER 4 0 0 0 INTEGER ()) 0 '1'))) 0 0 () (
CONSTANT (CHARACTER 1 0 1 1 UNKNOWN (())) 0 1 '\U00000008') () 0 () () ()
2 36)
18 'c_bool' '__iso_c_binding' '' 1 ((PARAMETER UNKNOWN-INTENT
UNKNOWN-PROC UNKNOWN UNKNOWN 0 0 IS_C_INTEROP IS_ISO_C) (INTEGER 4 0 1 1
LOGICAL ()) 0 0 () (CONSTANT (INTEGER 4 0 1 1 UNKNOWN ()) 0 '1') () 0 ()
() () 2 32)
19 'c_carriage_return' '__iso_c_binding' '' 1 ((PARAMETER UNKNOWN-INTENT
UNKNOWN-PROC UNKNOWN UNKNOWN 0 0 IS_C_INTEROP IS_ISO_C) (CHARACTER 1 0 1
1 CHARACTER ((CONSTANT (INTEGER 4 0 0 0 INTEGER ()) 0 '1'))) 0 0 () (
CONSTANT (CHARACTER 1 0 1 1 UNKNOWN (())) 0 1 '\U0000000d') () 0 () () ()
2 39)
20 'c_char' '__iso_c_binding' '' 1 ((PARAMETER UNKNOWN-INTENT
UNKNOWN-PROC UNKNOWN UNKNOWN 0 0 IS_C_INTEROP IS_ISO_C) (INTEGER 4 0 1 1
CHARACTER ()) 0 0 () (CONSTANT (INTEGER 4 0 1 1 UNKNOWN ()) 0 '1') () 0
() () () 2 33)
21 'c_double' '__iso_c_binding' '' 1 ((PARAMETER UNKNOWN-INTENT
UNKNOWN-PROC UNKNOWN UNKNOWN 0 0 IS_C_INTEROP IS_ISO_C) (INTEGER 4 0 1 1
REAL ()) 0 0 () (CONSTANT (INTEGER 4 0 1 1 UNKNOWN ()) 0 '8') () 0 () ()
() 2 25)
22 'c_double_complex' '__iso_c_binding' '' 1 ((PARAMETER UNKNOWN-INTENT
UNKNOWN-PROC UNKNOWN UNKNOWN 0 0 IS_C_INTEROP IS_ISO_C) (INTEGER 4 0 1 1
COMPLEX ()) 0 0 () (CONSTANT (INTEGER 4 0 1 1 UNKNOWN ()) 0 '8') () 0 ()
() () 2 29)
23 'c_f_pointer' '__iso_c_binding' '__iso_c_binding_c_f_pointer' 1 ((
PROCEDURE UNKNOWN-INTENT MODULE-PROC DECL UNKNOWN 0 0 SUBROUTINE
ALWAYS_EXPLICIT IS_ISO_C) (UNKNOWN 0 0 0 0 UNKNOWN ()) 24 0 (25 26 27) ()
0 () () () 2 46)
28 'c_f_procpointer' '__iso_c_binding' '__iso_c_binding_c_f_procpointer'
1 ((PROCEDURE UNKNOWN-INTENT MODULE-PROC DECL UNKNOWN 0 0 SUBROUTINE
IS_ISO_C) (UNKNOWN 0 0 0 0 UNKNOWN ()) 29 0 (30 31) () 0 () () () 2 50)
32 'c_float' '__iso_c_binding' '' 1 ((PARAMETER UNKNOWN-INTENT
UNKNOWN-PROC UNKNOWN UNKNOWN 0 0 IS_C_INTEROP IS_ISO_C) (INTEGER 4 0 1 1
REAL ()) 0 0 () (CONSTANT (INTEGER 4 0 1 1 UNKNOWN ()) 0 '4') () 0 () ()
() 2 24)
33 'c_float128' '__iso_c_binding' '' 1 ((PARAMETER UNKNOWN-INTENT
UNKNOWN-PROC UNKNOWN UNKNOWN 0 0 IS_C_INTEROP IS_ISO_C) (INTEGER 4 0 1 1
REAL ()) 0 0 () (CONSTANT (INTEGER 4 0 1 1 UNKNOWN ()) 0 '16') () 0 () ()
() 2 27)
34 'c_float128_complex' '__iso_c_binding' '' 1 ((PARAMETER
UNKNOWN-INTENT UNKNOWN-PROC UNKNOWN UNKNOWN 0 0 IS_C_INTEROP IS_ISO_C) (
INTEGER 4 0 1 1 COMPLEX ()) 0 0 () (CONSTANT (INTEGER 4 0 1 1 UNKNOWN ())
0 '16') () 0 () () () 2 31)
35 'c_float_complex' '__iso_c_binding' '' 1 ((PARAMETER UNKNOWN-INTENT
UNKNOWN-PROC UNKNOWN UNKNOWN 0 0 IS_C_INTEROP IS_ISO_C) (INTEGER 4 0 1 1
COMPLEX ()) 0 0 () (CONSTANT (INTEGER 4 0 1 1 UNKNOWN ()) 0 '4') () 0 ()
() () 2 28)
36 'c_form_feed' '__iso_c_binding' '' 1 ((PARAMETER UNKNOWN-INTENT
UNKNOWN-PROC UNKNOWN UNKNOWN 0 0 IS_C_INTEROP IS_ISO_C) (CHARACTER 1 0 1
1 CHARACTER ((CONSTANT (INTEGER 4 0 0 0 INTEGER ()) 0 '1'))) 0 0 () (
CONSTANT (CHARACTER 1 0 1 1 UNKNOWN (())) 0 1 '\U0000000c') () 0 () () ()
2 37)
37 'c_funloc' '__iso_c_binding' '__iso_c_binding_c_funloc' 1 ((
PROCEDURE UNKNOWN-INTENT UNKNOWN-PROC UNKNOWN UNKNOWN 0 0 EXTERNAL
FUNCTION PURE IS_ISO_C) (DERIVED 2 0 0 0 DERIVED ()) 0 0 () () 37 () ()
() 2 49)
38 'c_funptr' '__iso_c_binding' '' 1 ((PROCEDURE UNKNOWN-INTENT
UNKNOWN-PROC UNKNOWN UNKNOWN 0 0 FUNCTION GENERIC) (REAL 4 0 0 0 REAL ())
0 0 () () 0 () () () 2 44)
39 'c_horizontal_tab' '__iso_c_binding' '' 1 ((PARAMETER UNKNOWN-INTENT
UNKNOWN-PROC UNKNOWN UNKNOWN 0 0 IS_C_INTEROP IS_ISO_C) (CHARACTER 1 0 1
1 CHARACTER ((CONSTANT (INTEGER 4 0 0 0 INTEGER ()) 0 '1'))) 0 0 () (
CONSTANT (CHARACTER 1 0 1 1 UNKNOWN (())) 0 1 '\U00000009') () 0 () () ()
2 40)
40 'c_int' '__iso_c_binding' '' 1 ((PARAMETER UNKNOWN-INTENT
UNKNOWN-PROC UNKNOWN UNKNOWN 0 0 IS_C_INTEROP IS_ISO_C) (INTEGER 4 0 1 1
INTEGER ()) 0 0 () (CONSTANT (INTEGER 4 0 1 1 UNKNOWN ()) 0 '4') () 0 ()
() () 2 0)
41 'c_int128_t' '__iso_c_binding' '' 1 ((PARAMETER UNKNOWN-INTENT
UNKNOWN-PROC UNKNOWN UNKNOWN 0 0 IS_C_INTEROP IS_ISO_C) (INTEGER 4 0 1 1
INTEGER ()) 0 0 () (CONSTANT (INTEGER 4 0 1 1 UNKNOWN ()) 0 '16') () 0 ()
() () 2 13)
42 'c_int16_t' '__iso_c_binding' '' 1 ((PARAMETER UNKNOWN-INTENT
UNKNOWN-PROC UNKNOWN UNKNOWN 0 0 IS_C_INTEROP IS_ISO_C) (INTEGER 4 0 1 1
INTEGER ()) 0 0 () (CONSTANT (INTEGER 4 0 1 1 UNKNOWN ()) 0 '2') () 0 ()
() () 2 10)
43 'c_int32_t' '__iso_c_binding' '' 1 ((PARAMETER UNKNOWN-INTENT
UNKNOWN-PROC UNKNOWN UNKNOWN 0 0 IS_C_INTEROP IS_ISO_C) (INTEGER 4 0 1 1
INTEGER ()) 0 0 () (CONSTANT (INTEGER 4 0 1 1 UNKNOWN ()) 0 '4') () 0 ()
() () 2 11)
44 'c_int64_t' '__iso_c_binding' '' 1 ((PARAMETER UNKNOWN-INTENT
UNKNOWN-PROC UNKNOWN UNKNOWN 0 0 IS_C_INTEROP IS_ISO_C) (INTEGER 4 0 1 1
INTEGER ()) 0 0 () (CONSTANT (INTEGER 4 0 1 1 UNKNOWN ()) 0 '8') () 0 ()
() () 2 12)
45 'c_int8_t' '__iso_c_binding' '' 1 ((PARAMETER UNKNOWN-INTENT
UNKNOWN-PROC UNKNOWN UNKNOWN 0 0 IS_C_INTEROP IS_ISO_C) (INTEGER 4 0 1 1
INTEGER ()) 0 0 () (CONSTANT (INTEGER 4 0 1 1 UNKNOWN ()) 0 '1') () 0 ()
() () 2 9)
46 'c_int_fast128_t' '__iso_c_binding' '' 1 ((PARAMETER UNKNOWN-INTENT
UNKNOWN-PROC UNKNOWN UNKNOWN 0 0 IS_C_INTEROP IS_ISO_C) (INTEGER 4 0 1 1
INTEGER ()) 0 0 () (CONSTANT (INTEGER 4 0 1 1 UNKNOWN ()) 0 '16') () 0 ()
() () 2 23)
47 'c_int_fast16_t' '__iso_c_binding' '' 1 ((PARAMETER UNKNOWN-INTENT
UNKNOWN-PROC UNKNOWN UNKNOWN 0 0 IS_C_INTEROP IS_ISO_C) (INTEGER 4 0 1 1
INTEGER ()) 0 0 () (CONSTANT (INTEGER 4 0 1 1 UNKNOWN ()) 0 '8') () 0 ()
() () 2 20)
48 'c_int_fast32_t' '__iso_c_binding' '' 1 ((PARAMETER UNKNOWN-INTENT
UNKNOWN-PROC UNKNOWN UNKNOWN 0 0 IS_C_INTEROP IS_ISO_C) (INTEGER 4 0 1 1
INTEGER ()) 0 0 () (CONSTANT (INTEGER 4 0 1 1 UNKNOWN ()) 0 '8') () 0 ()
() () 2 21)
49 'c_int_fast64_t' '__iso_c_binding' '' 1 ((PARAMETER UNKNOWN-INTENT
UNKNOWN-PROC UNKNOWN UNKNOWN 0 0 IS_C_INTEROP IS_ISO_C) (INTEGER 4 0 1 1
INTEGER ()) 0 0 () (CONSTANT (INTEGER 4 0 1 1 UNKNOWN ()) 0 '8') () 0 ()
() () 2 22)
50 'c_int_fast8_t' '__iso_c_binding' '' 1 ((PARAMETER UNKNOWN-INTENT
UNKNOWN-PROC UNKNOWN UNKNOWN 0 0 IS_C_INTEROP IS_ISO_C) (INTEGER 4 0 1 1
INTEGER ()) 0 0 () (CONSTANT (INTEGER 4 0 1 1 UNKNOWN ()) 0 '1') () 0 ()
() () 2 19)
51 'c_int_least128_t' '__iso_c_binding' '' 1 ((PARAMETER UNKNOWN-INTENT
UNKNOWN-PROC UNKNOWN UNKNOWN 0 0 IS_C_INTEROP IS_ISO_C) (INTEGER 4 0 1 1
INTEGER ()) 0 0 () (CONSTANT (INTEGER 4 0 1 1 UNKNOWN ()) 0 '16') () 0 ()
() () 2 18)
52 'c_int_least16_t' '__iso_c_binding' '' 1 ((PARAMETER UNKNOWN-INTENT
UNKNOWN-PROC UNKNOWN UNKNOWN 0 0 IS_C_INTEROP IS_ISO_C) (INTEGER 4 0 1 1
INTEGER ()) 0 0 () (CONSTANT (INTEGER 4 0 1 1 UNKNOWN ()) 0 '2') () 0 ()
() () 2 15)
53 'c_int_least32_t' '__iso_c_binding' '' 1 ((PARAMETER UNKNOWN-INTENT
UNKNOWN-PROC UNKNOWN UNKNOWN 0 0 IS_C_INTEROP IS_ISO_C) (INTEGER 4 0 1 1
INTEGER ()) 0 0 () (CONSTANT (INTEGER 4 0 1 1 UNKNOWN ()) 0 '4') () 0 ()
() () 2 16)
54 'c_int_least64_t' '__iso_c_binding' '' 1 ((PARAMETER UNKNOWN-INTENT
UNKNOWN-PROC UNKNOWN UNKNOWN 0 0 IS_C_INTEROP IS_ISO_C) (INTEGER 4 0 1 1
INTEGER ()) 0 0 () (CONSTANT (INTEGER 4 0 1 1 UNKNOWN ()) 0 '8') () 0 ()
() () 2 17)
55 'c_int_least8_t' '__iso_c_binding' '' 1 ((PARAMETER UNKNOWN-INTENT
UNKNOWN-PROC UNKNOWN UNKNOWN 0 0 IS_C_INTEROP IS_ISO_C) (INTEGER 4 0 1 1
INTEGER ()) 0 0 () (CONSTANT (INTEGER 4 0 1 1 UNKNOWN ()) 0 '1') () 0 ()
() () 2 14)
56 'c_intmax_t' '__iso_c_binding' '' 1 ((PARAMETER UNKNOWN-INTENT
UNKNOWN-PROC UNKNOWN UNKNOWN 0 0 IS_C_INTEROP IS_ISO_C) (INTEGER 4 0 1 1
INTEGER ()) 0 0 () (CONSTANT (INTEGER 4 0 1 1 UNKNOWN ()) 0 '8') () 0 ()
() () 2 4)
57 'c_intptr_t' '__iso_c_binding' '' 1 ((PARAMETER UNKNOWN-INTENT
UNKNOWN-PROC UNKNOWN UNKNOWN 0 0 IS_C_INTEROP IS_ISO_C) (INTEGER 4 0 1 1
INTEGER ()) 0 0 () (CONSTANT (INTEGER 4 0 1 1 UNKNOWN ()) 0 '8') () 0 ()
() () 2 5)
58 'c_loc' '__iso_c_binding' '__iso_c_binding_c_loc' 1 ((PROCEDURE
UNKNOWN-INTENT UNKNOWN-PROC UNKNOWN UNKNOWN 0 0 EXTERNAL FUNCTION PURE
IS_ISO_C) (DERIVED 3 0 0 0 DERIVED ()) 0 0 () () 58 () () () 2 48)
59 'c_long' '__iso_c_binding' '' 1 ((PARAMETER UNKNOWN-INTENT
UNKNOWN-PROC UNKNOWN UNKNOWN 0 0 IS_C_INTEROP IS_ISO_C) (INTEGER 4 0 1 1
INTEGER ()) 0 0 () (CONSTANT (INTEGER 4 0 1 1 UNKNOWN ()) 0 '8') () 0 ()
() () 2 2)
60 'c_long_double' '__iso_c_binding' '' 1 ((PARAMETER UNKNOWN-INTENT
UNKNOWN-PROC UNKNOWN UNKNOWN 0 0 IS_C_INTEROP IS_ISO_C) (INTEGER 4 0 1 1
REAL ()) 0 0 () (CONSTANT (INTEGER 4 0 1 1 UNKNOWN ()) 0 '10') () 0 () ()
() 2 26)
61 'c_long_double_complex' '__iso_c_binding' '' 1 ((PARAMETER
UNKNOWN-INTENT UNKNOWN-PROC UNKNOWN UNKNOWN 0 0 IS_C_INTEROP IS_ISO_C) (
INTEGER 4 0 1 1 COMPLEX ()) 0 0 () (CONSTANT (INTEGER 4 0 1 1 UNKNOWN ())
0 '10') () 0 () () () 2 30)
62 'c_long_long' '__iso_c_binding' '' 1 ((PARAMETER UNKNOWN-INTENT
UNKNOWN-PROC UNKNOWN UNKNOWN 0 0 IS_C_INTEROP IS_ISO_C) (INTEGER 4 0 1 1
INTEGER ()) 0 0 () (CONSTANT (INTEGER 4 0 1 1 UNKNOWN ()) 0 '8') () 0 ()
() () 2 3)
63 'c_new_line' '__iso_c_binding' '' 1 ((PARAMETER UNKNOWN-INTENT
UNKNOWN-PROC UNKNOWN UNKNOWN 0 0 IS_C_INTEROP IS_ISO_C) (CHARACTER 1 0 1
1 CHARACTER ((CONSTANT (INTEGER 4 0 0 0 INTEGER ()) 0 '1'))) 0 0 () (
CONSTANT (CHARACTER 1 0 1 1 UNKNOWN (())) 0 1 '\U0000000a') () 0 () () ()
2 38)
64 'c_null_char' '__iso_c_binding' '' 1 ((PARAMETER UNKNOWN-INTENT
UNKNOWN-PROC UNKNOWN UNKNOWN 0 0 IS_C_INTEROP IS_ISO_C) (CHARACTER 1 0 1
1 CHARACTER ((CONSTANT (INTEGER 4 0 0 0 INTEGER ()) 0 '1'))) 0 0 () (
CONSTANT (CHARACTER 1 0 1 1 UNKNOWN (())) 0 1 '\U00000000') () 0 () () ()
2 34)
65 'c_null_funptr' '__iso_c_binding' '' 1 ((PARAMETER UNKNOWN-INTENT
UNKNOWN-PROC UNKNOWN UNKNOWN 0 0 IS_BIND_C IS_C_INTEROP IS_ISO_C) (
DERIVED 2 0 1 1 UNKNOWN ()) 0 0 () (STRUCTURE (DERIVED 2 0 0 0 DERIVED ())
0 (((NULL (UNKNOWN 0 0 0 1 UNKNOWN ()) 0) ())) ()) () 0 () () () 2 45)
66 'c_null_ptr' '__iso_c_binding' '' 1 ((PARAMETER UNKNOWN-INTENT
UNKNOWN-PROC UNKNOWN UNKNOWN 0 0 IS_BIND_C IS_C_INTEROP IS_ISO_C) (
DERIVED 3 0 1 1 UNKNOWN ()) 0 0 () (STRUCTURE (DERIVED 3 0 0 0 DERIVED ())
0 (((NULL (UNKNOWN 0 0 0 1 UNKNOWN ()) 0) ())) ()) () 0 () () () 2 43)
67 'c_ptr' '__iso_c_binding' '' 1 ((PROCEDURE UNKNOWN-INTENT
UNKNOWN-PROC UNKNOWN UNKNOWN 0 0 FUNCTION GENERIC) (REAL 4 0 0 0 REAL ())
0 0 () () 0 () () () 2 42)
68 'c_ptrdiff_t' '__iso_c_binding' '' 1 ((PARAMETER UNKNOWN-INTENT
UNKNOWN-PROC UNKNOWN UNKNOWN 0 0 IS_C_INTEROP IS_ISO_C) (INTEGER 4 0 1 1
INTEGER ()) 0 0 () (CONSTANT (INTEGER 4 0 1 1 UNKNOWN ()) 0 '8') () 0 ()
() () 2 6)
69 'c_short' '__iso_c_binding' '' 1 ((PARAMETER UNKNOWN-INTENT
UNKNOWN-PROC UNKNOWN UNKNOWN 0 0 IS_C_INTEROP IS_ISO_C) (INTEGER 4 0 1 1
INTEGER ()) 0 0 () (CONSTANT (INTEGER 4 0 1 1 UNKNOWN ()) 0 '2') () 0 ()
() () 2 1)
70 'c_signed_char' '__iso_c_binding' '' 1 ((PARAMETER UNKNOWN-INTENT
UNKNOWN-PROC UNKNOWN UNKNOWN 0 0 IS_C_INTEROP IS_ISO_C) (INTEGER 4 0 1 1
INTEGER ()) 0 0 () (CONSTANT (INTEGER 4 0 1 1 UNKNOWN ()) 0 '1') () 0 ()
() () 2 8)
71 'c_size_t' '__iso_c_binding' '' 1 ((PARAMETER UNKNOWN-INTENT
UNKNOWN-PROC UNKNOWN UNKNOWN 0 0 IS_C_INTEROP IS_ISO_C) (INTEGER 4 0 1 1
INTEGER ()) 0 0 () (CONSTANT (INTEGER 4 0 1 1 UNKNOWN ()) 0 '8') () 0 ()
() () 2 7)
72 'c_sizeof' '__iso_c_binding' '' 1 ((PROCEDURE UNKNOWN-INTENT
UNKNOWN-PROC DECL UNKNOWN 0 0 INTRINSIC FUNCTION) (INTEGER 8 0 0 0
INTEGER ()) 73 0 (74) () 0 () () () 2 48)
75 'c_vertical_tab' '__iso_c_binding' '' 1 ((PARAMETER UNKNOWN-INTENT
UNKNOWN-PROC UNKNOWN UNKNOWN 0 0 IS_C_INTEROP IS_ISO_C) (CHARACTER 1 0 1
1 CHARACTER ((CONSTANT (INTEGER 4 0 0 0 INTEGER ()) 0 '1'))) 0 0 () (
CONSTANT (CHARACTER 1 0 1 1 UNKNOWN (())) 0 1 '\U0000000b') () 0 () () ()
2 41)
76 'enum_dtype' 'h5global' '' 1 ((PARAMETER UNKNOWN-INTENT UNKNOWN-PROC
UNKNOWN IMPLICIT-SAVE 0 0) (INTEGER 4 0 0 0 INTEGER ()) 0 0 () (
CONSTANT (INTEGER 4 0 0 0 INTEGER ()) 0 '0') () 0 () () () 0 0)
77 'enum_t' 'h5global' '' 1 ((PARAMETER UNKNOWN-INTENT UNKNOWN-PROC
UNKNOWN IMPLICIT-SAVE 0 0) (INTEGER 4 0 0 0 INTEGER ()) 0 0 () (
CONSTANT (INTEGER 4 0 0 0 INTEGER ()) 0 '4') () 0 () () () 0 0)
78 'floating_types' 'h5global' '' 1 ((VARIABLE UNKNOWN-INTENT
UNKNOWN-PROC UNKNOWN IMPLICIT-SAVE 0 0 DIMENSION) (INTEGER 8 0 0 0
INTEGER ()) 0 0 () (1 0 EXPLICIT (CONSTANT (INTEGER 4 0 0 0 INTEGER ())
0 '1') (CONSTANT (INTEGER 4 0 0 0 INTEGER ()) 0 '4')) 0 () () () 0 0)
79 'floating_types_len' 'h5global' '' 1 ((PARAMETER UNKNOWN-INTENT
UNKNOWN-PROC UNKNOWN IMPLICIT-SAVE 0 0) (INTEGER 4 0 0 0 INTEGER ()) 0 0
() (CONSTANT (INTEGER 4 0 0 0 INTEGER ()) 0 '4') () 0 () () () 0 0)
80 'fortran_double' 'h5fortran_types' '' 1 ((PARAMETER UNKNOWN-INTENT
UNKNOWN-PROC UNKNOWN IMPLICIT-SAVE 0 0 IS_C_INTEROP IS_ISO_C) (INTEGER 4
0 1 1 REAL ()) 0 0 () (CONSTANT (INTEGER 4 0 1 1 REAL ()) 0 '8') () 0 ()
() () 0 0)
81 'fortran_integer' 'h5fortran_types' '' 1 ((PARAMETER UNKNOWN-INTENT
UNKNOWN-PROC UNKNOWN IMPLICIT-SAVE 0 0) (INTEGER 4 0 0 0 INTEGER ()) 0 0
() (CONSTANT (INTEGER 4 0 0 0 INTEGER ()) 0 '4') () 0 () () () 0 0)
82 'fortran_integer_avail_kinds' 'h5fortran_types' '' 1 ((PARAMETER
UNKNOWN-INTENT UNKNOWN-PROC UNKNOWN IMPLICIT-SAVE 0 0 DIMENSION) (
INTEGER 4 0 0 0 INTEGER ()) 0 0 () (ARRAY (INTEGER 4 0 0 0 INTEGER ()) 1
(((CONSTANT (INTEGER 4 0 0 0 INTEGER ()) 0 '1') ()) ((CONSTANT (INTEGER
4 0 0 0 INTEGER ()) 0 '2') ()) ((CONSTANT (INTEGER 4 0 0 0 INTEGER ()) 0
'4') ()) ((CONSTANT (INTEGER 4 0 0 0 INTEGER ()) 0 '8') ()) ((CONSTANT (
INTEGER 4 0 0 0 INTEGER ()) 0 '16') ())) ('5')) (1 0 EXPLICIT (CONSTANT
(INTEGER 4 0 0 0 INTEGER ()) 0 '1') (CONSTANT (INTEGER 4 0 0 0 INTEGER ())
0 '5')) 0 () () () 0 0)
83 'fortran_real' 'h5fortran_types' '' 1 ((PARAMETER UNKNOWN-INTENT
UNKNOWN-PROC UNKNOWN IMPLICIT-SAVE 0 0 IS_C_INTEROP IS_ISO_C) (INTEGER 4
0 1 1 REAL ()) 0 0 () (CONSTANT (INTEGER 4 0 1 1 REAL ()) 0 '4') () 0 ()
() () 0 0)
84 'fortran_real_c_double' 'h5fortran_types' '' 1 ((PARAMETER
UNKNOWN-INTENT UNKNOWN-PROC UNKNOWN IMPLICIT-SAVE 0 0) (INTEGER 4 0 0 0
INTEGER ()) 0 0 () (CONSTANT (INTEGER 4 0 0 0 INTEGER ()) 0 '8') () 0 ()
() () 0 0)
85 'fortran_real_c_float' 'h5fortran_types' '' 1 ((PARAMETER
UNKNOWN-INTENT UNKNOWN-PROC UNKNOWN IMPLICIT-SAVE 0 0) (INTEGER 4 0 0 0
INTEGER ()) 0 0 () (CONSTANT (INTEGER 4 0 0 0 INTEGER ()) 0 '4') () 0 ()
() () 0 0)
86 'fortran_real_c_float128' 'h5fortran_types' '' 1 ((PARAMETER
UNKNOWN-INTENT UNKNOWN-PROC UNKNOWN IMPLICIT-SAVE 0 0) (INTEGER 4 0 0 0
INTEGER ()) 0 0 () (CONSTANT (INTEGER 4 0 0 0 INTEGER ()) 0 '16') () 0 ()
() () 0 0)
87 'fortran_real_c_long_double' 'h5fortran_types' '' 1 ((PARAMETER
UNKNOWN-INTENT UNKNOWN-PROC UNKNOWN IMPLICIT-SAVE 0 0) (INTEGER 4 0 0 0
INTEGER ()) 0 0 () (CONSTANT (INTEGER 4 0 0 0 INTEGER ()) 0 '10') () 0 ()
() () 0 0)
88 'h5_fortran_num_integer_kinds' 'h5fortran_types' '' 1 ((PARAMETER
UNKNOWN-INTENT UNKNOWN-PROC UNKNOWN IMPLICIT-SAVE 0 0) (INTEGER 4 0 0 0
INTEGER ()) 0 0 () (CONSTANT (INTEGER 4 0 0 0 INTEGER ()) 0 '5') () 0 ()
() () 0 0)
89 'h5_fortran_string_c2f' 'h5global' '' 1 ((PROCEDURE UNKNOWN-INTENT
MODULE-PROC DECL UNKNOWN 0 0 SUBROUTINE IMPLICIT_PURE) (UNKNOWN 0 0 0 0
UNKNOWN ()) 90 0 (91 92) () 0 () () () 0 0)
93 'h5_fortran_string_f2c' 'h5global' '' 1 ((PROCEDURE UNKNOWN-INTENT
MODULE-PROC DECL UNKNOWN 0 0 SUBROUTINE IMPLICIT_PURE) (UNKNOWN 0 0 0 0
UNKNOWN ()) 94 0 (95 96) () 0 () () () 0 0)
97 'h5_index_crt_order_f' 'h5global' '' 1 ((VARIABLE UNKNOWN-INTENT
UNKNOWN-PROC UNKNOWN IMPLICIT-SAVE 0 0) (INTEGER 4 0 0 0 INTEGER ()) 0 0
() () 0 () () () 0 0)
98 'h5_index_n_f' 'h5global' '' 1 ((VARIABLE UNKNOWN-INTENT UNKNOWN-PROC
UNKNOWN IMPLICIT-SAVE 0 0) (INTEGER 4 0 0 0 INTEGER ()) 0 0 () () 0 () ()
() 0 0)
99 'h5_index_name_f' 'h5global' '' 1 ((VARIABLE UNKNOWN-INTENT
UNKNOWN-PROC UNKNOWN IMPLICIT-SAVE 0 0) (INTEGER 4 0 0 0 INTEGER ()) 0 0
() () 0 () () () 0 0)
100 'h5_index_unknown_f' 'h5global' '' 1 ((VARIABLE UNKNOWN-INTENT
UNKNOWN-PROC UNKNOWN IMPLICIT-SAVE 0 0) (INTEGER 4 0 0 0 INTEGER ()) 0 0
() () 0 () () () 0 0)
101 'h5_integer_kind' 'h5global' '' 1 ((PARAMETER UNKNOWN-INTENT
UNKNOWN-PROC UNKNOWN IMPLICIT-SAVE 0 0) (INTEGER 4 0 0 0 INTEGER ()) 0 0
() (CONSTANT (INTEGER 4 0 0 0 INTEGER ()) 0 '0') () 0 () () () 0 0)
102 'h5_iter_dec_f' 'h5global' '' 1 ((VARIABLE UNKNOWN-INTENT
UNKNOWN-PROC UNKNOWN IMPLICIT-SAVE 0 0) (INTEGER 4 0 0 0 INTEGER ()) 0 0
() () 0 () () () 0 0)
103 'h5_iter_inc_f' 'h5global' '' 1 ((VARIABLE UNKNOWN-INTENT
UNKNOWN-PROC UNKNOWN IMPLICIT-SAVE 0 0) (INTEGER 4 0 0 0 INTEGER ()) 0 0
() () 0 () () () 0 0)
104 'h5_iter_n_f' 'h5global' '' 1 ((VARIABLE UNKNOWN-INTENT UNKNOWN-PROC
UNKNOWN IMPLICIT-SAVE 0 0) (INTEGER 4 0 0 0 INTEGER ()) 0 0 () () 0 () ()
() 0 0)
105 'h5_iter_native_f' 'h5global' '' 1 ((VARIABLE UNKNOWN-INTENT
UNKNOWN-PROC UNKNOWN IMPLICIT-SAVE 0 0) (INTEGER 4 0 0 0 INTEGER ()) 0 0
() () 0 () () () 0 0)
106 'h5_iter_unknown_f' 'h5global' '' 1 ((VARIABLE UNKNOWN-INTENT
UNKNOWN-PROC UNKNOWN IMPLICIT-SAVE 0 0) (INTEGER 4 0 0 0 INTEGER ()) 0 0
() () 0 () () () 0 0)
107 'h5_real_kind' 'h5global' '' 1 ((PARAMETER UNKNOWN-INTENT
UNKNOWN-PROC UNKNOWN IMPLICIT-SAVE 0 0) (INTEGER 4 0 0 0 INTEGER ()) 0 0
() (CONSTANT (INTEGER 4 0 0 0 INTEGER ()) 0 '1') () 0 () () () 0 0)
108 'h5_szip_ec_om_f' 'h5global' '' 1 ((VARIABLE UNKNOWN-INTENT
UNKNOWN-PROC UNKNOWN IMPLICIT-SAVE 0 0) (INTEGER 4 0 0 0 INTEGER ()) 0 0
() () 0 () () () 0 0)
109 'h5_szip_nn_om_f' 'h5global' '' 1 ((VARIABLE UNKNOWN-INTENT
UNKNOWN-PROC UNKNOWN IMPLICIT-SAVE 0 0) (INTEGER 4 0 0 0 INTEGER ()) 0 0
() () 0 () () () 0 0)
110 'h5d_alloc_time_default_f' 'h5global' '' 1 ((VARIABLE UNKNOWN-INTENT
UNKNOWN-PROC UNKNOWN IMPLICIT-SAVE 0 0) (INTEGER 4 0 0 0 INTEGER ()) 0 0
() () 0 () () () 0 0)
111 'h5d_alloc_time_early_f' 'h5global' '' 1 ((VARIABLE UNKNOWN-INTENT
UNKNOWN-PROC UNKNOWN IMPLICIT-SAVE 0 0) (INTEGER 4 0 0 0 INTEGER ()) 0 0
() () 0 () () () 0 0)
112 'h5d_alloc_time_error_f' 'h5global' '' 1 ((VARIABLE UNKNOWN-INTENT
UNKNOWN-PROC UNKNOWN IMPLICIT-SAVE 0 0) (INTEGER 4 0 0 0 INTEGER ()) 0 0
() () 0 () () () 0 0)
113 'h5d_alloc_time_incr_f' 'h5global' '' 1 ((VARIABLE UNKNOWN-INTENT
UNKNOWN-PROC UNKNOWN IMPLICIT-SAVE 0 0) (INTEGER 4 0 0 0 INTEGER ()) 0 0
() () 0 () () () 0 0)
114 'h5d_alloc_time_late_f' 'h5global' '' 1 ((VARIABLE UNKNOWN-INTENT
UNKNOWN-PROC UNKNOWN IMPLICIT-SAVE 0 0) (INTEGER 4 0 0 0 INTEGER ()) 0 0
() () 0 () () () 0 0)
115 'h5d_chunk_cache_nbytes_dflt_f' 'h5global' '' 1 ((VARIABLE
UNKNOWN-INTENT UNKNOWN-PROC UNKNOWN IMPLICIT-SAVE 0 0) (INTEGER 8 0 0 0
INTEGER ()) 0 0 () () 0 () () () 0 0)
116 'h5d_chunk_cache_nslots_dflt_f' 'h5global' '' 1 ((VARIABLE
UNKNOWN-INTENT UNKNOWN-PROC UNKNOWN IMPLICIT-SAVE 0 0) (INTEGER 8 0 0 0
INTEGER ()) 0 0 () () 0 () () () 0 0)
117 'h5d_chunk_cache_w0_dflt_f' 'h5global' '' 1 ((VARIABLE
UNKNOWN-INTENT UNKNOWN-PROC UNKNOWN IMPLICIT-SAVE 0 0) (INTEGER 4 0 0 0
INTEGER ()) 0 0 () () 0 () () () 0 0)
118 'h5d_chunked_f' 'h5global' '' 1 ((VARIABLE UNKNOWN-INTENT
UNKNOWN-PROC UNKNOWN IMPLICIT-SAVE 0 0) (INTEGER 4 0 0 0 INTEGER ()) 0 0
() () 0 () () () 0 0)
119 'h5d_compact_f' 'h5global' '' 1 ((VARIABLE UNKNOWN-INTENT
UNKNOWN-PROC UNKNOWN IMPLICIT-SAVE 0 0) (INTEGER 4 0 0 0 INTEGER ()) 0 0
() () 0 () () () 0 0)
120 'h5d_contiguous_f' 'h5global' '' 1 ((VARIABLE UNKNOWN-INTENT
UNKNOWN-PROC UNKNOWN IMPLICIT-SAVE 0 0) (INTEGER 4 0 0 0 INTEGER ()) 0 0
() () 0 () () () 0 0)
121 'h5d_fill_time_alloc_f' 'h5global' '' 1 ((VARIABLE UNKNOWN-INTENT
UNKNOWN-PROC UNKNOWN IMPLICIT-SAVE 0 0) (INTEGER 4 0 0 0 INTEGER ()) 0 0
() () 0 () () () 0 0)
122 'h5d_fill_time_error_f' 'h5global' '' 1 ((VARIABLE UNKNOWN-INTENT
UNKNOWN-PROC UNKNOWN IMPLICIT-SAVE 0 0) (INTEGER 4 0 0 0 INTEGER ()) 0 0
() () 0 () () () 0 0)
123 'h5d_fill_time_never_f' 'h5global' '' 1 ((VARIABLE UNKNOWN-INTENT
UNKNOWN-PROC UNKNOWN IMPLICIT-SAVE 0 0) (INTEGER 4 0 0 0 INTEGER ()) 0 0
() () 0 () () () 0 0)
124 'h5d_fill_value_default_f' 'h5global' '' 1 ((VARIABLE UNKNOWN-INTENT
UNKNOWN-PROC UNKNOWN IMPLICIT-SAVE 0 0) (INTEGER 4 0 0 0 INTEGER ()) 0 0
() () 0 () () () 0 0)
125 'h5d_fill_value_error_f' 'h5global' '' 1 ((VARIABLE UNKNOWN-INTENT
UNKNOWN-PROC UNKNOWN IMPLICIT-SAVE 0 0) (INTEGER 4 0 0 0 INTEGER ()) 0 0
() () 0 () () () 0 0)
126 'h5d_fill_value_undefined_f' 'h5global' '' 1 ((VARIABLE
UNKNOWN-INTENT UNKNOWN-PROC UNKNOWN IMPLICIT-SAVE 0 0) (INTEGER 4 0 0 0
INTEGER ()) 0 0 () () 0 () () () 0 0)
127 'h5d_fill_value_user_defined_f' 'h5global' '' 1 ((VARIABLE
UNKNOWN-INTENT UNKNOWN-PROC UNKNOWN IMPLICIT-SAVE 0 0) (INTEGER 4 0 0 0
INTEGER ()) 0 0 () () 0 () () () 0 0)
128 'h5d_mpio_chunk_collective_f' 'h5global' '' 1 ((VARIABLE
UNKNOWN-INTENT UNKNOWN-PROC UNKNOWN IMPLICIT-SAVE 0 0) (INTEGER 4 0 0 0
INTEGER ()) 0 0 () () 0 () () () 0 0)
129 'h5d_mpio_chunk_independent_f' 'h5global' '' 1 ((VARIABLE
UNKNOWN-INTENT UNKNOWN-PROC UNKNOWN IMPLICIT-SAVE 0 0) (INTEGER 4 0 0 0
INTEGER ()) 0 0 () () 0 () () () 0 0)
130 'h5d_mpio_chunk_mixed_f' 'h5global' '' 1 ((VARIABLE UNKNOWN-INTENT
UNKNOWN-PROC UNKNOWN IMPLICIT-SAVE 0 0) (INTEGER 4 0 0 0 INTEGER ()) 0 0
() () 0 () () () 0 0)
131 'h5d_mpio_contig_collective_f' 'h5global' '' 1 ((VARIABLE
UNKNOWN-INTENT UNKNOWN-PROC UNKNOWN IMPLICIT-SAVE 0 0) (INTEGER 4 0 0 0
INTEGER ()) 0 0 () () 0 () () () 0 0)
132 'h5d_mpio_no_collective_f' 'h5global' '' 1 ((VARIABLE UNKNOWN-INTENT
UNKNOWN-PROC UNKNOWN IMPLICIT-SAVE 0 0) (INTEGER 4 0 0 0 INTEGER ()) 0 0
() () 0 () () () 0 0)
133 'h5d_space_sts_allocated_f' 'h5global' '' 1 ((VARIABLE
UNKNOWN-INTENT UNKNOWN-PROC UNKNOWN IMPLICIT-SAVE 0 0) (INTEGER 4 0 0 0
INTEGER ()) 0 0 () () 0 () () () 0 0)
134 'h5d_space_sts_error_f' 'h5global' '' 1 ((VARIABLE UNKNOWN-INTENT
UNKNOWN-PROC UNKNOWN IMPLICIT-SAVE 0 0) (INTEGER 4 0 0 0 INTEGER ()) 0 0
() () 0 () () () 0 0)
135 'h5d_space_sts_not_allocated_f' 'h5global' '' 1 ((VARIABLE
UNKNOWN-INTENT UNKNOWN-PROC UNKNOWN IMPLICIT-SAVE 0 0) (INTEGER 4 0 0 0
INTEGER ()) 0 0 () () 0 () () () 0 0)
136 'h5d_space_sts_part_allocated_f' 'h5global' '' 1 ((VARIABLE
UNKNOWN-INTENT UNKNOWN-PROC UNKNOWN IMPLICIT-SAVE 0 0) (INTEGER 4 0 0 0
INTEGER ()) 0 0 () () 0 () () () 0 0)
137 'h5d_vds_error_f' 'h5global' '' 1 ((VARIABLE UNKNOWN-INTENT
UNKNOWN-PROC UNKNOWN IMPLICIT-SAVE 0 0) (INTEGER 4 0 0 0 INTEGER ()) 0 0
() () 0 () () () 0 0)
138 'h5d_vds_first_missing_f' 'h5global' '' 1 ((VARIABLE UNKNOWN-INTENT
UNKNOWN-PROC UNKNOWN IMPLICIT-SAVE 0 0) (INTEGER 4 0 0 0 INTEGER ()) 0 0
() () 0 () () () 0 0)
139 'h5d_vds_last_available_f' 'h5global' '' 1 ((VARIABLE UNKNOWN-INTENT
UNKNOWN-PROC UNKNOWN IMPLICIT-SAVE 0 0) (INTEGER 4 0 0 0 INTEGER ()) 0 0
() () 0 () () () 0 0)
140 'h5d_virtual_f' 'h5global' '' 1 ((VARIABLE UNKNOWN-INTENT
UNKNOWN-PROC UNKNOWN IMPLICIT-SAVE 0 0) (INTEGER 4 0 0 0 INTEGER ()) 0 0
() () 0 () () () 0 0)
141 'h5e_default_f' 'h5global' '' 1 ((VARIABLE UNKNOWN-INTENT
UNKNOWN-PROC UNKNOWN IMPLICIT-SAVE 0 0) (INTEGER 8 0 0 0 INTEGER ()) 0 0
() () 0 () () () 0 0)
142 'h5e_major_f' 'h5global' '' 1 ((VARIABLE UNKNOWN-INTENT UNKNOWN-PROC
UNKNOWN IMPLICIT-SAVE 0 0) (INTEGER 4 0 0 0 INTEGER ()) 0 0 () () 0 () ()
() 0 0)
143 'h5e_minor_f' 'h5global' '' 1 ((VARIABLE UNKNOWN-INTENT UNKNOWN-PROC
UNKNOWN IMPLICIT-SAVE 0 0) (INTEGER 4 0 0 0 INTEGER ()) 0 0 () () 0 () ()
() 0 0)
144 'h5e_walk_downward_f' 'h5global' '' 1 ((VARIABLE UNKNOWN-INTENT
UNKNOWN-PROC UNKNOWN IMPLICIT-SAVE 0 0) (INTEGER 4 0 0 0 INTEGER ()) 0 0
() () 0 () () () 0 0)
145 'h5e_walk_upward_f' 'h5global' '' 1 ((VARIABLE UNKNOWN-INTENT
UNKNOWN-PROC UNKNOWN IMPLICIT-SAVE 0 0) (INTEGER 4 0 0 0 INTEGER ()) 0 0
() () 0 () () () 0 0)
146 'h5f_acc_debug_f' 'h5global' '' 1 ((VARIABLE UNKNOWN-INTENT
UNKNOWN-PROC UNKNOWN IMPLICIT-SAVE 0 0) (INTEGER 4 0 0 0 INTEGER ()) 0 0
() () 0 () () () 0 0)
147 'h5f_acc_excl_f' 'h5global' '' 1 ((VARIABLE UNKNOWN-INTENT
UNKNOWN-PROC UNKNOWN IMPLICIT-SAVE 0 0) (INTEGER 4 0 0 0 INTEGER ()) 0 0
() () 0 () () () 0 0)
148 'h5f_acc_rdonly_f' 'h5global' '' 1 ((VARIABLE UNKNOWN-INTENT
UNKNOWN-PROC UNKNOWN IMPLICIT-SAVE 0 0) (INTEGER 4 0 0 0 INTEGER ()) 0 0
() () 0 () () () 0 0)
149 'h5f_acc_rdwr_f' 'h5global' '' 1 ((VARIABLE UNKNOWN-INTENT
UNKNOWN-PROC UNKNOWN IMPLICIT-SAVE 0 0) (INTEGER 4 0 0 0 INTEGER ()) 0 0
() () 0 () () () 0 0)
150 'h5f_acc_trunc_f' 'h5global' '' 1 ((VARIABLE UNKNOWN-INTENT
UNKNOWN-PROC UNKNOWN IMPLICIT-SAVE 0 0) (INTEGER 4 0 0 0 INTEGER ()) 0 0
() () 0 () () () 0 0)
151 'h5f_close_default_f' 'h5global' '' 1 ((VARIABLE UNKNOWN-INTENT
UNKNOWN-PROC UNKNOWN IMPLICIT-SAVE 0 0) (INTEGER 4 0 0 0 INTEGER ()) 0 0
() () 0 () () () 0 0)
152 'h5f_close_semi_f' 'h5global' '' 1 ((VARIABLE UNKNOWN-INTENT
UNKNOWN-PROC UNKNOWN IMPLICIT-SAVE 0 0) (INTEGER 4 0 0 0 INTEGER ()) 0 0
() () 0 () () () 0 0)
153 'h5f_close_strong_f' 'h5global' '' 1 ((VARIABLE UNKNOWN-INTENT
UNKNOWN-PROC UNKNOWN IMPLICIT-SAVE 0 0) (INTEGER 4 0 0 0 INTEGER ()) 0 0
() () 0 () () () 0 0)
154 'h5f_close_weak_f' 'h5global' '' 1 ((VARIABLE UNKNOWN-INTENT
UNKNOWN-PROC UNKNOWN IMPLICIT-SAVE 0 0) (INTEGER 4 0 0 0 INTEGER ()) 0 0
() () 0 () () () 0 0)
155 'h5f_libver_earliest_f' 'h5global' '' 1 ((VARIABLE UNKNOWN-INTENT
UNKNOWN-PROC UNKNOWN IMPLICIT-SAVE 0 0) (INTEGER 4 0 0 0 INTEGER ()) 0 0
() () 0 () () () 0 0)
156 'h5f_libver_latest_f' 'h5global' '' 1 ((VARIABLE UNKNOWN-INTENT
UNKNOWN-PROC UNKNOWN IMPLICIT-SAVE 0 0) (INTEGER 4 0 0 0 INTEGER ()) 0 0
() () 0 () () () 0 0)
157 'h5f_obj_all_f' 'h5global' '' 1 ((VARIABLE UNKNOWN-INTENT
UNKNOWN-PROC UNKNOWN IMPLICIT-SAVE 0 0) (INTEGER 4 0 0 0 INTEGER ()) 0 0
() () 0 () () () 0 0)
158 'h5f_obj_dataset_f' 'h5global' '' 1 ((VARIABLE UNKNOWN-INTENT
UNKNOWN-PROC UNKNOWN IMPLICIT-SAVE 0 0) (INTEGER 4 0 0 0 INTEGER ()) 0 0
() () 0 () () () 0 0)
159 'h5f_obj_datatype_f' 'h5global' '' 1 ((VARIABLE UNKNOWN-INTENT
UNKNOWN-PROC UNKNOWN IMPLICIT-SAVE 0 0) (INTEGER 4 0 0 0 INTEGER ()) 0 0
() () 0 () () () 0 0)
160 'h5f_obj_file_f' 'h5global' '' 1 ((VARIABLE UNKNOWN-INTENT
UNKNOWN-PROC UNKNOWN IMPLICIT-SAVE 0 0) (INTEGER 4 0 0 0 INTEGER ()) 0 0
() () 0 () () () 0 0)
161 'h5f_obj_group_f' 'h5global' '' 1 ((VARIABLE UNKNOWN-INTENT
UNKNOWN-PROC UNKNOWN IMPLICIT-SAVE 0 0) (INTEGER 4 0 0 0 INTEGER ()) 0 0
() () 0 () () () 0 0)
162 'h5f_scope_global_f' 'h5global' '' 1 ((VARIABLE UNKNOWN-INTENT
UNKNOWN-PROC UNKNOWN IMPLICIT-SAVE 0 0) (INTEGER 4 0 0 0 INTEGER ()) 0 0
() () 0 () () () 0 0)
163 'h5f_scope_local_f' 'h5global' '' 1 ((VARIABLE UNKNOWN-INTENT
UNKNOWN-PROC UNKNOWN IMPLICIT-SAVE 0 0) (INTEGER 4 0 0 0 INTEGER ()) 0 0
() () 0 () () () 0 0)
164 'h5f_unlimited_f' 'h5global' '' 1 ((VARIABLE UNKNOWN-INTENT
UNKNOWN-PROC UNKNOWN IMPLICIT-SAVE 0 0) (INTEGER 4 0 0 0 INTEGER ()) 0 0
() () 0 () () () 0 0)
165 'h5fd_core_f' 'h5global' '' 1 ((VARIABLE UNKNOWN-INTENT UNKNOWN-PROC
UNKNOWN IMPLICIT-SAVE 0 0) (INTEGER 8 0 0 0 INTEGER ()) 0 0 () () 0 () ()
() 0 0)
166 'h5fd_family_f' 'h5global' '' 1 ((VARIABLE UNKNOWN-INTENT
UNKNOWN-PROC UNKNOWN IMPLICIT-SAVE 0 0) (INTEGER 8 0 0 0 INTEGER ()) 0 0
() () 0 () () () 0 0)
167 'h5fd_log_f' 'h5global' '' 1 ((VARIABLE UNKNOWN-INTENT UNKNOWN-PROC
UNKNOWN IMPLICIT-SAVE 0 0) (INTEGER 8 0 0 0 INTEGER ()) 0 0 () () 0 () ()
() 0 0)
168 'h5fd_mem_btree_f' 'h5global' '' 1 ((VARIABLE UNKNOWN-INTENT
UNKNOWN-PROC UNKNOWN IMPLICIT-SAVE 0 0) (INTEGER 4 0 0 0 INTEGER ()) 0 0
() () 0 () () () 0 0)
169 'h5fd_mem_default_f' 'h5global' '' 1 ((VARIABLE UNKNOWN-INTENT
UNKNOWN-PROC UNKNOWN IMPLICIT-SAVE 0 0) (INTEGER 4 0 0 0 INTEGER ()) 0 0
() () 0 () () () 0 0)
170 'h5fd_mem_draw_f' 'h5global' '' 1 ((VARIABLE UNKNOWN-INTENT
UNKNOWN-PROC UNKNOWN IMPLICIT-SAVE 0 0) (INTEGER 4 0 0 0 INTEGER ()) 0 0
() () 0 () () () 0 0)
171 'h5fd_mem_gheap_f' 'h5global' '' 1 ((VARIABLE UNKNOWN-INTENT
UNKNOWN-PROC UNKNOWN IMPLICIT-SAVE 0 0) (INTEGER 4 0 0 0 INTEGER ()) 0 0
() () 0 () () () 0 0)
172 'h5fd_mem_lheap_f' 'h5global' '' 1 ((VARIABLE UNKNOWN-INTENT
UNKNOWN-PROC UNKNOWN IMPLICIT-SAVE 0 0) (INTEGER 4 0 0 0 INTEGER ()) 0 0
() () 0 () () () 0 0)
173 'h5fd_mem_nolist_f' 'h5global' '' 1 ((VARIABLE UNKNOWN-INTENT
UNKNOWN-PROC UNKNOWN IMPLICIT-SAVE 0 0) (INTEGER 4 0 0 0 INTEGER ()) 0 0
() () 0 () () () 0 0)
174 'h5fd_mem_ntypes_f' 'h5global' '' 1 ((VARIABLE UNKNOWN-INTENT
UNKNOWN-PROC UNKNOWN IMPLICIT-SAVE 0 0) (INTEGER 4 0 0 0 INTEGER ()) 0 0
() () 0 () () () 0 0)
175 'h5fd_mem_ohdr_f' 'h5global' '' 1 ((VARIABLE UNKNOWN-INTENT
UNKNOWN-PROC UNKNOWN IMPLICIT-SAVE 0 0) (INTEGER 4 0 0 0 INTEGER ()) 0 0
() () 0 () () () 0 0)
176 'h5fd_mem_super_f' 'h5global' '' 1 ((VARIABLE UNKNOWN-INTENT
UNKNOWN-PROC UNKNOWN IMPLICIT-SAVE 0 0) (INTEGER 4 0 0 0 INTEGER ()) 0 0
() () 0 () () () 0 0)
177 'h5fd_mpio_collective_f' 'h5global' '' 1 ((VARIABLE UNKNOWN-INTENT
UNKNOWN-PROC UNKNOWN IMPLICIT-SAVE 0 0) (INTEGER 4 0 0 0 INTEGER ()) 0 0
() () 0 () () () 0 0)
178 'h5fd_mpio_f' 'h5global' '' 1 ((VARIABLE UNKNOWN-INTENT UNKNOWN-PROC
UNKNOWN IMPLICIT-SAVE 0 0) (INTEGER 8 0 0 0 INTEGER ()) 0 0 () () 0 () ()
() 0 0)
179 'h5fd_mpio_independent_f' 'h5global' '' 1 ((VARIABLE UNKNOWN-INTENT
UNKNOWN-PROC UNKNOWN IMPLICIT-SAVE 0 0) (INTEGER 4 0 0 0 INTEGER ()) 0 0
() () 0 () () () 0 0)
180 'h5fd_multi_f' 'h5global' '' 1 ((VARIABLE UNKNOWN-INTENT
UNKNOWN-PROC UNKNOWN IMPLICIT-SAVE 0 0) (INTEGER 8 0 0 0 INTEGER ()) 0 0
() () 0 () () () 0 0)
181 'h5fd_sec2_f' 'h5global' '' 1 ((VARIABLE UNKNOWN-INTENT UNKNOWN-PROC
UNKNOWN IMPLICIT-SAVE 0 0) (INTEGER 8 0 0 0 INTEGER ()) 0 0 () () 0 () ()
() 0 0)
182 'h5fd_stdio_f' 'h5global' '' 1 ((VARIABLE UNKNOWN-INTENT
UNKNOWN-PROC UNKNOWN IMPLICIT-SAVE 0 0) (INTEGER 8 0 0 0 INTEGER ()) 0 0
() () 0 () () () 0 0)
183 'h5fortran_types' 'h5fortran_types' '' 1 ((MODULE UNKNOWN-INTENT
UNKNOWN-PROC UNKNOWN UNKNOWN 0 0) (UNKNOWN 0 0 0 0 UNKNOWN ()) 0 0 () ()
0 () () () 0 0)
184 'h5g' 'h5g' '' 1 ((MODULE UNKNOWN-INTENT UNKNOWN-PROC UNKNOWN
UNKNOWN 0 0) (UNKNOWN 0 0 0 0 UNKNOWN ()) 0 0 () () 0 () () () 0 0)
185 'h5g_dataset_f' 'h5global' '' 1 ((VARIABLE UNKNOWN-INTENT
UNKNOWN-PROC UNKNOWN IMPLICIT-SAVE 0 0) (INTEGER 4 0 0 0 INTEGER ()) 0 0
() () 0 () () () 0 0)
186 'h5g_group_f' 'h5global' '' 1 ((VARIABLE UNKNOWN-INTENT UNKNOWN-PROC
UNKNOWN IMPLICIT-SAVE 0 0) (INTEGER 4 0 0 0 INTEGER ()) 0 0 () () 0 () ()
() 0 0)
187 'h5g_link_error_f' 'h5global' '' 1 ((VARIABLE UNKNOWN-INTENT
UNKNOWN-PROC UNKNOWN IMPLICIT-SAVE 0 0) (INTEGER 4 0 0 0 INTEGER ()) 0 0
() () 0 () () () 0 0)
188 'h5g_link_f' 'h5global' '' 1 ((VARIABLE UNKNOWN-INTENT UNKNOWN-PROC
UNKNOWN IMPLICIT-SAVE 0 0) (INTEGER 4 0 0 0 INTEGER ()) 0 0 () () 0 () ()
() 0 0)
189 'h5g_link_hard_f' 'h5global' '' 1 ((VARIABLE UNKNOWN-INTENT
UNKNOWN-PROC UNKNOWN IMPLICIT-SAVE 0 0) (INTEGER 4 0 0 0 INTEGER ()) 0 0
() () 0 () () () 0 0)
190 'h5g_link_soft_f' 'h5global' '' 1 ((VARIABLE UNKNOWN-INTENT
UNKNOWN-PROC UNKNOWN IMPLICIT-SAVE 0 0) (INTEGER 4 0 0 0 INTEGER ()) 0 0
() () 0 () () () 0 0)
191 'h5g_same_loc_f' 'h5global' '' 1 ((VARIABLE UNKNOWN-INTENT
UNKNOWN-PROC UNKNOWN IMPLICIT-SAVE 0 0) (INTEGER 4 0 0 0 INTEGER ()) 0 0
() () 0 () () () 0 0)
192 'h5g_storage_type_compact_f' 'h5global' '' 1 ((VARIABLE
UNKNOWN-INTENT UNKNOWN-PROC UNKNOWN IMPLICIT-SAVE 0 0) (INTEGER 4 0 0 0
INTEGER ()) 0 0 () () 0 () () () 0 0)
193 'h5g_storage_type_dense_f' 'h5global' '' 1 ((VARIABLE UNKNOWN-INTENT
UNKNOWN-PROC UNKNOWN IMPLICIT-SAVE 0 0) (INTEGER 4 0 0 0 INTEGER ()) 0 0
() () 0 () () () 0 0)
194 'h5g_storage_type_symbol_table_f' 'h5global' '' 1 ((VARIABLE
UNKNOWN-INTENT UNKNOWN-PROC UNKNOWN IMPLICIT-SAVE 0 0) (INTEGER 4 0 0 0
INTEGER ()) 0 0 () () 0 () () () 0 0)
195 'h5g_storage_type_unknown_f' 'h5global' '' 1 ((VARIABLE
UNKNOWN-INTENT UNKNOWN-PROC UNKNOWN IMPLICIT-SAVE 0 0) (INTEGER 4 0 0 0
INTEGER ()) 0 0 () () 0 () () () 0 0)
196 'h5g_type_f' 'h5global' '' 1 ((VARIABLE UNKNOWN-INTENT UNKNOWN-PROC
UNKNOWN IMPLICIT-SAVE 0 0) (INTEGER 4 0 0 0 INTEGER ()) 0 0 () () 0 () ()
() 0 0)
197 'h5g_udlink_f' 'h5global' '' 1 ((VARIABLE UNKNOWN-INTENT
UNKNOWN-PROC UNKNOWN IMPLICIT-SAVE 0 0) (INTEGER 4 0 0 0 INTEGER ()) 0 0
() () 0 () () () 0 0)
198 'h5g_unknown_f' 'h5global' '' 1 ((VARIABLE UNKNOWN-INTENT
UNKNOWN-PROC UNKNOWN IMPLICIT-SAVE 0 0) (INTEGER 4 0 0 0 INTEGER ()) 0 0
() () 0 () () () 0 0)
199 'h5gclose_f' 'h5g' '' 1 ((PROCEDURE UNKNOWN-INTENT MODULE-PROC DECL
UNKNOWN 0 0 SUBROUTINE) (UNKNOWN 0 0 0 0 UNKNOWN ()) 200 0 (201 202) ()
0 () () () 0 0)
203 'h5gcreate_anon_f' 'h5g' '' 1 ((PROCEDURE UNKNOWN-INTENT MODULE-PROC
DECL UNKNOWN 0 0 SUBROUTINE ALWAYS_EXPLICIT) (UNKNOWN 0 0 0 0 UNKNOWN ())
204 0 (205 206 207 208 209) () 0 () () () 0 0)
210 'h5gcreate_f' 'h5g' '' 1 ((PROCEDURE UNKNOWN-INTENT MODULE-PROC DECL
UNKNOWN 0 0 SUBROUTINE ALWAYS_EXPLICIT) (UNKNOWN 0 0 0 0 UNKNOWN ()) 211
0 (212 213 214 215 216 217 218 219) () 0 () () () 0 0)
220 'h5gget_comment_f' 'h5g' '' 1 ((PROCEDURE UNKNOWN-INTENT MODULE-PROC
DECL UNKNOWN 0 0 SUBROUTINE) (UNKNOWN 0 0 0 0 UNKNOWN ()) 221 0 (222 223
224 225 226) () 0 () () () 0 0)
227 'h5gget_create_plist_f' 'h5g' '' 1 ((PROCEDURE UNKNOWN-INTENT
MODULE-PROC DECL UNKNOWN 0 0 SUBROUTINE) (UNKNOWN 0 0 0 0 UNKNOWN ())
228 0 (229 230 231) () 0 () () () 0 0)
232 'h5gget_info_by_idx_f' 'h5g' '' 1 ((PROCEDURE UNKNOWN-INTENT
MODULE-PROC DECL UNKNOWN 0 0 SUBROUTINE ALWAYS_EXPLICIT) (UNKNOWN 0 0 0
0 UNKNOWN ()) 233 0 (234 235 236 237 238 239 240 241 242 243 244) () 0 ()
() () 0 0)
245 'h5gget_info_by_name_f' 'h5g' '' 1 ((PROCEDURE UNKNOWN-INTENT
MODULE-PROC DECL UNKNOWN 0 0 SUBROUTINE ALWAYS_EXPLICIT) (UNKNOWN 0 0 0
0 UNKNOWN ()) 246 0 (247 248 249 250 251 252 253 254) () 0 () () () 0 0)
255 'h5gget_info_f' 'h5g' '' 1 ((PROCEDURE UNKNOWN-INTENT MODULE-PROC
DECL UNKNOWN 0 0 SUBROUTINE ALWAYS_EXPLICIT) (UNKNOWN 0 0 0 0 UNKNOWN ())
256 0 (257 258 259 260 261 262) () 0 () () () 0 0)
263 'h5gget_linkval_f' 'h5g' '' 1 ((PROCEDURE UNKNOWN-INTENT MODULE-PROC
DECL UNKNOWN 0 0 SUBROUTINE) (UNKNOWN 0 0 0 0 UNKNOWN ()) 264 0 (265 266
267 268 269) () 0 () () () 0 0)
270 'h5gget_obj_info_idx_f' 'h5g' '' 1 ((PROCEDURE UNKNOWN-INTENT
MODULE-PROC DECL UNKNOWN 0 0 SUBROUTINE) (UNKNOWN 0 0 0 0 UNKNOWN ())
271 0 (272 273 274 275 276 277) () 0 () () () 0 0)
278 'h5glink2_f' 'h5g' '' 1 ((PROCEDURE UNKNOWN-INTENT MODULE-PROC DECL
UNKNOWN 0 0 SUBROUTINE) (UNKNOWN 0 0 0 0 UNKNOWN ()) 279 0 (280 281 282
283 284 285) () 0 () () () 0 0)
286 'h5glink_f' 'h5g' '' 1 ((PROCEDURE UNKNOWN-INTENT MODULE-PROC DECL
UNKNOWN 0 0 SUBROUTINE) (UNKNOWN 0 0 0 0 UNKNOWN ()) 287 0 (288 289 290
291 292) () 0 () () () 0 0)
293 'h5global' 'h5global' '' 1 ((MODULE UNKNOWN-INTENT UNKNOWN-PROC
UNKNOWN UNKNOWN 0 0) (UNKNOWN 0 0 0 0 UNKNOWN ()) 0 0 () () 0 () () () 0
0)
294 'h5gmove2_f' 'h5g' '' 1 ((PROCEDURE UNKNOWN-INTENT MODULE-PROC DECL
UNKNOWN 0 0 SUBROUTINE) (UNKNOWN 0 0 0 0 UNKNOWN ()) 295 0 (296 297 298
299 300) () 0 () () () 0 0)
301 'h5gmove_f' 'h5g' '' 1 ((PROCEDURE UNKNOWN-INTENT MODULE-PROC DECL
UNKNOWN 0 0 SUBROUTINE) (UNKNOWN 0 0 0 0 UNKNOWN ()) 302 0 (303 304 305
306) () 0 () () () 0 0)
307 'h5gn_members_f' 'h5g' '' 1 ((PROCEDURE UNKNOWN-INTENT MODULE-PROC
DECL UNKNOWN 0 0 SUBROUTINE) (UNKNOWN 0 0 0 0 UNKNOWN ()) 308 0 (309 310
311 312) () 0 () () () 0 0)
313 'h5gopen_f' 'h5g' '' 1 ((PROCEDURE UNKNOWN-INTENT MODULE-PROC DECL
UNKNOWN 0 0 SUBROUTINE ALWAYS_EXPLICIT) (UNKNOWN 0 0 0 0 UNKNOWN ()) 314
0 (315 316 317 318 319) () 0 () () () 0 0)
320 'h5gset_comment_f' 'h5g' '' 1 ((PROCEDURE UNKNOWN-INTENT MODULE-PROC
DECL UNKNOWN 0 0 SUBROUTINE) (UNKNOWN 0 0 0 0 UNKNOWN ()) 321 0 (322 323
324 325) () 0 () () () 0 0)
326 'h5gunlink_f' 'h5g' '' 1 ((PROCEDURE UNKNOWN-INTENT MODULE-PROC DECL
UNKNOWN 0 0 SUBROUTINE) (UNKNOWN 0 0 0 0 UNKNOWN ()) 327 0 (328 329 330)
() 0 () () () 0 0)
331 'h5i_attr_f' 'h5global' '' 1 ((VARIABLE UNKNOWN-INTENT UNKNOWN-PROC
UNKNOWN IMPLICIT-SAVE 0 0) (INTEGER 4 0 0 0 INTEGER ()) 0 0 () () 0 () ()
() 0 0)
332 'h5i_badid_f' 'h5global' '' 1 ((VARIABLE UNKNOWN-INTENT UNKNOWN-PROC
UNKNOWN IMPLICIT-SAVE 0 0) (INTEGER 4 0 0 0 INTEGER ()) 0 0 () () 0 () ()
() 0 0)
333 'h5i_dataset_f' 'h5global' '' 1 ((VARIABLE UNKNOWN-INTENT
UNKNOWN-PROC UNKNOWN IMPLICIT-SAVE 0 0) (INTEGER 4 0 0 0 INTEGER ()) 0 0
() () 0 () () () 0 0)
334 'h5i_dataspace_f' 'h5global' '' 1 ((VARIABLE UNKNOWN-INTENT
UNKNOWN-PROC UNKNOWN IMPLICIT-SAVE 0 0) (INTEGER 4 0 0 0 INTEGER ()) 0 0
() () 0 () () () 0 0)
335 'h5i_datatype_f' 'h5global' '' 1 ((VARIABLE UNKNOWN-INTENT
UNKNOWN-PROC UNKNOWN IMPLICIT-SAVE 0 0) (INTEGER 4 0 0 0 INTEGER ()) 0 0
() () 0 () () () 0 0)
336 'h5i_file_f' 'h5global' '' 1 ((VARIABLE UNKNOWN-INTENT UNKNOWN-PROC
UNKNOWN IMPLICIT-SAVE 0 0) (INTEGER 4 0 0 0 INTEGER ()) 0 0 () () 0 () ()
() 0 0)
337 'h5i_group_f' 'h5global' '' 1 ((VARIABLE UNKNOWN-INTENT UNKNOWN-PROC
UNKNOWN IMPLICIT-SAVE 0 0) (INTEGER 4 0 0 0 INTEGER ()) 0 0 () () 0 () ()
() 0 0)
338 'h5l_link_class_t_vers_f' 'h5global' '' 1 ((VARIABLE UNKNOWN-INTENT
UNKNOWN-PROC UNKNOWN IMPLICIT-SAVE 0 0) (INTEGER 4 0 0 0 INTEGER ()) 0 0
() () 0 () () () 0 0)
339 'h5l_same_loc_f' 'h5global' '' 1 ((VARIABLE UNKNOWN-INTENT
UNKNOWN-PROC UNKNOWN IMPLICIT-SAVE 0 0) (INTEGER 4 0 0 0 INTEGER ()) 0 0
() () 0 () () () 0 0)
340 'h5l_type_error_f' 'h5global' '' 1 ((VARIABLE UNKNOWN-INTENT
UNKNOWN-PROC UNKNOWN IMPLICIT-SAVE 0 0) (INTEGER 4 0 0 0 INTEGER ()) 0 0
() () 0 () () () 0 0)
341 'h5l_type_external_f' 'h5global' '' 1 ((VARIABLE UNKNOWN-INTENT
UNKNOWN-PROC UNKNOWN IMPLICIT-SAVE 0 0) (INTEGER 4 0 0 0 INTEGER ()) 0 0
() () 0 () () () 0 0)
342 'h5l_type_hard_f' 'h5global' '' 1 ((VARIABLE UNKNOWN-INTENT
UNKNOWN-PROC UNKNOWN IMPLICIT-SAVE 0 0) (INTEGER 4 0 0 0 INTEGER ()) 0 0
() () 0 () () () 0 0)
343 'h5l_type_soft_f' 'h5global' '' 1 ((VARIABLE UNKNOWN-INTENT
UNKNOWN-PROC UNKNOWN IMPLICIT-SAVE 0 0) (INTEGER 4 0 0 0 INTEGER ()) 0 0
() () 0 () () () 0 0)
344 'h5o_copy_all_f' 'h5global' '' 1 ((VARIABLE UNKNOWN-INTENT
UNKNOWN-PROC UNKNOWN IMPLICIT-SAVE 0 0) (INTEGER 4 0 0 0 INTEGER ()) 0 0
() () 0 () () () 0 0)
345 'h5o_copy_expand_ext_link_f' 'h5global' '' 1 ((VARIABLE
UNKNOWN-INTENT UNKNOWN-PROC UNKNOWN IMPLICIT-SAVE 0 0) (INTEGER 4 0 0 0
INTEGER ()) 0 0 () () 0 () () () 0 0)
346 'h5o_copy_expand_reference_f' 'h5global' '' 1 ((VARIABLE
UNKNOWN-INTENT UNKNOWN-PROC UNKNOWN IMPLICIT-SAVE 0 0) (INTEGER 4 0 0 0
INTEGER ()) 0 0 () () 0 () () () 0 0)
347 'h5o_copy_expand_soft_link_f' 'h5global' '' 1 ((VARIABLE
UNKNOWN-INTENT UNKNOWN-PROC UNKNOWN IMPLICIT-SAVE 0 0) (INTEGER 4 0 0 0
INTEGER ()) 0 0 () () 0 () () () 0 0)
348 'h5o_copy_preserve_null_flag_f' 'h5global' '' 1 ((VARIABLE
UNKNOWN-INTENT UNKNOWN-PROC UNKNOWN IMPLICIT-SAVE 0 0) (INTEGER 4 0 0 0
INTEGER ()) 0 0 () () 0 () () () 0 0)
349 'h5o_copy_shallow_hierarchy_f' 'h5global' '' 1 ((VARIABLE
UNKNOWN-INTENT UNKNOWN-PROC UNKNOWN IMPLICIT-SAVE 0 0) (INTEGER 4 0 0 0
INTEGER ()) 0 0 () () 0 () () () 0 0)
350 'h5o_copy_without_attr_flag_f' 'h5global' '' 1 ((VARIABLE
UNKNOWN-INTENT UNKNOWN-PROC UNKNOWN IMPLICIT-SAVE 0 0) (INTEGER 4 0 0 0
INTEGER ()) 0 0 () () 0 () () () 0 0)
351 'h5o_hdr_all_flags_f' 'h5global' '' 1 ((VARIABLE UNKNOWN-INTENT
UNKNOWN-PROC UNKNOWN IMPLICIT-SAVE 0 0) (INTEGER 4 0 0 0 INTEGER ()) 0 0
() () 0 () () () 0 0)
352 'h5o_hdr_attr_crt_order_index_f' 'h5global' '' 1 ((VARIABLE
UNKNOWN-INTENT UNKNOWN-PROC UNKNOWN IMPLICIT-SAVE 0 0) (INTEGER 4 0 0 0
INTEGER ()) 0 0 () () 0 () () () 0 0)
353 'h5o_hdr_attr_crt_order_track_f' 'h5global' '' 1 ((VARIABLE
UNKNOWN-INTENT UNKNOWN-PROC UNKNOWN IMPLICIT-SAVE 0 0) (INTEGER 4 0 0 0
INTEGER ()) 0 0 () () 0 () () () 0 0)
354 'h5o_hdr_attr_store_phase_cha_f' 'h5global' '' 1 ((VARIABLE
UNKNOWN-INTENT UNKNOWN-PROC UNKNOWN IMPLICIT-SAVE 0 0) (INTEGER 4 0 0 0
INTEGER ()) 0 0 () () 0 () () () 0 0)
355 'h5o_hdr_chunk0_size_f' 'h5global' '' 1 ((VARIABLE UNKNOWN-INTENT
UNKNOWN-PROC UNKNOWN IMPLICIT-SAVE 0 0) (INTEGER 4 0 0 0 INTEGER ()) 0 0
() () 0 () () () 0 0)
356 'h5o_hdr_store_times_f' 'h5global' '' 1 ((VARIABLE UNKNOWN-INTENT
UNKNOWN-PROC UNKNOWN IMPLICIT-SAVE 0 0) (INTEGER 4 0 0 0 INTEGER ()) 0 0
() () 0 () () () 0 0)
357 'h5o_shmesg_all_flag_f' 'h5global' '' 1 ((VARIABLE UNKNOWN-INTENT
UNKNOWN-PROC UNKNOWN IMPLICIT-SAVE 0 0) (INTEGER 4 0 0 0 INTEGER ()) 0 0
() () 0 () () () 0 0)
358 'h5o_shmesg_attr_flag_f' 'h5global' '' 1 ((VARIABLE UNKNOWN-INTENT
UNKNOWN-PROC UNKNOWN IMPLICIT-SAVE 0 0) (INTEGER 4 0 0 0 INTEGER ()) 0 0
() () 0 () () () 0 0)
359 'h5o_shmesg_dtype_flag_f' 'h5global' '' 1 ((VARIABLE UNKNOWN-INTENT
UNKNOWN-PROC UNKNOWN IMPLICIT-SAVE 0 0) (INTEGER 4 0 0 0 INTEGER ()) 0 0
() () 0 () () () 0 0)
360 'h5o_shmesg_fill_flag_f' 'h5global' '' 1 ((VARIABLE UNKNOWN-INTENT
UNKNOWN-PROC UNKNOWN IMPLICIT-SAVE 0 0) (INTEGER 4 0 0 0 INTEGER ()) 0 0
() () 0 () () () 0 0)
361 'h5o_shmesg_max_list_size_f' 'h5global' '' 1 ((VARIABLE
UNKNOWN-INTENT UNKNOWN-PROC UNKNOWN IMPLICIT-SAVE 0 0) (INTEGER 4 0 0 0
INTEGER ()) 0 0 () () 0 () () () 0 0)
362 'h5o_shmesg_max_nindexes_f' 'h5global' '' 1 ((VARIABLE
UNKNOWN-INTENT UNKNOWN-PROC UNKNOWN IMPLICIT-SAVE 0 0) (INTEGER 4 0 0 0
INTEGER ()) 0 0 () () 0 () () () 0 0)
363 'h5o_shmesg_none_flag_f' 'h5global' '' 1 ((VARIABLE UNKNOWN-INTENT
UNKNOWN-PROC UNKNOWN IMPLICIT-SAVE 0 0) (INTEGER 4 0 0 0 INTEGER ()) 0 0
() () 0 () () () 0 0)
364 'h5o_shmesg_pline_flag_f' 'h5global' '' 1 ((VARIABLE UNKNOWN-INTENT
UNKNOWN-PROC UNKNOWN IMPLICIT-SAVE 0 0) (INTEGER 4 0 0 0 INTEGER ()) 0 0
() () 0 () () () 0 0)
365 'h5o_shmesg_sdspace_flag_f' 'h5global' '' 1 ((VARIABLE
UNKNOWN-INTENT UNKNOWN-PROC UNKNOWN IMPLICIT-SAVE 0 0) (INTEGER 4 0 0 0
INTEGER ()) 0 0 () () 0 () () () 0 0)
366 'h5o_type_dataset_f' 'h5global' '' 1 ((VARIABLE UNKNOWN-INTENT
UNKNOWN-PROC UNKNOWN IMPLICIT-SAVE 0 0) (INTEGER 4 0 0 0 INTEGER ()) 0 0
() () 0 () () () 0 0)
367 'h5o_type_group_f' 'h5global' '' 1 ((VARIABLE UNKNOWN-INTENT
UNKNOWN-PROC UNKNOWN IMPLICIT-SAVE 0 0) (INTEGER 4 0 0 0 INTEGER ()) 0 0
() () 0 () () () 0 0)
368 'h5o_type_named_datatype_f' 'h5global' '' 1 ((VARIABLE
UNKNOWN-INTENT UNKNOWN-PROC UNKNOWN IMPLICIT-SAVE 0 0) (INTEGER 4 0 0 0
INTEGER ()) 0 0 () () 0 () () () 0 0)
369 'h5o_type_ntypes_f' 'h5global' '' 1 ((VARIABLE UNKNOWN-INTENT
UNKNOWN-PROC UNKNOWN IMPLICIT-SAVE 0 0) (INTEGER 4 0 0 0 INTEGER ()) 0 0
() () 0 () () () 0 0)
370 'h5o_type_unknown_f' 'h5global' '' 1 ((VARIABLE UNKNOWN-INTENT
UNKNOWN-PROC UNKNOWN IMPLICIT-SAVE 0 0) (INTEGER 4 0 0 0 INTEGER ()) 0 0
() () 0 () () () 0 0)
371 'h5p_attribute_create_f' 'h5global' '' 1 ((VARIABLE UNKNOWN-INTENT
UNKNOWN-PROC UNKNOWN IMPLICIT-SAVE 0 0) (INTEGER 8 0 0 0 INTEGER ()) 0 0
() () 0 () () () 0 0)
372 'h5p_crt_order_indexed_f' 'h5global' '' 1 ((VARIABLE UNKNOWN-INTENT
UNKNOWN-PROC UNKNOWN IMPLICIT-SAVE 0 0) (INTEGER 4 0 0 0 INTEGER ()) 0 0
() () 0 () () () 0 0)
373 'h5p_crt_order_tracked_f' 'h5global' '' 1 ((VARIABLE UNKNOWN-INTENT
UNKNOWN-PROC UNKNOWN IMPLICIT-SAVE 0 0) (INTEGER 4 0 0 0 INTEGER ()) 0 0
() () 0 () () () 0 0)
374 'h5p_dataset_access_f' 'h5global' '' 1 ((VARIABLE UNKNOWN-INTENT
UNKNOWN-PROC UNKNOWN IMPLICIT-SAVE 0 0) (INTEGER 8 0 0 0 INTEGER ()) 0 0
() () 0 () () () 0 0)
375 'h5p_dataset_create_f' 'h5global' '' 1 ((VARIABLE UNKNOWN-INTENT
UNKNOWN-PROC UNKNOWN IMPLICIT-SAVE 0 0) (INTEGER 8 0 0 0 INTEGER ()) 0 0
() () 0 () () () 0 0)
376 'h5p_dataset_xfer_f' 'h5global' '' 1 ((VARIABLE UNKNOWN-INTENT
UNKNOWN-PROC UNKNOWN IMPLICIT-SAVE 0 0) (INTEGER 8 0 0 0 INTEGER ()) 0 0
() () 0 () () () 0 0)
377 'h5p_datatype_access_f' 'h5global' '' 1 ((VARIABLE UNKNOWN-INTENT
UNKNOWN-PROC UNKNOWN IMPLICIT-SAVE 0 0) (INTEGER 8 0 0 0 INTEGER ()) 0 0
() () 0 () () () 0 0)
378 'h5p_datatype_create_f' 'h5global' '' 1 ((VARIABLE UNKNOWN-INTENT
UNKNOWN-PROC UNKNOWN IMPLICIT-SAVE 0 0) (INTEGER 8 0 0 0 INTEGER ()) 0 0
() () 0 () () () 0 0)
379 'h5p_default_f' 'h5global' '' 1 ((VARIABLE UNKNOWN-INTENT
UNKNOWN-PROC UNKNOWN IMPLICIT-SAVE 0 0) (INTEGER 8 0 0 0 INTEGER ()) 0 0
() () 0 () () () 0 0)
380 'h5p_file_access_f' 'h5global' '' 1 ((VARIABLE UNKNOWN-INTENT
UNKNOWN-PROC UNKNOWN IMPLICIT-SAVE 0 0) (INTEGER 8 0 0 0 INTEGER ()) 0 0
() () 0 () () () 0 0)
381 'h5p_file_create_f' 'h5global' '' 1 ((VARIABLE UNKNOWN-INTENT
UNKNOWN-PROC UNKNOWN IMPLICIT-SAVE 0 0) (INTEGER 8 0 0 0 INTEGER ()) 0 0
() () 0 () () () 0 0)
382 'h5p_file_mount_f' 'h5global' '' 1 ((VARIABLE UNKNOWN-INTENT
UNKNOWN-PROC UNKNOWN IMPLICIT-SAVE 0 0) (INTEGER 8 0 0 0 INTEGER ()) 0 0
() () 0 () () () 0 0)
383 'h5p_group_access_f' 'h5global' '' 1 ((VARIABLE UNKNOWN-INTENT
UNKNOWN-PROC UNKNOWN IMPLICIT-SAVE 0 0) (INTEGER 8 0 0 0 INTEGER ()) 0 0
() () 0 () () () 0 0)
384 'h5p_group_create_f' 'h5global' '' 1 ((VARIABLE UNKNOWN-INTENT
UNKNOWN-PROC UNKNOWN IMPLICIT-SAVE 0 0) (INTEGER 8 0 0 0 INTEGER ()) 0 0
() () 0 () () () 0 0)
385 'h5p_link_access_f' 'h5global' '' 1 ((VARIABLE UNKNOWN-INTENT
UNKNOWN-PROC UNKNOWN IMPLICIT-SAVE 0 0) (INTEGER 8 0 0 0 INTEGER ()) 0 0
() () 0 () () () 0 0)
386 'h5p_link_create_f' 'h5global' '' 1 ((VARIABLE UNKNOWN-INTENT
UNKNOWN-PROC UNKNOWN IMPLICIT-SAVE 0 0) (INTEGER 8 0 0 0 INTEGER ()) 0 0
() () 0 () () () 0 0)
387 'h5p_object_copy_f' 'h5global' '' 1 ((VARIABLE UNKNOWN-INTENT
UNKNOWN-PROC UNKNOWN IMPLICIT-SAVE 0 0) (INTEGER 8 0 0 0 INTEGER ()) 0 0
() () 0 () () () 0 0)
388 'h5p_object_create_f' 'h5global' '' 1 ((VARIABLE UNKNOWN-INTENT
UNKNOWN-PROC UNKNOWN IMPLICIT-SAVE 0 0) (INTEGER 8 0 0 0 INTEGER ()) 0 0
() () 0 () () () 0 0)
389 'h5p_root_f' 'h5global' '' 1 ((VARIABLE UNKNOWN-INTENT UNKNOWN-PROC
UNKNOWN IMPLICIT-SAVE 0 0) (INTEGER 8 0 0 0 INTEGER ()) 0 0 () () 0 () ()
() 0 0)
390 'h5p_string_create_f' 'h5global' '' 1 ((VARIABLE UNKNOWN-INTENT
UNKNOWN-PROC UNKNOWN IMPLICIT-SAVE 0 0) (INTEGER 8 0 0 0 INTEGER ()) 0 0
() () 0 () () () 0 0)
391 'h5r_dataset_region_f' 'h5global' '' 1 ((VARIABLE UNKNOWN-INTENT
UNKNOWN-PROC UNKNOWN IMPLICIT-SAVE 0 0) (INTEGER 4 0 0 0 INTEGER ()) 0 0
() () 0 () () () 0 0)
392 'h5r_dset_reg_ref_buf_size_f' 'h5fortran_types' '' 1 ((PARAMETER
UNKNOWN-INTENT UNKNOWN-PROC UNKNOWN IMPLICIT-SAVE 0 0) (INTEGER 4 0 0 0
INTEGER ()) 0 0 () (CONSTANT (INTEGER 4 0 0 0 INTEGER ()) 0 '12') () 0 ()
() () 0 0)
393 'h5r_object_f' 'h5global' '' 1 ((VARIABLE UNKNOWN-INTENT
UNKNOWN-PROC UNKNOWN IMPLICIT-SAVE 0 0) (INTEGER 4 0 0 0 INTEGER ()) 0 0
() () 0 () () () 0 0)
394 'h5s_all_f' 'h5global' '' 1 ((VARIABLE UNKNOWN-INTENT UNKNOWN-PROC
UNKNOWN IMPLICIT-SAVE 0 0) (INTEGER 8 0 0 0 INTEGER ()) 0 0 () () 0 () ()
() 0 0)
395 'h5s_null_f' 'h5global' '' 1 ((VARIABLE UNKNOWN-INTENT UNKNOWN-PROC
UNKNOWN IMPLICIT-SAVE 0 0) (INTEGER 4 0 0 0 INTEGER ()) 0 0 () () 0 () ()
() 0 0)
396 'h5s_scalar_f' 'h5global' '' 1 ((VARIABLE UNKNOWN-INTENT
UNKNOWN-PROC UNKNOWN IMPLICIT-SAVE 0 0) (INTEGER 4 0 0 0 INTEGER ()) 0 0
() () 0 () () () 0 0)
397 'h5s_sel_all_f' 'h5global' '' 1 ((VARIABLE UNKNOWN-INTENT
UNKNOWN-PROC UNKNOWN IMPLICIT-SAVE 0 0) (INTEGER 4 0 0 0 INTEGER ()) 0 0
() () 0 () () () 0 0)
398 'h5s_sel_error_f' 'h5global' '' 1 ((VARIABLE UNKNOWN-INTENT
UNKNOWN-PROC UNKNOWN IMPLICIT-SAVE 0 0) (INTEGER 4 0 0 0 INTEGER ()) 0 0
() () 0 () () () 0 0)
399 'h5s_sel_hyperslabs_f' 'h5global' '' 1 ((VARIABLE UNKNOWN-INTENT
UNKNOWN-PROC UNKNOWN IMPLICIT-SAVE 0 0) (INTEGER 4 0 0 0 INTEGER ()) 0 0
() () 0 () () () 0 0)
400 'h5s_sel_none_f' 'h5global' '' 1 ((VARIABLE UNKNOWN-INTENT
UNKNOWN-PROC UNKNOWN IMPLICIT-SAVE 0 0) (INTEGER 4 0 0 0 INTEGER ()) 0 0
() () 0 () () () 0 0)
401 'h5s_sel_points_f' 'h5global' '' 1 ((VARIABLE UNKNOWN-INTENT
UNKNOWN-PROC UNKNOWN IMPLICIT-SAVE 0 0) (INTEGER 4 0 0 0 INTEGER ()) 0 0
() () 0 () () () 0 0)
402 'h5s_select_and_f' 'h5global' '' 1 ((VARIABLE UNKNOWN-INTENT
UNKNOWN-PROC UNKNOWN IMPLICIT-SAVE 0 0) (INTEGER 4 0 0 0 INTEGER ()) 0 0
() () 0 () () () 0 0)
403 'h5s_select_append_f' 'h5global' '' 1 ((VARIABLE UNKNOWN-INTENT
UNKNOWN-PROC UNKNOWN IMPLICIT-SAVE 0 0) (INTEGER 4 0 0 0 INTEGER ()) 0 0
() () 0 () () () 0 0)
404 'h5s_select_invalid_f' 'h5global' '' 1 ((VARIABLE UNKNOWN-INTENT
UNKNOWN-PROC UNKNOWN IMPLICIT-SAVE 0 0) (INTEGER 4 0 0 0 INTEGER ()) 0 0
() () 0 () () () 0 0)
405 'h5s_select_noop_f' 'h5global' '' 1 ((VARIABLE UNKNOWN-INTENT
UNKNOWN-PROC UNKNOWN IMPLICIT-SAVE 0 0) (INTEGER 4 0 0 0 INTEGER ()) 0 0
() () 0 () () () 0 0)
406 'h5s_select_nota_f' 'h5global' '' 1 ((VARIABLE UNKNOWN-INTENT
UNKNOWN-PROC UNKNOWN IMPLICIT-SAVE 0 0) (INTEGER 4 0 0 0 INTEGER ()) 0 0
() () 0 () () () 0 0)
407 'h5s_select_notb_f' 'h5global' '' 1 ((VARIABLE UNKNOWN-INTENT
UNKNOWN-PROC UNKNOWN IMPLICIT-SAVE 0 0) (INTEGER 4 0 0 0 INTEGER ()) 0 0
() () 0 () () () 0 0)
408 'h5s_select_or_f' 'h5global' '' 1 ((VARIABLE UNKNOWN-INTENT
UNKNOWN-PROC UNKNOWN IMPLICIT-SAVE 0 0) (INTEGER 4 0 0 0 INTEGER ()) 0 0
() () 0 () () () 0 0)
409 'h5s_select_prepend_f' 'h5global' '' 1 ((VARIABLE UNKNOWN-INTENT
UNKNOWN-PROC UNKNOWN IMPLICIT-SAVE 0 0) (INTEGER 4 0 0 0 INTEGER ()) 0 0
() () 0 () () () 0 0)
410 'h5s_select_set_f' 'h5global' '' 1 ((VARIABLE UNKNOWN-INTENT
UNKNOWN-PROC UNKNOWN IMPLICIT-SAVE 0 0) (INTEGER 4 0 0 0 INTEGER ()) 0 0
() () 0 () () () 0 0)
411 'h5s_select_xor_f' 'h5global' '' 1 ((VARIABLE UNKNOWN-INTENT
UNKNOWN-PROC UNKNOWN IMPLICIT-SAVE 0 0) (INTEGER 4 0 0 0 INTEGER ()) 0 0
() () 0 () () () 0 0)
412 'h5s_simple_f' 'h5global' '' 1 ((VARIABLE UNKNOWN-INTENT
UNKNOWN-PROC UNKNOWN IMPLICIT-SAVE 0 0) (INTEGER 4 0 0 0 INTEGER ()) 0 0
() () 0 () () () 0 0)
413 'h5s_unlimited_f' 'h5global' '' 1 ((VARIABLE UNKNOWN-INTENT
UNKNOWN-PROC UNKNOWN IMPLICIT-SAVE 0 0) (INTEGER 8 0 0 0 INTEGER ()) 0 0
() () 0 () () () 0 0)
414 'h5t_array_f' 'h5global' '' 1 ((VARIABLE UNKNOWN-INTENT UNKNOWN-PROC
UNKNOWN IMPLICIT-SAVE 0 0) (INTEGER 4 0 0 0 INTEGER ()) 0 0 () () 0 () ()
() 0 0)
415 'h5t_bitfield_f' 'h5global' '' 1 ((VARIABLE UNKNOWN-INTENT
UNKNOWN-PROC UNKNOWN IMPLICIT-SAVE 0 0) (INTEGER 4 0 0 0 INTEGER ()) 0 0
() () 0 () () () 0 0)
416 'h5t_c_s1' 'h5global' '' 1 ((VARIABLE UNKNOWN-INTENT UNKNOWN-PROC
UNKNOWN IMPLICIT-SAVE 0 0) (INTEGER 8 0 0 0 INTEGER ()) 0 0 () () 0 () ()
() 0 0)
417 'h5t_compound_f' 'h5global' '' 1 ((VARIABLE UNKNOWN-INTENT
UNKNOWN-PROC UNKNOWN IMPLICIT-SAVE 0 0) (INTEGER 4 0 0 0 INTEGER ()) 0 0
() () 0 () () () 0 0)
418 'h5t_cset_ascii_f' 'h5global' '' 1 ((VARIABLE UNKNOWN-INTENT
UNKNOWN-PROC UNKNOWN IMPLICIT-SAVE 0 0) (INTEGER 4 0 0 0 INTEGER ()) 0 0
() () 0 () () () 0 0)
419 'h5t_cset_utf8_f' 'h5global' '' 1 ((VARIABLE UNKNOWN-INTENT
UNKNOWN-PROC UNKNOWN IMPLICIT-SAVE 0 0) (INTEGER 4 0 0 0 INTEGER ()) 0 0
() () 0 () () () 0 0)
420 'h5t_dir_ascend_f' 'h5global' '' 1 ((VARIABLE UNKNOWN-INTENT
UNKNOWN-PROC UNKNOWN IMPLICIT-SAVE 0 0) (INTEGER 4 0 0 0 INTEGER ()) 0 0
() () 0 () () () 0 0)
421 'h5t_dir_descend_f' 'h5global' '' 1 ((VARIABLE UNKNOWN-INTENT
UNKNOWN-PROC UNKNOWN IMPLICIT-SAVE 0 0) (INTEGER 4 0 0 0 INTEGER ()) 0 0
() () 0 () () () 0 0)
422 'h5t_enum_f' 'h5global' '' 1 ((VARIABLE UNKNOWN-INTENT UNKNOWN-PROC
UNKNOWN IMPLICIT-SAVE 0 0) (INTEGER 4 0 0 0 INTEGER ()) 0 0 () () 0 () ()
() 0 0)
423 'h5t_float_f' 'h5global' '' 1 ((VARIABLE UNKNOWN-INTENT UNKNOWN-PROC
UNKNOWN IMPLICIT-SAVE 0 0) (INTEGER 4 0 0 0 INTEGER ()) 0 0 () () 0 () ()
() 0 0)
424 'h5t_fortran_s1' 'h5global' '' 1 ((VARIABLE UNKNOWN-INTENT
UNKNOWN-PROC UNKNOWN IMPLICIT-SAVE 0 0) (INTEGER 8 0 0 0 INTEGER ()) 0 0
() () 0 () () () 0 0)
425 'h5t_ieee_f32be' 'h5global' '' 1 ((VARIABLE UNKNOWN-INTENT
UNKNOWN-PROC UNKNOWN IMPLICIT-SAVE 0 0) (INTEGER 8 0 0 0 INTEGER ()) 0 0
() () 0 () () () 0 0)
426 'h5t_ieee_f32le' 'h5global' '' 1 ((VARIABLE UNKNOWN-INTENT
UNKNOWN-PROC UNKNOWN IMPLICIT-SAVE 0 0) (INTEGER 8 0 0 0 INTEGER ()) 0 0
() () 0 () () () 0 0)
427 'h5t_ieee_f64be' 'h5global' '' 1 ((VARIABLE UNKNOWN-INTENT
UNKNOWN-PROC UNKNOWN IMPLICIT-SAVE 0 0) (INTEGER 8 0 0 0 INTEGER ()) 0 0
() () 0 () () () 0 0)
428 'h5t_ieee_f64le' 'h5global' '' 1 ((VARIABLE UNKNOWN-INTENT
UNKNOWN-PROC UNKNOWN IMPLICIT-SAVE 0 0) (INTEGER 8 0 0 0 INTEGER ()) 0 0
() () 0 () () () 0 0)
429 'h5t_integer_f' 'h5global' '' 1 ((VARIABLE UNKNOWN-INTENT
UNKNOWN-PROC UNKNOWN IMPLICIT-SAVE 0 0) (INTEGER 4 0 0 0 INTEGER ()) 0 0
() () 0 () () () 0 0)
430 'h5t_native_b16' 'h5global' '' 1 ((VARIABLE UNKNOWN-INTENT
UNKNOWN-PROC UNKNOWN IMPLICIT-SAVE 0 0) (INTEGER 8 0 0 0 INTEGER ()) 0 0
() () 0 () () () 0 0)
431 'h5t_native_b32' 'h5global' '' 1 ((VARIABLE UNKNOWN-INTENT
UNKNOWN-PROC UNKNOWN IMPLICIT-SAVE 0 0) (INTEGER 8 0 0 0 INTEGER ()) 0 0
() () 0 () () () 0 0)
432 'h5t_native_b64' 'h5global' '' 1 ((VARIABLE UNKNOWN-INTENT
UNKNOWN-PROC UNKNOWN IMPLICIT-SAVE 0 0) (INTEGER 8 0 0 0 INTEGER ()) 0 0
() () 0 () () () 0 0)
433 'h5t_native_b8' 'h5global' '' 1 ((VARIABLE UNKNOWN-INTENT
UNKNOWN-PROC UNKNOWN IMPLICIT-SAVE 0 0) (INTEGER 8 0 0 0 INTEGER ()) 0 0
() () 0 () () () 0 0)
434 'h5t_native_character' 'h5global' '' 1 ((VARIABLE UNKNOWN-INTENT
UNKNOWN-PROC UNKNOWN IMPLICIT-SAVE 0 0) (INTEGER 8 0 0 0 INTEGER ()) 0 0
() () 0 () () () 0 0)
435 'h5t_native_double' 'h5global' '' 1 ((VARIABLE UNKNOWN-INTENT
UNKNOWN-PROC UNKNOWN IMPLICIT-SAVE 0 0) (INTEGER 8 0 0 0 INTEGER ()) 0 0
() () 0 () () () 0 0)
436 'h5t_native_float_128' 'h5global' '' 1 ((VARIABLE UNKNOWN-INTENT
UNKNOWN-PROC UNKNOWN IMPLICIT-SAVE 0 0) (INTEGER 8 0 0 0 INTEGER ()) 0 0
() () 0 () () () 0 0)
437 'h5t_native_integer' 'h5global' '' 1 ((VARIABLE UNKNOWN-INTENT
UNKNOWN-PROC UNKNOWN IMPLICIT-SAVE 0 0) (INTEGER 8 0 0 0 INTEGER ()) 0 0
() () 0 () () () 0 0)
438 'h5t_native_integer_kind' 'h5global' '' 1 ((VARIABLE UNKNOWN-INTENT
UNKNOWN-PROC UNKNOWN IMPLICIT-SAVE 0 0 DIMENSION) (INTEGER 8 0 0 0
INTEGER ()) 0 0 () (1 0 EXPLICIT (CONSTANT (INTEGER 4 0 0 0 INTEGER ())
0 '1') (CONSTANT (INTEGER 4 0 0 0 INTEGER ()) 0 '5')) 0 () () () 0 0)
439 'h5t_native_real' 'h5global' '' 1 ((VARIABLE UNKNOWN-INTENT
UNKNOWN-PROC UNKNOWN IMPLICIT-SAVE 0 0) (INTEGER 8 0 0 0 INTEGER ()) 0 0
() () 0 () () () 0 0)
440 'h5t_native_real_c_double' 'h5global' '' 1 ((VARIABLE UNKNOWN-INTENT
UNKNOWN-PROC UNKNOWN IMPLICIT-SAVE 0 0) (INTEGER 8 0 0 0 INTEGER ()) 0 0
() () 0 () () () 0 0)
441 'h5t_native_real_c_float' 'h5global' '' 1 ((VARIABLE UNKNOWN-INTENT
UNKNOWN-PROC UNKNOWN IMPLICIT-SAVE 0 0) (INTEGER 8 0 0 0 INTEGER ()) 0 0
() () 0 () () () 0 0)
442 'h5t_native_real_c_long_double' 'h5global' '' 1 ((VARIABLE
UNKNOWN-INTENT UNKNOWN-PROC UNKNOWN IMPLICIT-SAVE 0 0) (INTEGER 8 0 0 0
INTEGER ()) 0 0 () () 0 () () () 0 0)
443 'h5t_no_class_f' 'h5global' '' 1 ((VARIABLE UNKNOWN-INTENT
UNKNOWN-PROC UNKNOWN IMPLICIT-SAVE 0 0) (INTEGER 4 0 0 0 INTEGER ()) 0 0
() () 0 () () () 0 0)
444 'h5t_norm_implied_f' 'h5global' '' 1 ((VARIABLE UNKNOWN-INTENT
UNKNOWN-PROC UNKNOWN IMPLICIT-SAVE 0 0) (INTEGER 4 0 0 0 INTEGER ()) 0 0
() () 0 () () () 0 0)
445 'h5t_norm_msbset_f' 'h5global' '' 1 ((VARIABLE UNKNOWN-INTENT
UNKNOWN-PROC UNKNOWN IMPLICIT-SAVE 0 0) (INTEGER 4 0 0 0 INTEGER ()) 0 0
() () 0 () () () 0 0)
446 'h5t_norm_none_f' 'h5global' '' 1 ((VARIABLE UNKNOWN-INTENT
UNKNOWN-PROC UNKNOWN IMPLICIT-SAVE 0 0) (INTEGER 4 0 0 0 INTEGER ()) 0 0
() () 0 () () () 0 0)
447 'h5t_opaque_f' 'h5global' '' 1 ((VARIABLE UNKNOWN-INTENT
UNKNOWN-PROC UNKNOWN IMPLICIT-SAVE 0 0) (INTEGER 4 0 0 0 INTEGER ()) 0 0
() () 0 () () () 0 0)
448 'h5t_order_be_f' 'h5global' '' 1 ((VARIABLE UNKNOWN-INTENT
UNKNOWN-PROC UNKNOWN IMPLICIT-SAVE 0 0) (INTEGER 4 0 0 0 INTEGER ()) 0 0
() () 0 () () () 0 0)
449 'h5t_order_le_f' 'h5global' '' 1 ((VARIABLE UNKNOWN-INTENT
UNKNOWN-PROC UNKNOWN IMPLICIT-SAVE 0 0) (INTEGER 4 0 0 0 INTEGER ()) 0 0
() () 0 () () () 0 0)
450 'h5t_order_mixed_f' 'h5global' '' 1 ((VARIABLE UNKNOWN-INTENT
UNKNOWN-PROC UNKNOWN IMPLICIT-SAVE 0 0) (INTEGER 4 0 0 0 INTEGER ()) 0 0
() () 0 () () () 0 0)
451 'h5t_order_none_f' 'h5global' '' 1 ((VARIABLE UNKNOWN-INTENT
UNKNOWN-PROC UNKNOWN IMPLICIT-SAVE 0 0) (INTEGER 4 0 0 0 INTEGER ()) 0 0
() () 0 () () () 0 0)
452 'h5t_order_vax_f' 'h5global' '' 1 ((VARIABLE UNKNOWN-INTENT
UNKNOWN-PROC UNKNOWN IMPLICIT-SAVE 0 0) (INTEGER 4 0 0 0 INTEGER ()) 0 0
() () 0 () () () 0 0)
453 'h5t_pad_background_f' 'h5global' '' 1 ((VARIABLE UNKNOWN-INTENT
UNKNOWN-PROC UNKNOWN IMPLICIT-SAVE 0 0) (INTEGER 4 0 0 0 INTEGER ()) 0 0
() () 0 () () () 0 0)
454 'h5t_pad_error_f' 'h5global' '' 1 ((VARIABLE UNKNOWN-INTENT
UNKNOWN-PROC UNKNOWN IMPLICIT-SAVE 0 0) (INTEGER 4 0 0 0 INTEGER ()) 0 0
() () 0 () () () 0 0)
455 'h5t_pad_one_f' 'h5global' '' 1 ((VARIABLE UNKNOWN-INTENT
UNKNOWN-PROC UNKNOWN IMPLICIT-SAVE 0 0) (INTEGER 4 0 0 0 INTEGER ()) 0 0
() () 0 () () () 0 0)
456 'h5t_pad_zero_f' 'h5global' '' 1 ((VARIABLE UNKNOWN-INTENT
UNKNOWN-PROC UNKNOWN IMPLICIT-SAVE 0 0) (INTEGER 4 0 0 0 INTEGER ()) 0 0
() () 0 () () () 0 0)
457 'h5t_reference_f' 'h5global' '' 1 ((VARIABLE UNKNOWN-INTENT
UNKNOWN-PROC UNKNOWN IMPLICIT-SAVE 0 0) (INTEGER 4 0 0 0 INTEGER ()) 0 0
() () 0 () () () 0 0)
458 'h5t_sgn_2_f' 'h5global' '' 1 ((VARIABLE UNKNOWN-INTENT UNKNOWN-PROC
UNKNOWN IMPLICIT-SAVE 0 0) (INTEGER 4 0 0 0 INTEGER ()) 0 0 () () 0 () ()
() 0 0)
459 'h5t_sgn_error_f' 'h5global' '' 1 ((VARIABLE UNKNOWN-INTENT
UNKNOWN-PROC UNKNOWN IMPLICIT-SAVE 0 0) (INTEGER 4 0 0 0 INTEGER ()) 0 0
() () 0 () () () 0 0)
460 'h5t_sgn_none_f' 'h5global' '' 1 ((VARIABLE UNKNOWN-INTENT
UNKNOWN-PROC UNKNOWN IMPLICIT-SAVE 0 0) (INTEGER 4 0 0 0 INTEGER ()) 0 0
() () 0 () () () 0 0)
461 'h5t_std_b16be' 'h5global' '' 1 ((VARIABLE UNKNOWN-INTENT
UNKNOWN-PROC UNKNOWN IMPLICIT-SAVE 0 0) (INTEGER 8 0 0 0 INTEGER ()) 0 0
() () 0 () () () 0 0)
462 'h5t_std_b16le' 'h5global' '' 1 ((VARIABLE UNKNOWN-INTENT
UNKNOWN-PROC UNKNOWN IMPLICIT-SAVE 0 0) (INTEGER 8 0 0 0 INTEGER ()) 0 0
() () 0 () () () 0 0)
463 'h5t_std_b32be' 'h5global' '' 1 ((VARIABLE UNKNOWN-INTENT
UNKNOWN-PROC UNKNOWN IMPLICIT-SAVE 0 0) (INTEGER 8 0 0 0 INTEGER ()) 0 0
() () 0 () () () 0 0)
464 'h5t_std_b32le' 'h5global' '' 1 ((VARIABLE UNKNOWN-INTENT
UNKNOWN-PROC UNKNOWN IMPLICIT-SAVE 0 0) (INTEGER 8 0 0 0 INTEGER ()) 0 0
() () 0 () () () 0 0)
465 'h5t_std_b64be' 'h5global' '' 1 ((VARIABLE UNKNOWN-INTENT
UNKNOWN-PROC UNKNOWN IMPLICIT-SAVE 0 0) (INTEGER 8 0 0 0 INTEGER ()) 0 0
() () 0 () () () 0 0)
466 'h5t_std_b64le' 'h5global' '' 1 ((VARIABLE UNKNOWN-INTENT
UNKNOWN-PROC UNKNOWN IMPLICIT-SAVE 0 0) (INTEGER 8 0 0 0 INTEGER ()) 0 0
() () 0 () () () 0 0)
467 'h5t_std_b8be' 'h5global' '' 1 ((VARIABLE UNKNOWN-INTENT
UNKNOWN-PROC UNKNOWN IMPLICIT-SAVE 0 0) (INTEGER 8 0 0 0 INTEGER ()) 0 0
() () 0 () () () 0 0)
468 'h5t_std_b8le' 'h5global' '' 1 ((VARIABLE UNKNOWN-INTENT
UNKNOWN-PROC UNKNOWN IMPLICIT-SAVE 0 0) (INTEGER 8 0 0 0 INTEGER ()) 0 0
() () 0 () () () 0 0)
469 'h5t_std_i16be' 'h5global' '' 1 ((VARIABLE UNKNOWN-INTENT
UNKNOWN-PROC UNKNOWN IMPLICIT-SAVE 0 0) (INTEGER 8 0 0 0 INTEGER ()) 0 0
() () 0 () () () 0 0)
470 'h5t_std_i16le' 'h5global' '' 1 ((VARIABLE UNKNOWN-INTENT
UNKNOWN-PROC UNKNOWN IMPLICIT-SAVE 0 0) (INTEGER 8 0 0 0 INTEGER ()) 0 0
() () 0 () () () 0 0)
471 'h5t_std_i32be' 'h5global' '' 1 ((VARIABLE UNKNOWN-INTENT
UNKNOWN-PROC UNKNOWN IMPLICIT-SAVE 0 0) (INTEGER 8 0 0 0 INTEGER ()) 0 0
() () 0 () () () 0 0)
472 'h5t_std_i32le' 'h5global' '' 1 ((VARIABLE UNKNOWN-INTENT
UNKNOWN-PROC UNKNOWN IMPLICIT-SAVE 0 0) (INTEGER 8 0 0 0 INTEGER ()) 0 0
() () 0 () () () 0 0)
473 'h5t_std_i64be' 'h5global' '' 1 ((VARIABLE UNKNOWN-INTENT
UNKNOWN-PROC UNKNOWN IMPLICIT-SAVE 0 0) (INTEGER 8 0 0 0 INTEGER ()) 0 0
() () 0 () () () 0 0)
474 'h5t_std_i64le' 'h5global' '' 1 ((VARIABLE UNKNOWN-INTENT
UNKNOWN-PROC UNKNOWN IMPLICIT-SAVE 0 0) (INTEGER 8 0 0 0 INTEGER ()) 0 0
() () 0 () () () 0 0)
475 'h5t_std_i8be' 'h5global' '' 1 ((VARIABLE UNKNOWN-INTENT
UNKNOWN-PROC UNKNOWN IMPLICIT-SAVE 0 0) (INTEGER 8 0 0 0 INTEGER ()) 0 0
() () 0 () () () 0 0)
476 'h5t_std_i8le' 'h5global' '' 1 ((VARIABLE UNKNOWN-INTENT
UNKNOWN-PROC UNKNOWN IMPLICIT-SAVE 0 0) (INTEGER 8 0 0 0 INTEGER ()) 0 0
() () 0 () () () 0 0)
477 'h5t_std_ref_dsetreg' 'h5global' '' 1 ((VARIABLE UNKNOWN-INTENT
UNKNOWN-PROC UNKNOWN IMPLICIT-SAVE 0 0) (INTEGER 8 0 0 0 INTEGER ()) 0 0
() () 0 () () () 0 0)
478 'h5t_std_ref_obj' 'h5global' '' 1 ((VARIABLE UNKNOWN-INTENT
UNKNOWN-PROC UNKNOWN IMPLICIT-SAVE 0 0) (INTEGER 8 0 0 0 INTEGER ()) 0 0
() () 0 () () () 0 0)
479 'h5t_std_u16be' 'h5global' '' 1 ((VARIABLE UNKNOWN-INTENT
UNKNOWN-PROC UNKNOWN IMPLICIT-SAVE 0 0) (INTEGER 8 0 0 0 INTEGER ()) 0 0
() () 0 () () () 0 0)
480 'h5t_std_u16le' 'h5global' '' 1 ((VARIABLE UNKNOWN-INTENT
UNKNOWN-PROC UNKNOWN IMPLICIT-SAVE 0 0) (INTEGER 8 0 0 0 INTEGER ()) 0 0
() () 0 () () () 0 0)
481 'h5t_std_u32be' 'h5global' '' 1 ((VARIABLE UNKNOWN-INTENT
UNKNOWN-PROC UNKNOWN IMPLICIT-SAVE 0 0) (INTEGER 8 0 0 0 INTEGER ()) 0 0
() () 0 () () () 0 0)
482 'h5t_std_u32le' 'h5global' '' 1 ((VARIABLE UNKNOWN-INTENT
UNKNOWN-PROC UNKNOWN IMPLICIT-SAVE 0 0) (INTEGER 8 0 0 0 INTEGER ()) 0 0
() () 0 () () () 0 0)
483 'h5t_std_u64be' 'h5global' '' 1 ((VARIABLE UNKNOWN-INTENT
UNKNOWN-PROC UNKNOWN IMPLICIT-SAVE 0 0) (INTEGER 8 0 0 0 INTEGER ()) 0 0
() () 0 () () () 0 0)
484 'h5t_std_u64le' 'h5global' '' 1 ((VARIABLE UNKNOWN-INTENT
UNKNOWN-PROC UNKNOWN IMPLICIT-SAVE 0 0) (INTEGER 8 0 0 0 INTEGER ()) 0 0
() () 0 () () () 0 0)
485 'h5t_std_u8be' 'h5global' '' 1 ((VARIABLE UNKNOWN-INTENT
UNKNOWN-PROC UNKNOWN IMPLICIT-SAVE 0 0) (INTEGER 8 0 0 0 INTEGER ()) 0 0
() () 0 () () () 0 0)
486 'h5t_std_u8le' 'h5global' '' 1 ((VARIABLE UNKNOWN-INTENT
UNKNOWN-PROC UNKNOWN IMPLICIT-SAVE 0 0) (INTEGER 8 0 0 0 INTEGER ()) 0 0
() () 0 () () () 0 0)
487 'h5t_str_error_f' 'h5global' '' 1 ((VARIABLE UNKNOWN-INTENT
UNKNOWN-PROC UNKNOWN IMPLICIT-SAVE 0 0) (INTEGER 4 0 0 0 INTEGER ()) 0 0
() () 0 () () () 0 0)
488 'h5t_str_nullpad_f' 'h5global' '' 1 ((VARIABLE UNKNOWN-INTENT
UNKNOWN-PROC UNKNOWN IMPLICIT-SAVE 0 0) (INTEGER 4 0 0 0 INTEGER ()) 0 0
() () 0 () () () 0 0)
489 'h5t_str_nullterm_f' 'h5global' '' 1 ((VARIABLE UNKNOWN-INTENT
UNKNOWN-PROC UNKNOWN IMPLICIT-SAVE 0 0) (INTEGER 4 0 0 0 INTEGER ()) 0 0
() () 0 () () () 0 0)
490 'h5t_str_spacepad_f' 'h5global' '' 1 ((VARIABLE UNKNOWN-INTENT
UNKNOWN-PROC UNKNOWN IMPLICIT-SAVE 0 0) (INTEGER 4 0 0 0 INTEGER ()) 0 0
() () 0 () () () 0 0)
491 'h5t_string' 'h5global' '' 1 ((VARIABLE UNKNOWN-INTENT UNKNOWN-PROC
UNKNOWN IMPLICIT-SAVE 0 0) (INTEGER 8 0 0 0 INTEGER ()) 0 0 () () 0 () ()
() 0 0)
492 'h5t_string_f' 'h5global' '' 1 ((VARIABLE UNKNOWN-INTENT
UNKNOWN-PROC UNKNOWN IMPLICIT-SAVE 0 0) (INTEGER 4 0 0 0 INTEGER ()) 0 0
() () 0 () () () 0 0)
493 'h5t_time_f' 'h5global' '' 1 ((VARIABLE UNKNOWN-INTENT UNKNOWN-PROC
UNKNOWN IMPLICIT-SAVE 0 0) (INTEGER 4 0 0 0 INTEGER ()) 0 0 () () 0 () ()
() 0 0)
494 'h5t_vlen_f' 'h5global' '' 1 ((VARIABLE UNKNOWN-INTENT UNKNOWN-PROC
UNKNOWN IMPLICIT-SAVE 0 0) (INTEGER 4 0 0 0 INTEGER ()) 0 0 () () 0 () ()
() 0 0)
495 'h5z_disable_edc_f' 'h5global' '' 1 ((VARIABLE UNKNOWN-INTENT
UNKNOWN-PROC UNKNOWN IMPLICIT-SAVE 0 0) (INTEGER 4 0 0 0 INTEGER ()) 0 0
() () 0 () () () 0 0)
496 'h5z_enable_edc_f' 'h5global' '' 1 ((VARIABLE UNKNOWN-INTENT
UNKNOWN-PROC UNKNOWN IMPLICIT-SAVE 0 0) (INTEGER 4 0 0 0 INTEGER ()) 0 0
() () 0 () () () 0 0)
497 'h5z_error_edc_f' 'h5global' '' 1 ((VARIABLE UNKNOWN-INTENT
UNKNOWN-PROC UNKNOWN IMPLICIT-SAVE 0 0) (INTEGER 4 0 0 0 INTEGER ()) 0 0
() () 0 () () () 0 0)
498 'h5z_filter_all_f' 'h5global' '' 1 ((VARIABLE UNKNOWN-INTENT
UNKNOWN-PROC UNKNOWN IMPLICIT-SAVE 0 0) (INTEGER 4 0 0 0 INTEGER ()) 0 0
() () 0 () () () 0 0)
499 'h5z_filter_decode_enabled_f' 'h5global' '' 1 ((VARIABLE
UNKNOWN-INTENT UNKNOWN-PROC UNKNOWN IMPLICIT-SAVE 0 0) (INTEGER 4 0 0 0
INTEGER ()) 0 0 () () 0 () () () 0 0)
500 'h5z_filter_deflate_f' 'h5global' '' 1 ((VARIABLE UNKNOWN-INTENT
UNKNOWN-PROC UNKNOWN IMPLICIT-SAVE 0 0) (INTEGER 4 0 0 0 INTEGER ()) 0 0
() () 0 () () () 0 0)
501 'h5z_filter_encode_enabled_f' 'h5global' '' 1 ((VARIABLE
UNKNOWN-INTENT UNKNOWN-PROC UNKNOWN IMPLICIT-SAVE 0 0) (INTEGER 4 0 0 0
INTEGER ()) 0 0 () () 0 () () () 0 0)
502 'h5z_filter_error_f' 'h5global' '' 1 ((VARIABLE UNKNOWN-INTENT
UNKNOWN-PROC UNKNOWN IMPLICIT-SAVE 0 0) (INTEGER 4 0 0 0 INTEGER ()) 0 0
() () 0 () () () 0 0)
503 'h5z_filter_fletcher32_f' 'h5global' '' 1 ((VARIABLE UNKNOWN-INTENT
UNKNOWN-PROC UNKNOWN IMPLICIT-SAVE 0 0) (INTEGER 4 0 0 0 INTEGER ()) 0 0
() () 0 () () () 0 0)
504 'h5z_filter_nbit_f' 'h5global' '' 1 ((VARIABLE UNKNOWN-INTENT
UNKNOWN-PROC UNKNOWN IMPLICIT-SAVE 0 0) (INTEGER 4 0 0 0 INTEGER ()) 0 0
() () 0 () () () 0 0)
505 'h5z_filter_none_f' 'h5global' '' 1 ((VARIABLE UNKNOWN-INTENT
UNKNOWN-PROC UNKNOWN IMPLICIT-SAVE 0 0) (INTEGER 4 0 0 0 INTEGER ()) 0 0
() () 0 () () () 0 0)
506 'h5z_filter_scaleoffset_f' 'h5global' '' 1 ((VARIABLE UNKNOWN-INTENT
UNKNOWN-PROC UNKNOWN IMPLICIT-SAVE 0 0) (INTEGER 4 0 0 0 INTEGER ()) 0 0
() () 0 () () () 0 0)
507 'h5z_filter_shuffle_f' 'h5global' '' 1 ((VARIABLE UNKNOWN-INTENT
UNKNOWN-PROC UNKNOWN IMPLICIT-SAVE 0 0) (INTEGER 4 0 0 0 INTEGER ()) 0 0
() () 0 () () () 0 0)
508 'h5z_filter_szip_f' 'h5global' '' 1 ((VARIABLE UNKNOWN-INTENT
UNKNOWN-PROC UNKNOWN IMPLICIT-SAVE 0 0) (INTEGER 4 0 0 0 INTEGER ()) 0 0
() () 0 () () () 0 0)
509 'h5z_flag_optional_f' 'h5global' '' 1 ((VARIABLE UNKNOWN-INTENT
UNKNOWN-PROC UNKNOWN IMPLICIT-SAVE 0 0) (INTEGER 4 0 0 0 INTEGER ()) 0 0
() () 0 () () () 0 0)
510 'h5z_no_edc_f' 'h5global' '' 1 ((VARIABLE UNKNOWN-INTENT
UNKNOWN-PROC UNKNOWN IMPLICIT-SAVE 0 0) (INTEGER 4 0 0 0 INTEGER ()) 0 0
() () 0 () () () 0 0)
511 'h5z_so_float_dscale_f' 'h5global' '' 1 ((VARIABLE UNKNOWN-INTENT
UNKNOWN-PROC UNKNOWN IMPLICIT-SAVE 0 0) (INTEGER 4 0 0 0 INTEGER ()) 0 0
() () 0 () () () 0 0)
512 'h5z_so_float_escale_f' 'h5global' '' 1 ((VARIABLE UNKNOWN-INTENT
UNKNOWN-PROC UNKNOWN IMPLICIT-SAVE 0 0) (INTEGER 4 0 0 0 INTEGER ()) 0 0
() () 0 () () () 0 0)
513 'h5z_so_int_f' 'h5global' '' 1 ((VARIABLE UNKNOWN-INTENT
UNKNOWN-PROC UNKNOWN IMPLICIT-SAVE 0 0) (INTEGER 4 0 0 0 INTEGER ()) 0 0
() () 0 () () () 0 0)
514 'h5z_so_int_minbits_default_f' 'h5global' '' 1 ((VARIABLE
UNKNOWN-INTENT UNKNOWN-PROC UNKNOWN IMPLICIT-SAVE 0 0) (INTEGER 4 0 0 0
INTEGER ()) 0 0 () () 0 () () () 0 0)
515 'haddr_t' 'h5fortran_types' '' 1 ((PARAMETER UNKNOWN-INTENT
UNKNOWN-PROC UNKNOWN IMPLICIT-SAVE 0 0) (INTEGER 4 0 0 0 INTEGER ()) 0 0
() (CONSTANT (INTEGER 4 0 0 0 INTEGER ()) 0 '8') () 0 () () () 0 0)
516 'haddr_undef_f' 'h5global' '' 1 ((VARIABLE UNKNOWN-INTENT
UNKNOWN-PROC UNKNOWN IMPLICIT-SAVE 0 0) (INTEGER 8 0 0 0 INTEGER ()) 0 0
() () 0 () () () 0 0)
517 'hdset_reg_ref_t_f' 'h5global' '' 1 ((PROCEDURE UNKNOWN-INTENT
UNKNOWN-PROC DECL UNKNOWN 0 0 FUNCTION GENERIC) (REAL 4 0 0 0 REAL ()) 0
0 () () 0 () () () 0 0)
518 'hid_t' 'h5fortran_types' '' 1 ((PARAMETER UNKNOWN-INTENT
UNKNOWN-PROC UNKNOWN IMPLICIT-SAVE 0 0) (INTEGER 4 0 0 0 INTEGER ()) 0 0
() (CONSTANT (INTEGER 4 0 0 0 INTEGER ()) 0 '8') () 0 () () () 0 0)
519 'hobj_ref_t_f' 'h5global' '' 1 ((PROCEDURE UNKNOWN-INTENT
UNKNOWN-PROC DECL UNKNOWN 0 0 FUNCTION GENERIC) (REAL 4 0 0 0 REAL ()) 0
0 () () 0 () () () 0 0)
520 'hsize_t' 'h5fortran_types' '' 1 ((PARAMETER UNKNOWN-INTENT
UNKNOWN-PROC UNKNOWN IMPLICIT-SAVE 0 0) (INTEGER 4 0 0 0 INTEGER ()) 0 0
() (CONSTANT (INTEGER 4 0 0 0 INTEGER ()) 0 '8') () 0 () () () 0 0)
521 'hssize_t' 'h5fortran_types' '' 1 ((PARAMETER UNKNOWN-INTENT
UNKNOWN-PROC UNKNOWN IMPLICIT-SAVE 0 0) (INTEGER 4 0 0 0 INTEGER ()) 0 0
() (CONSTANT (INTEGER 4 0 0 0 INTEGER ()) 0 '8') () 0 () () () 0 0)
522 'integer_types' 'h5global' '' 1 ((VARIABLE UNKNOWN-INTENT
UNKNOWN-PROC UNKNOWN IMPLICIT-SAVE 0 0 DIMENSION) (INTEGER 8 0 0 0
INTEGER ()) 0 0 () (1 0 EXPLICIT (CONSTANT (INTEGER 4 0 0 0 INTEGER ())
0 '1') (CONSTANT (INTEGER 4 0 0 0 INTEGER ()) 0 '27')) 0 () () () 0 0)
523 'integer_types_len' 'h5global' '' 1 ((PARAMETER UNKNOWN-INTENT
UNKNOWN-PROC UNKNOWN IMPLICIT-SAVE 0 0) (INTEGER 4 0 0 0 INTEGER ()) 0 0
() (CONSTANT (INTEGER 4 0 0 0 INTEGER ()) 0 '27') () 0 () () () 0 0)
524 'kind' '(intrinsic)' '' 1 ((PROCEDURE UNKNOWN-INTENT UNKNOWN-PROC
UNKNOWN UNKNOWN 0 0 FUNCTION) (INTEGER 4 0 0 0 INTEGER ()) 0 0 () () 524
() () () 0 0)
525 'num_native_integer_kind' 'h5global' '' 1 ((PARAMETER UNKNOWN-INTENT
UNKNOWN-PROC UNKNOWN IMPLICIT-SAVE 0 0) (INTEGER 4 0 0 0 INTEGER ()) 0 0
() (CONSTANT (INTEGER 4 0 0 0 INTEGER ()) 0 '5') () 0 () () () 0 0)
526 'object_namelen_default_f' 'h5fortran_types' '' 1 ((PARAMETER
UNKNOWN-INTENT UNKNOWN-PROC UNKNOWN IMPLICIT-SAVE 0 0) (INTEGER 8 0 0 0
INTEGER ()) 0 0 () (CONSTANT (INTEGER 8 0 0 0 INTEGER ()) 0 '-1') () 0 ()
() () 0 0)
527 'off_t' 'h5fortran_types' '' 1 ((PARAMETER UNKNOWN-INTENT
UNKNOWN-PROC UNKNOWN IMPLICIT-SAVE 0 0) (INTEGER 4 0 0 0 INTEGER ()) 0 0
() (CONSTANT (INTEGER 4 0 0 0 INTEGER ()) 0 '8') () 0 () () () 0 0)
528 'predef_types' 'h5global' '' 1 ((VARIABLE UNKNOWN-INTENT
UNKNOWN-PROC UNKNOWN IMPLICIT-SAVE 0 0 DIMENSION) (INTEGER 8 0 0 0
INTEGER ()) 0 0 () (1 0 EXPLICIT (CONSTANT (INTEGER 4 0 0 0 INTEGER ())
0 '1') (CONSTANT (INTEGER 4 0 0 0 INTEGER ()) 0 '19')) 0 () () () 0 0)
529 'predef_types_len' 'h5global' '' 1 ((PARAMETER UNKNOWN-INTENT
UNKNOWN-PROC UNKNOWN IMPLICIT-SAVE 0 0) (INTEGER 4 0 0 0 INTEGER ()) 0 0
() (CONSTANT (INTEGER 4 0 0 0 INTEGER ()) 0 '19') () 0 () () () 0 0)
530 'ref_reg_buf_len' 'h5global' '' 1 ((PARAMETER UNKNOWN-INTENT
UNKNOWN-PROC UNKNOWN IMPLICIT-SAVE 0 0) (INTEGER 4 0 0 0 INTEGER ()) 0 0
() (CONSTANT (INTEGER 4 0 0 0 INTEGER ()) 0 '3') () 0 () () () 0 0)
531 'size_t' 'h5fortran_types' '' 1 ((PARAMETER UNKNOWN-INTENT
UNKNOWN-PROC UNKNOWN IMPLICIT-SAVE 0 0) (INTEGER 4 0 0 0 INTEGER ()) 0 0
() (CONSTANT (INTEGER 4 0 0 0 INTEGER ()) 0 '8') () 0 () () () 0 0)
15 'C_ptr_1' '__iso_c_binding' '' 14 ((DERIVED IN UNKNOWN-PROC UNKNOWN
UNKNOWN 0 0 VALUE DUMMY) (DERIVED 3 0 0 0 DERIVED ()) 0 0 () () 0 () ()
() 0 0 0)
16 'C_ptr_2' '__iso_c_binding' '' 14 ((DERIVED IN UNKNOWN-PROC UNKNOWN
UNKNOWN 0 0 OPTIONAL VALUE DUMMY) (DERIVED 3 0 0 0 DERIVED ()) 0 0 () ()
0 () () () 0 0 0)
25 'Cptr' '__iso_c_binding' '' 24 ((DERIVED IN UNKNOWN-PROC UNKNOWN
UNKNOWN 0 0 VALUE DUMMY) (DERIVED 3 0 0 0 DERIVED ()) 0 0 () () 0 () ()
() 0 0 0)
26 'fptr' '__iso_c_binding' '' 24 ((VARIABLE UNKNOWN-INTENT UNKNOWN-PROC
UNKNOWN UNKNOWN 0 0 POINTER DUMMY) (VOID 0 0 0 0 VOID ()) 0 0 () () 0 ()
() () 0 0)
27 'shape' '__iso_c_binding' '' 24 ((VARIABLE IN UNKNOWN-PROC UNKNOWN
UNKNOWN 0 0 DIMENSION OPTIONAL DUMMY) (VOID 4 0 0 0 VOID ()) 0 0 () (1 0
ASSUMED_SHAPE (CONSTANT (INTEGER 4 0 0 0 INTEGER ()) 0 '1') ()) 0 () ()
() 0 0)
30 'Cptr' '__iso_c_binding' '' 29 ((DERIVED IN UNKNOWN-PROC UNKNOWN
UNKNOWN 0 0 VALUE DUMMY) (DERIVED 2 0 0 0 DERIVED ()) 0 0 () () 0 () ()
() 0 0 0)
31 'fptr' '__iso_c_binding' '' 29 ((VARIABLE UNKNOWN-INTENT UNKNOWN-PROC
UNKNOWN UNKNOWN 0 0 DUMMY PROC_POINTER) (VOID 0 0 0 0 VOID ()) 0 0 () ()
0 () () () 0 0)
74 'x' '' '' 73 ((VARIABLE IN UNKNOWN-PROC UNKNOWN UNKNOWN 0 0 DUMMY) (
UNKNOWN 0 0 0 0 UNKNOWN ()) 0 0 () () 0 () () () 0 0)
91 'c_string' '' '' 90 ((VARIABLE IN UNKNOWN-PROC UNKNOWN UNKNOWN 0 0
DUMMY) (CHARACTER 1 0 1 0 CHARACTER (())) 0 0 () () 0 () () () 0 0)
92 'f_string' '' '' 90 ((VARIABLE OUT UNKNOWN-PROC UNKNOWN UNKNOWN 0 0
DUMMY) (CHARACTER 1 0 0 0 CHARACTER (())) 0 0 () () 0 () () () 0 0)
95 'f_string' '' '' 94 ((VARIABLE IN UNKNOWN-PROC UNKNOWN UNKNOWN 0 0
DUMMY) (CHARACTER 1 0 0 0 CHARACTER (())) 0 0 () () 0 () () () 0 0)
96 'c_string' '' '' 94 ((VARIABLE OUT UNKNOWN-PROC UNKNOWN UNKNOWN 0 0
DUMMY) (CHARACTER 1 0 1 0 CHARACTER (())) 0 0 () () 0 () () () 0 0)
201 'grp_id' '' '' 200 ((VARIABLE IN UNKNOWN-PROC UNKNOWN UNKNOWN 0 0
DUMMY) (INTEGER 8 0 0 0 INTEGER ()) 0 0 () () 0 () () () 0 0)
202 'hdferr' '' '' 200 ((VARIABLE OUT UNKNOWN-PROC UNKNOWN UNKNOWN 0 0
DUMMY) (INTEGER 4 0 0 0 INTEGER ()) 0 0 () () 0 () () () 0 0)
205 'loc_id' '' '' 204 ((VARIABLE IN UNKNOWN-PROC UNKNOWN UNKNOWN 0 0
DUMMY) (INTEGER 8 0 0 0 INTEGER ()) 0 0 () () 0 () () () 0 0)
206 'grp_id' '' '' 204 ((VARIABLE OUT UNKNOWN-PROC UNKNOWN UNKNOWN 0 0
DUMMY) (INTEGER 8 0 0 0 INTEGER ()) 0 0 () () 0 () () () 0 0)
207 'hdferr' '' '' 204 ((VARIABLE OUT UNKNOWN-PROC UNKNOWN UNKNOWN 0 0
DUMMY) (INTEGER 4 0 0 0 INTEGER ()) 0 0 () () 0 () () () 0 0)
208 'gcpl_id' '' '' 204 ((VARIABLE IN UNKNOWN-PROC UNKNOWN UNKNOWN 0 0
OPTIONAL DUMMY) (INTEGER 8 0 0 0 INTEGER ()) 0 0 () () 0 () () () 0 0)
209 'gapl_id' '' '' 204 ((VARIABLE IN UNKNOWN-PROC UNKNOWN UNKNOWN 0 0
OPTIONAL DUMMY) (INTEGER 8 0 0 0 INTEGER ()) 0 0 () () 0 () () () 0 0)
212 'loc_id' '' '' 211 ((VARIABLE IN UNKNOWN-PROC UNKNOWN UNKNOWN 0 0
DUMMY) (INTEGER 8 0 0 0 INTEGER ()) 0 0 () () 0 () () () 0 0)
213 'name' '' '' 211 ((VARIABLE IN UNKNOWN-PROC UNKNOWN UNKNOWN 0 0
DUMMY) (CHARACTER 1 0 0 0 CHARACTER (())) 0 0 () () 0 () () () 0 0)
214 'grp_id' '' '' 211 ((VARIABLE OUT UNKNOWN-PROC UNKNOWN UNKNOWN 0 0
DUMMY) (INTEGER 8 0 0 0 INTEGER ()) 0 0 () () 0 () () () 0 0)
215 'hdferr' '' '' 211 ((VARIABLE OUT UNKNOWN-PROC UNKNOWN UNKNOWN 0 0
DUMMY) (INTEGER 4 0 0 0 INTEGER ()) 0 0 () () 0 () () () 0 0)
216 'size_hint' '' '' 211 ((VARIABLE IN UNKNOWN-PROC UNKNOWN UNKNOWN 0 0
OPTIONAL DUMMY) (INTEGER 8 0 0 0 INTEGER ()) 0 0 () () 0 () () () 0 0)
217 'lcpl_id' '' '' 211 ((VARIABLE IN UNKNOWN-PROC UNKNOWN UNKNOWN 0 0
OPTIONAL DUMMY) (INTEGER 8 0 0 0 INTEGER ()) 0 0 () () 0 () () () 0 0)
218 'gcpl_id' '' '' 211 ((VARIABLE IN UNKNOWN-PROC UNKNOWN UNKNOWN 0 0
OPTIONAL DUMMY) (INTEGER 8 0 0 0 INTEGER ()) 0 0 () () 0 () () () 0 0)
219 'gapl_id' '' '' 211 ((VARIABLE IN UNKNOWN-PROC UNKNOWN UNKNOWN 0 0
OPTIONAL DUMMY) (INTEGER 8 0 0 0 INTEGER ()) 0 0 () () 0 () () () 0 0)
222 'loc_id' '' '' 221 ((VARIABLE IN UNKNOWN-PROC UNKNOWN UNKNOWN 0 0
DUMMY) (INTEGER 8 0 0 0 INTEGER ()) 0 0 () () 0 () () () 0 0)
223 'name' '' '' 221 ((VARIABLE IN UNKNOWN-PROC UNKNOWN UNKNOWN 0 0
DUMMY) (CHARACTER 1 0 0 0 CHARACTER (())) 0 0 () () 0 () () () 0 0)
224 'size' '' '' 221 ((VARIABLE IN UNKNOWN-PROC UNKNOWN UNKNOWN 0 0
DUMMY) (INTEGER 8 0 0 0 INTEGER ()) 0 0 () () 0 () () () 0 0)
225 'buffer' '' '' 221 ((VARIABLE OUT UNKNOWN-PROC UNKNOWN UNKNOWN 0 0
DUMMY) (CHARACTER 1 0 0 0 CHARACTER ((VARIABLE (INTEGER 8 0 0 0 INTEGER
()) 0 224 ()))) 0 0 () () 0 () () () 0 0)
226 'hdferr' '' '' 221 ((VARIABLE OUT UNKNOWN-PROC UNKNOWN UNKNOWN 0 0
DUMMY) (INTEGER 4 0 0 0 INTEGER ()) 0 0 () () 0 () () () 0 0)
229 'grp_id' '' '' 228 ((VARIABLE IN UNKNOWN-PROC UNKNOWN UNKNOWN 0 0
DUMMY) (INTEGER 8 0 0 0 INTEGER ()) 0 0 () () 0 () () () 0 0)
230 'gcpl_id' '' '' 228 ((VARIABLE OUT UNKNOWN-PROC UNKNOWN UNKNOWN 0 0
DUMMY) (INTEGER 8 0 0 0 INTEGER ()) 0 0 () () 0 () () () 0 0)
231 'hdferr' '' '' 228 ((VARIABLE OUT UNKNOWN-PROC UNKNOWN UNKNOWN 0 0
DUMMY) (INTEGER 4 0 0 0 INTEGER ()) 0 0 () () 0 () () () 0 0)
234 'loc_id' '' '' 233 ((VARIABLE IN UNKNOWN-PROC UNKNOWN UNKNOWN 0 0
DUMMY) (INTEGER 8 0 0 0 INTEGER ()) 0 0 () () 0 () () () 0 0)
235 'group_name' '' '' 233 ((VARIABLE IN UNKNOWN-PROC UNKNOWN UNKNOWN 0
0 DUMMY) (CHARACTER 1 0 0 0 CHARACTER (())) 0 0 () () 0 () () () 0 0)
236 'index_type' '' '' 233 ((VARIABLE IN UNKNOWN-PROC UNKNOWN UNKNOWN 0
0 DUMMY) (INTEGER 4 0 0 0 INTEGER ()) 0 0 () () 0 () () () 0 0)
237 'order' '' '' 233 ((VARIABLE IN UNKNOWN-PROC UNKNOWN UNKNOWN 0 0
DUMMY) (INTEGER 4 0 0 0 INTEGER ()) 0 0 () () 0 () () () 0 0)
238 'n' '' '' 233 ((VARIABLE IN UNKNOWN-PROC UNKNOWN UNKNOWN 0 0 DUMMY)
(INTEGER 8 0 0 0 INTEGER ()) 0 0 () () 0 () () () 0 0)
239 'storage_type' '' '' 233 ((VARIABLE OUT UNKNOWN-PROC UNKNOWN UNKNOWN
0 0 DUMMY) (INTEGER 4 0 0 0 INTEGER ()) 0 0 () () 0 () () () 0 0)
240 'nlinks' '' '' 233 ((VARIABLE OUT UNKNOWN-PROC UNKNOWN UNKNOWN 0 0
DUMMY) (INTEGER 4 0 0 0 INTEGER ()) 0 0 () () 0 () () () 0 0)
241 'max_corder' '' '' 233 ((VARIABLE OUT UNKNOWN-PROC UNKNOWN UNKNOWN 0
0 DUMMY) (INTEGER 4 0 0 0 INTEGER ()) 0 0 () () 0 () () () 0 0)
242 'hdferr' '' '' 233 ((VARIABLE OUT UNKNOWN-PROC UNKNOWN UNKNOWN 0 0
DUMMY) (INTEGER 4 0 0 0 INTEGER ()) 0 0 () () 0 () () () 0 0)
243 'lapl_id' '' '' 233 ((VARIABLE IN UNKNOWN-PROC UNKNOWN UNKNOWN 0 0
OPTIONAL DUMMY) (INTEGER 8 0 0 0 INTEGER ()) 0 0 () () 0 () () () 0 0)
244 'mounted' '' '' 233 ((VARIABLE OUT UNKNOWN-PROC UNKNOWN UNKNOWN 0 0
OPTIONAL DUMMY) (LOGICAL 4 0 0 0 LOGICAL ()) 0 0 () () 0 () () () 0 0)
247 'loc_id' '' '' 246 ((VARIABLE IN UNKNOWN-PROC UNKNOWN UNKNOWN 0 0
DUMMY) (INTEGER 8 0 0 0 INTEGER ()) 0 0 () () 0 () () () 0 0)
248 'group_name' '' '' 246 ((VARIABLE IN UNKNOWN-PROC UNKNOWN UNKNOWN 0
0 DUMMY) (CHARACTER 1 0 0 0 CHARACTER (())) 0 0 () () 0 () () () 0 0)
249 'storage_type' '' '' 246 ((VARIABLE OUT UNKNOWN-PROC UNKNOWN UNKNOWN
0 0 DUMMY) (INTEGER 4 0 0 0 INTEGER ()) 0 0 () () 0 () () () 0 0)
250 'nlinks' '' '' 246 ((VARIABLE OUT UNKNOWN-PROC UNKNOWN UNKNOWN 0 0
DUMMY) (INTEGER 4 0 0 0 INTEGER ()) 0 0 () () 0 () () () 0 0)
251 'max_corder' '' '' 246 ((VARIABLE OUT UNKNOWN-PROC UNKNOWN UNKNOWN 0
0 DUMMY) (INTEGER 4 0 0 0 INTEGER ()) 0 0 () () 0 () () () 0 0)
252 'hdferr' '' '' 246 ((VARIABLE OUT UNKNOWN-PROC UNKNOWN UNKNOWN 0 0
DUMMY) (INTEGER 4 0 0 0 INTEGER ()) 0 0 () () 0 () () () 0 0)
253 'lapl_id' '' '' 246 ((VARIABLE IN UNKNOWN-PROC UNKNOWN UNKNOWN 0 0
OPTIONAL DUMMY) (INTEGER 8 0 0 0 INTEGER ()) 0 0 () () 0 () () () 0 0)
254 'mounted' '' '' 246 ((VARIABLE OUT UNKNOWN-PROC UNKNOWN UNKNOWN 0 0
OPTIONAL DUMMY) (LOGICAL 4 0 0 0 LOGICAL ()) 0 0 () () 0 () () () 0 0)
257 'group_id' '' '' 256 ((VARIABLE IN UNKNOWN-PROC UNKNOWN UNKNOWN 0 0
DUMMY) (INTEGER 8 0 0 0 INTEGER ()) 0 0 () () 0 () () () 0 0)
258 'storage_type' '' '' 256 ((VARIABLE OUT UNKNOWN-PROC UNKNOWN UNKNOWN
0 0 DUMMY) (INTEGER 4 0 0 0 INTEGER ()) 0 0 () () 0 () () () 0 0)
259 'nlinks' '' '' 256 ((VARIABLE OUT UNKNOWN-PROC UNKNOWN UNKNOWN 0 0
DUMMY) (INTEGER 4 0 0 0 INTEGER ()) 0 0 () () 0 () () () 0 0)
260 'max_corder' '' '' 256 ((VARIABLE OUT UNKNOWN-PROC UNKNOWN UNKNOWN 0
0 DUMMY) (INTEGER 4 0 0 0 INTEGER ()) 0 0 () () 0 () () () 0 0)
261 'hdferr' '' '' 256 ((VARIABLE OUT UNKNOWN-PROC UNKNOWN UNKNOWN 0 0
DUMMY) (INTEGER 4 0 0 0 INTEGER ()) 0 0 () () 0 () () () 0 0)
262 'mounted' '' '' 256 ((VARIABLE OUT UNKNOWN-PROC UNKNOWN UNKNOWN 0 0
OPTIONAL DUMMY) (LOGICAL 4 0 0 0 LOGICAL ()) 0 0 () () 0 () () () 0 0)
265 'loc_id' '' '' 264 ((VARIABLE IN UNKNOWN-PROC UNKNOWN UNKNOWN 0 0
DUMMY) (INTEGER 8 0 0 0 INTEGER ()) 0 0 () () 0 () () () 0 0)
266 'name' '' '' 264 ((VARIABLE IN UNKNOWN-PROC UNKNOWN UNKNOWN 0 0
DUMMY) (CHARACTER 1 0 0 0 CHARACTER (())) 0 0 () () 0 () () () 0 0)
267 'size' '' '' 264 ((VARIABLE IN UNKNOWN-PROC UNKNOWN UNKNOWN 0 0
DUMMY) (INTEGER 8 0 0 0 INTEGER ()) 0 0 () () 0 () () () 0 0)
268 'buffer' '' '' 264 ((VARIABLE OUT UNKNOWN-PROC UNKNOWN UNKNOWN 0 0
DUMMY) (CHARACTER 1 0 0 0 CHARACTER ((VARIABLE (INTEGER 8 0 0 0 INTEGER
()) 0 267 ()))) 0 0 () () 0 () () () 0 0)
269 'hdferr' '' '' 264 ((VARIABLE OUT UNKNOWN-PROC UNKNOWN UNKNOWN 0 0
DUMMY) (INTEGER 4 0 0 0 INTEGER ()) 0 0 () () 0 () () () 0 0)
272 'loc_id' '' '' 271 ((VARIABLE IN UNKNOWN-PROC UNKNOWN UNKNOWN 0 0
DUMMY) (INTEGER 8 0 0 0 INTEGER ()) 0 0 () () 0 () () () 0 0)
273 'name' '' '' 271 ((VARIABLE IN UNKNOWN-PROC UNKNOWN UNKNOWN 0 0
DUMMY) (CHARACTER 1 0 0 0 CHARACTER (())) 0 0 () () 0 () () () 0 0)
274 'idx' '' '' 271 ((VARIABLE IN UNKNOWN-PROC UNKNOWN UNKNOWN 0 0 DUMMY)
(INTEGER 4 0 0 0 INTEGER ()) 0 0 () () 0 () () () 0 0)
275 'obj_name' '' '' 271 ((VARIABLE OUT UNKNOWN-PROC UNKNOWN UNKNOWN 0 0
DUMMY) (CHARACTER 1 0 0 0 CHARACTER (())) 0 0 () () 0 () () () 0 0)
276 'obj_type' '' '' 271 ((VARIABLE OUT UNKNOWN-PROC UNKNOWN UNKNOWN 0 0
DUMMY) (INTEGER 4 0 0 0 INTEGER ()) 0 0 () () 0 () () () 0 0)
277 'hdferr' '' '' 271 ((VARIABLE OUT UNKNOWN-PROC UNKNOWN UNKNOWN 0 0
DUMMY) (INTEGER 4 0 0 0 INTEGER ()) 0 0 () () 0 () () () 0 0)
280 'cur_loc_id' '' '' 279 ((VARIABLE IN UNKNOWN-PROC UNKNOWN UNKNOWN 0
0 DUMMY) (INTEGER 8 0 0 0 INTEGER ()) 0 0 () () 0 () () () 0 0)
281 'cur_name' '' '' 279 ((VARIABLE IN UNKNOWN-PROC UNKNOWN UNKNOWN 0 0
DUMMY) (CHARACTER 1 0 0 0 CHARACTER (())) 0 0 () () 0 () () () 0 0)
282 'link_type' '' '' 279 ((VARIABLE IN UNKNOWN-PROC UNKNOWN UNKNOWN 0 0
DUMMY) (INTEGER 4 0 0 0 INTEGER ()) 0 0 () () 0 () () () 0 0)
283 'new_loc_id' '' '' 279 ((VARIABLE IN UNKNOWN-PROC UNKNOWN UNKNOWN 0
0 DUMMY) (INTEGER 8 0 0 0 INTEGER ()) 0 0 () () 0 () () () 0 0)
284 'new_name' '' '' 279 ((VARIABLE IN UNKNOWN-PROC UNKNOWN UNKNOWN 0 0
DUMMY) (CHARACTER 1 0 0 0 CHARACTER (())) 0 0 () () 0 () () () 0 0)
285 'hdferr' '' '' 279 ((VARIABLE OUT UNKNOWN-PROC UNKNOWN UNKNOWN 0 0
DUMMY) (INTEGER 4 0 0 0 INTEGER ()) 0 0 () () 0 () () () 0 0)
288 'loc_id' '' '' 287 ((VARIABLE IN UNKNOWN-PROC UNKNOWN UNKNOWN 0 0
DUMMY) (INTEGER 8 0 0 0 INTEGER ()) 0 0 () () 0 () () () 0 0)
289 'link_type' '' '' 287 ((VARIABLE IN UNKNOWN-PROC UNKNOWN UNKNOWN 0 0
DUMMY) (INTEGER 4 0 0 0 INTEGER ()) 0 0 () () 0 () () () 0 0)
290 'current_name' '' '' 287 ((VARIABLE IN UNKNOWN-PROC UNKNOWN UNKNOWN
0 0 DUMMY) (CHARACTER 1 0 0 0 CHARACTER (())) 0 0 () () 0 () () () 0 0)
291 'new_name' '' '' 287 ((VARIABLE IN UNKNOWN-PROC UNKNOWN UNKNOWN 0 0
DUMMY) (CHARACTER 1 0 0 0 CHARACTER (())) 0 0 () () 0 () () () 0 0)
292 'hdferr' '' '' 287 ((VARIABLE OUT UNKNOWN-PROC UNKNOWN UNKNOWN 0 0
DUMMY) (INTEGER 4 0 0 0 INTEGER ()) 0 0 () () 0 () () () 0 0)
296 'src_loc_id' '' '' 295 ((VARIABLE IN UNKNOWN-PROC UNKNOWN UNKNOWN 0
0 DUMMY) (INTEGER 8 0 0 0 INTEGER ()) 0 0 () () 0 () () () 0 0)
297 'src_name' '' '' 295 ((VARIABLE IN UNKNOWN-PROC UNKNOWN UNKNOWN 0 0
DUMMY) (CHARACTER 1 0 0 0 CHARACTER (())) 0 0 () () 0 () () () 0 0)
298 'dst_loc_id' '' '' 295 ((VARIABLE IN UNKNOWN-PROC UNKNOWN UNKNOWN 0
0 DUMMY) (INTEGER 8 0 0 0 INTEGER ()) 0 0 () () 0 () () () 0 0)
299 'dst_name' '' '' 295 ((VARIABLE IN UNKNOWN-PROC UNKNOWN UNKNOWN 0 0
DUMMY) (CHARACTER 1 0 0 0 CHARACTER (())) 0 0 () () 0 () () () 0 0)
300 'hdferr' '' '' 295 ((VARIABLE OUT UNKNOWN-PROC UNKNOWN UNKNOWN 0 0
DUMMY) (INTEGER 4 0 0 0 INTEGER ()) 0 0 () () 0 () () () 0 0)
303 'loc_id' '' '' 302 ((VARIABLE IN UNKNOWN-PROC UNKNOWN UNKNOWN 0 0
DUMMY) (INTEGER 8 0 0 0 INTEGER ()) 0 0 () () 0 () () () 0 0)
304 'name' '' '' 302 ((VARIABLE IN UNKNOWN-PROC UNKNOWN UNKNOWN 0 0
DUMMY) (CHARACTER 1 0 0 0 CHARACTER (())) 0 0 () () 0 () () () 0 0)
305 'new_name' '' '' 302 ((VARIABLE IN UNKNOWN-PROC UNKNOWN UNKNOWN 0 0
DUMMY) (CHARACTER 1 0 0 0 CHARACTER (())) 0 0 () () 0 () () () 0 0)
306 'hdferr' '' '' 302 ((VARIABLE OUT UNKNOWN-PROC UNKNOWN UNKNOWN 0 0
DUMMY) (INTEGER 4 0 0 0 INTEGER ()) 0 0 () () 0 () () () 0 0)
309 'loc_id' '' '' 308 ((VARIABLE IN UNKNOWN-PROC UNKNOWN UNKNOWN 0 0
DUMMY) (INTEGER 8 0 0 0 INTEGER ()) 0 0 () () 0 () () () 0 0)
310 'name' '' '' 308 ((VARIABLE IN UNKNOWN-PROC UNKNOWN UNKNOWN 0 0
DUMMY) (CHARACTER 1 0 0 0 CHARACTER (())) 0 0 () () 0 () () () 0 0)
311 'nmembers' '' '' 308 ((VARIABLE OUT UNKNOWN-PROC UNKNOWN UNKNOWN 0 0
DUMMY) (INTEGER 4 0 0 0 INTEGER ()) 0 0 () () 0 () () () 0 0)
312 'hdferr' '' '' 308 ((VARIABLE OUT UNKNOWN-PROC UNKNOWN UNKNOWN 0 0
DUMMY) (INTEGER 4 0 0 0 INTEGER ()) 0 0 () () 0 () () () 0 0)
315 'loc_id' '' '' 314 ((VARIABLE IN UNKNOWN-PROC UNKNOWN UNKNOWN 0 0
DUMMY) (INTEGER 8 0 0 0 INTEGER ()) 0 0 () () 0 () () () 0 0)
316 'name' '' '' 314 ((VARIABLE IN UNKNOWN-PROC UNKNOWN UNKNOWN 0 0
DUMMY) (CHARACTER 1 0 0 0 CHARACTER (())) 0 0 () () 0 () () () 0 0)
317 'grp_id' '' '' 314 ((VARIABLE OUT UNKNOWN-PROC UNKNOWN UNKNOWN 0 0
DUMMY) (INTEGER 8 0 0 0 INTEGER ()) 0 0 () () 0 () () () 0 0)
318 'hdferr' '' '' 314 ((VARIABLE OUT UNKNOWN-PROC UNKNOWN UNKNOWN 0 0
DUMMY) (INTEGER 4 0 0 0 INTEGER ()) 0 0 () () 0 () () () 0 0)
319 'gapl_id' '' '' 314 ((VARIABLE IN UNKNOWN-PROC UNKNOWN UNKNOWN 0 0
OPTIONAL DUMMY) (INTEGER 8 0 0 0 INTEGER ()) 0 0 () () 0 () () () 0 0)
322 'loc_id' '' '' 321 ((VARIABLE IN UNKNOWN-PROC UNKNOWN UNKNOWN 0 0
DUMMY) (INTEGER 8 0 0 0 INTEGER ()) 0 0 () () 0 () () () 0 0)
323 'name' '' '' 321 ((VARIABLE IN UNKNOWN-PROC UNKNOWN UNKNOWN 0 0
DUMMY) (CHARACTER 1 0 0 0 CHARACTER (())) 0 0 () () 0 () () () 0 0)
324 'comment' '' '' 321 ((VARIABLE IN UNKNOWN-PROC UNKNOWN UNKNOWN 0 0
DUMMY) (CHARACTER 1 0 0 0 CHARACTER (())) 0 0 () () 0 () () () 0 0)
325 'hdferr' '' '' 321 ((VARIABLE OUT UNKNOWN-PROC UNKNOWN UNKNOWN 0 0
DUMMY) (INTEGER 4 0 0 0 INTEGER ()) 0 0 () () 0 () () () 0 0)
328 'loc_id' '' '' 327 ((VARIABLE IN UNKNOWN-PROC UNKNOWN UNKNOWN 0 0
DUMMY) (INTEGER 8 0 0 0 INTEGER ()) 0 0 () () 0 () () () 0 0)
329 'name' '' '' 327 ((VARIABLE IN UNKNOWN-PROC UNKNOWN UNKNOWN 0 0
DUMMY) (CHARACTER 1 0 0 0 CHARACTER (())) 0 0 () () 0 () () () 0 0)
330 'hdferr' '' '' 327 ((VARIABLE OUT UNKNOWN-PROC UNKNOWN UNKNOWN 0 0
DUMMY) (INTEGER 4 0 0 0 INTEGER ()) 0 0 () () 0 () () () 0 0)
)

('C_funptr' 0 2 'C_ptr' 0 3 'Hdset_reg_ref_t_f' 0 4 'Hobj_ref_t_f' 0 5
'__convert_i4_i8' 0 10 '__iso_c_binding' 0 11 'c_alert' 0 12
'c_associated' 0 13 'c_backspace' 0 17 'c_bool' 0 18 'c_carriage_return'
0 19 'c_char' 0 20 'c_double' 0 21 'c_double_complex' 0 22 'c_f_pointer'
0 23 'c_f_procpointer' 0 28 'c_float' 0 32 'c_float128' 0 33
'c_float128_complex' 0 34 'c_float_complex' 0 35 'c_form_feed' 0 36
'c_funloc' 0 37 'c_funptr' 0 38 'c_horizontal_tab' 0 39 'c_int' 0 40
'c_int128_t' 0 41 'c_int16_t' 0 42 'c_int32_t' 0 43 'c_int64_t' 0 44
'c_int8_t' 0 45 'c_int_fast128_t' 0 46 'c_int_fast16_t' 0 47
'c_int_fast32_t' 0 48 'c_int_fast64_t' 0 49 'c_int_fast8_t' 0 50
'c_int_least128_t' 0 51 'c_int_least16_t' 0 52 'c_int_least32_t' 0 53
'c_int_least64_t' 0 54 'c_int_least8_t' 0 55 'c_intmax_t' 0 56
'c_intptr_t' 0 57 'c_loc' 0 58 'c_long' 0 59 'c_long_double' 0 60
'c_long_double_complex' 0 61 'c_long_long' 0 62 'c_new_line' 0 63
'c_null_char' 0 64 'c_null_funptr' 0 65 'c_null_ptr' 0 66 'c_ptr' 0 67
'c_ptrdiff_t' 0 68 'c_short' 0 69 'c_signed_char' 0 70 'c_size_t' 0 71
'c_sizeof' 0 72 'c_vertical_tab' 0 75 'enum_dtype' 0 76 'enum_t' 0 77
'floating_types' 0 78 'floating_types_len' 0 79 'fortran_double' 0 80
'fortran_integer' 0 81 'fortran_integer_avail_kinds' 0 82 'fortran_real'
0 83 'fortran_real_c_double' 0 84 'fortran_real_c_float' 0 85
'fortran_real_c_float128' 0 86 'fortran_real_c_long_double' 0 87
'h5_fortran_num_integer_kinds' 0 88 'h5_fortran_string_c2f' 0 89
'h5_fortran_string_f2c' 0 93 'h5_index_crt_order_f' 0 97 'h5_index_n_f'
0 98 'h5_index_name_f' 0 99 'h5_index_unknown_f' 0 100 'h5_integer_kind'
0 101 'h5_iter_dec_f' 0 102 'h5_iter_inc_f' 0 103 'h5_iter_n_f' 0 104
'h5_iter_native_f' 0 105 'h5_iter_unknown_f' 0 106 'h5_real_kind' 0 107
'h5_szip_ec_om_f' 0 108 'h5_szip_nn_om_f' 0 109 'h5d_alloc_time_default_f'
0 110 'h5d_alloc_time_early_f' 0 111 'h5d_alloc_time_error_f' 0 112
'h5d_alloc_time_incr_f' 0 113 'h5d_alloc_time_late_f' 0 114
'h5d_chunk_cache_nbytes_dflt_f' 0 115 'h5d_chunk_cache_nslots_dflt_f' 0
116 'h5d_chunk_cache_w0_dflt_f' 0 117 'h5d_chunked_f' 0 118
'h5d_compact_f' 0 119 'h5d_contiguous_f' 0 120 'h5d_fill_time_alloc_f' 0
121 'h5d_fill_time_error_f' 0 122 'h5d_fill_time_never_f' 0 123
'h5d_fill_value_default_f' 0 124 'h5d_fill_value_error_f' 0 125
'h5d_fill_value_undefined_f' 0 126 'h5d_fill_value_user_defined_f' 0 127
'h5d_mpio_chunk_collective_f' 0 128 'h5d_mpio_chunk_independent_f' 0 129
'h5d_mpio_chunk_mixed_f' 0 130 'h5d_mpio_contig_collective_f' 0 131
'h5d_mpio_no_collective_f' 0 132 'h5d_space_sts_allocated_f' 0 133
'h5d_space_sts_error_f' 0 134 'h5d_space_sts_not_allocated_f' 0 135
'h5d_space_sts_part_allocated_f' 0 136 'h5d_vds_error_f' 0 137
'h5d_vds_first_missing_f' 0 138 'h5d_vds_last_available_f' 0 139
'h5d_virtual_f' 0 140 'h5e_default_f' 0 141 'h5e_major_f' 0 142
'h5e_minor_f' 0 143 'h5e_walk_downward_f' 0 144 'h5e_walk_upward_f' 0
145 'h5f_acc_debug_f' 0 146 'h5f_acc_excl_f' 0 147 'h5f_acc_rdonly_f' 0
148 'h5f_acc_rdwr_f' 0 149 'h5f_acc_trunc_f' 0 150 'h5f_close_default_f'
0 151 'h5f_close_semi_f' 0 152 'h5f_close_strong_f' 0 153
'h5f_close_weak_f' 0 154 'h5f_libver_earliest_f' 0 155
'h5f_libver_latest_f' 0 156 'h5f_obj_all_f' 0 157 'h5f_obj_dataset_f' 0
158 'h5f_obj_datatype_f' 0 159 'h5f_obj_file_f' 0 160 'h5f_obj_group_f'
0 161 'h5f_scope_global_f' 0 162 'h5f_scope_local_f' 0 163
'h5f_unlimited_f' 0 164 'h5fd_core_f' 0 165 'h5fd_family_f' 0 166
'h5fd_log_f' 0 167 'h5fd_mem_btree_f' 0 168 'h5fd_mem_default_f' 0 169
'h5fd_mem_draw_f' 0 170 'h5fd_mem_gheap_f' 0 171 'h5fd_mem_lheap_f' 0
172 'h5fd_mem_nolist_f' 0 173 'h5fd_mem_ntypes_f' 0 174 'h5fd_mem_ohdr_f'
0 175 'h5fd_mem_super_f' 0 176 'h5fd_mpio_collective_f' 0 177
'h5fd_mpio_f' 0 178 'h5fd_mpio_independent_f' 0 179 'h5fd_multi_f' 0 180
'h5fd_sec2_f' 0 181 'h5fd_stdio_f' 0 182 'h5fortran_types' 0 183 'h5g' 0
184 'h5g_dataset_f' 0 185 'h5g_group_f' 0 186 'h5g_link_error_f' 0 187
'h5g_link_f' 0 188 'h5g_link_hard_f' 0 189 'h5g_link_soft_f' 0 190
'h5g_same_loc_f' 0 191 'h5g_storage_type_compact_f' 0 192
'h5g_storage_type_dense_f' 0 193 'h5g_storage_type_symbol_table_f' 0 194
'h5g_storage_type_unknown_f' 0 195 'h5g_type_f' 0 196 'h5g_udlink_f' 0
197 'h5g_unknown_f' 0 198 'h5gclose_f' 0 199 'h5gcreate_anon_f' 0 203
'h5gcreate_f' 0 210 'h5gget_comment_f' 0 220 'h5gget_create_plist_f' 0
227 'h5gget_info_by_idx_f' 0 232 'h5gget_info_by_name_f' 0 245
'h5gget_info_f' 0 255 'h5gget_linkval_f' 0 263 'h5gget_obj_info_idx_f' 0
270 'h5glink2_f' 0 278 'h5glink_f' 0 286 'h5global' 0 293 'h5gmove2_f' 0
294 'h5gmove_f' 0 301 'h5gn_members_f' 0 307 'h5gopen_f' 0 313
'h5gset_comment_f' 0 320 'h5gunlink_f' 0 326 'h5i_attr_f' 0 331
'h5i_badid_f' 0 332 'h5i_dataset_f' 0 333 'h5i_dataspace_f' 0 334
'h5i_datatype_f' 0 335 'h5i_file_f' 0 336 'h5i_group_f' 0 337
'h5l_link_class_t_vers_f' 0 338 'h5l_same_loc_f' 0 339 'h5l_type_error_f'
0 340 'h5l_type_external_f' 0 341 'h5l_type_hard_f' 0 342
'h5l_type_soft_f' 0 343 'h5o_copy_all_f' 0 344
'h5o_copy_expand_ext_link_f' 0 345 'h5o_copy_expand_reference_f' 0 346
'h5o_copy_expand_soft_link_f' 0 347 'h5o_copy_preserve_null_flag_f' 0
348 'h5o_copy_shallow_hierarchy_f' 0 349 'h5o_copy_without_attr_flag_f'
0 350 'h5o_hdr_all_flags_f' 0 351 'h5o_hdr_attr_crt_order_index_f' 0 352
'h5o_hdr_attr_crt_order_track_f' 0 353 'h5o_hdr_attr_store_phase_cha_f'
0 354 'h5o_hdr_chunk0_size_f' 0 355 'h5o_hdr_store_times_f' 0 356
'h5o_shmesg_all_flag_f' 0 357 'h5o_shmesg_attr_flag_f' 0 358
'h5o_shmesg_dtype_flag_f' 0 359 'h5o_shmesg_fill_flag_f' 0 360
'h5o_shmesg_max_list_size_f' 0 361 'h5o_shmesg_max_nindexes_f' 0 362
'h5o_shmesg_none_flag_f' 0 363 'h5o_shmesg_pline_flag_f' 0 364
'h5o_shmesg_sdspace_flag_f' 0 365 'h5o_type_dataset_f' 0 366
'h5o_type_group_f' 0 367 'h5o_type_named_datatype_f' 0 368
'h5o_type_ntypes_f' 0 369 'h5o_type_unknown_f' 0 370
'h5p_attribute_create_f' 0 371 'h5p_crt_order_indexed_f' 0 372
'h5p_crt_order_tracked_f' 0 373 'h5p_dataset_access_f' 0 374
'h5p_dataset_create_f' 0 375 'h5p_dataset_xfer_f' 0 376
'h5p_datatype_access_f' 0 377 'h5p_datatype_create_f' 0 378
'h5p_default_f' 0 379 'h5p_file_access_f' 0 380 'h5p_file_create_f' 0
381 'h5p_file_mount_f' 0 382 'h5p_group_access_f' 0 383
'h5p_group_create_f' 0 384 'h5p_link_access_f' 0 385 'h5p_link_create_f'
0 386 'h5p_object_copy_f' 0 387 'h5p_object_create_f' 0 388 'h5p_root_f'
0 389 'h5p_string_create_f' 0 390 'h5r_dataset_region_f' 0 391
'h5r_dset_reg_ref_buf_size_f' 0 392 'h5r_object_f' 0 393 'h5s_all_f' 0
394 'h5s_null_f' 0 395 'h5s_scalar_f' 0 396 'h5s_sel_all_f' 0 397
'h5s_sel_error_f' 0 398 'h5s_sel_hyperslabs_f' 0 399 'h5s_sel_none_f' 0
400 'h5s_sel_points_f' 0 401 'h5s_select_and_f' 0 402
'h5s_select_append_f' 0 403 'h5s_select_invalid_f' 0 404
'h5s_select_noop_f' 0 405 'h5s_select_nota_f' 0 406 'h5s_select_notb_f'
0 407 'h5s_select_or_f' 0 408 'h5s_select_prepend_f' 0 409
'h5s_select_set_f' 0 410 'h5s_select_xor_f' 0 411 'h5s_simple_f' 0 412
'h5s_unlimited_f' 0 413 'h5t_array_f' 0 414 'h5t_bitfield_f' 0 415
'h5t_c_s1' 0 416 'h5t_compound_f' 0 417 'h5t_cset_ascii_f' 0 418
'h5t_cset_utf8_f' 0 419 'h5t_dir_ascend_f' 0 420 'h5t_dir_descend_f' 0
421 'h5t_enum_f' 0 422 'h5t_float_f' 0 423 'h5t_fortran_s1' 0 424
'h5t_ieee_f32be' 0 425 'h5t_ieee_f32le' 0 426 'h5t_ieee_f64be' 0 427
'h5t_ieee_f64le' 0 428 'h5t_integer_f' 0 429 'h5t_native_b16' 0 430
'h5t_native_b32' 0 431 'h5t_native_b64' 0 432 'h5t_native_b8' 0 433
'h5t_native_character' 0 434 'h5t_native_double' 0 435
'h5t_native_float_128' 0 436 'h5t_native_integer' 0 437
'h5t_native_integer_kind' 0 438 'h5t_native_real' 0 439
'h5t_native_real_c_double' 0 440 'h5t_native_real_c_float' 0 441
'h5t_native_real_c_long_double' 0 442 'h5t_no_class_f' 0 443
'h5t_norm_implied_f' 0 444 'h5t_norm_msbset_f' 0 445 'h5t_norm_none_f' 0
446 'h5t_opaque_f' 0 447 'h5t_order_be_f' 0 448 'h5t_order_le_f' 0 449
'h5t_order_mixed_f' 0 450 'h5t_order_none_f' 0 451 'h5t_order_vax_f' 0
452 'h5t_pad_background_f' 0 453 'h5t_pad_error_f' 0 454 'h5t_pad_one_f'
0 455 'h5t_pad_zero_f' 0 456 'h5t_reference_f' 0 457 'h5t_sgn_2_f' 0 458
'h5t_sgn_error_f' 0 459 'h5t_sgn_none_f' 0 460 'h5t_std_b16be' 0 461
'h5t_std_b16le' 0 462 'h5t_std_b32be' 0 463 'h5t_std_b32le' 0 464
'h5t_std_b64be' 0 465 'h5t_std_b64le' 0 466 'h5t_std_b8be' 0 467
'h5t_std_b8le' 0 468 'h5t_std_i16be' 0 469 'h5t_std_i16le' 0 470
'h5t_std_i32be' 0 471 'h5t_std_i32le' 0 472 'h5t_std_i64be' 0 473
'h5t_std_i64le' 0 474 'h5t_std_i8be' 0 475 'h5t_std_i8le' 0 476
'h5t_std_ref_dsetreg' 0 477 'h5t_std_ref_obj' 0 478 'h5t_std_u16be' 0
479 'h5t_std_u16le' 0 480 'h5t_std_u32be' 0 481 'h5t_std_u32le' 0 482
'h5t_std_u64be' 0 483 'h5t_std_u64le' 0 484 'h5t_std_u8be' 0 485
'h5t_std_u8le' 0 486 'h5t_str_error_f' 0 487 'h5t_str_nullpad_f' 0 488
'h5t_str_nullterm_f' 0 489 'h5t_str_spacepad_f' 0 490 'h5t_string' 0 491
'h5t_string_f' 0 492 'h5t_time_f' 0 493 'h5t_vlen_f' 0 494
'h5z_disable_edc_f' 0 495 'h5z_enable_edc_f' 0 496 'h5z_error_edc_f' 0
497 'h5z_filter_all_f' 0 498 'h5z_filter_decode_enabled_f' 0 499
'h5z_filter_deflate_f' 0 500 'h5z_filter_encode_enabled_f' 0 501
'h5z_filter_error_f' 0 502 'h5z_filter_fletcher32_f' 0 503
'h5z_filter_nbit_f' 0 504 'h5z_filter_none_f' 0 505
'h5z_filter_scaleoffset_f' 0 506 'h5z_filter_shuffle_f' 0 507
'h5z_filter_szip_f' 0 508 'h5z_flag_optional_f' 0 509 'h5z_no_edc_f' 0
510 'h5z_so_float_dscale_f' 0 511 'h5z_so_float_escale_f' 0 512
'h5z_so_int_f' 0 513 'h5z_so_int_minbits_default_f' 0 514 'haddr_t' 0
515 'haddr_undef_f' 0 516 'hdset_reg_ref_t_f' 0 517 'hid_t' 0 518
'hobj_ref_t_f' 0 519 'hsize_t' 0 520 'hssize_t' 0 521 'integer_types' 0
522 'integer_types_len' 0 523 'kind' 0 524 'num_native_integer_kind' 0
525 'object_namelen_default_f' 0 526 'off_t' 0 527 'predef_types' 0 528
'predef_types_len' 0 529 'ref_reg_buf_len' 0 530 'size_t' 0 531)
