GFORTRAN module version '10' created from tstlite.F90
MD5:65003bd0a45d8597422276005ee2ae07 -- If you edit this, you'll get what you deserve.

(() () () () () () () () () () () () () () () () () () () () () () ()
() () () ())

()

(('c_funptr' '__iso_c_binding' 2) ('c_ptr' '__iso_c_binding' 3) (
'check_real_eq' 'th5_misc_gen' 4 5 6 7) ('verify' 'th5_misc_gen' 8 9 10
11 12 13 14 15 16 17 18))

()

()

()

(2 'C_funptr' '__iso_c_binding' '' 1 ((DERIVED UNKNOWN-INTENT
UNKNOWN-PROC UNKNOWN UNKNOWN 0 0 IS_BIND_C IS_C_INTEROP IS_ISO_C) (
DERIVED 2 0 1 1 UNKNOWN ()) 0 0 () () 0 ((19 '__c_funptr_c_address' (
INTEGER 8 0 1 0 INTEGER ()) () (UNKNOWN-FL UNKNOWN-INTENT UNKNOWN-PROC
UNKNOWN UNKNOWN 0 0) UNKNOWN-ACCESS ())) UNKNOWN-ACCESS () () 2 44 0)
3 'C_ptr' '__iso_c_binding' '' 1 ((DERIVED UNKNOWN-INTENT UNKNOWN-PROC
UNKNOWN UNKNOWN 0 0 IS_BIND_C IS_C_INTEROP IS_ISO_C) (DERIVED 3 0 1 1
UNKNOWN ()) 0 0 () () 0 ((20 '__c_ptr_c_address' (INTEGER 8 0 1 0
INTEGER ()) () (UNKNOWN-FL UNKNOWN-INTENT UNKNOWN-PROC UNKNOWN UNKNOWN 0
0) UNKNOWN-ACCESS ())) UNKNOWN-ACCESS () () 2 42 0)
21 '__iso_c_binding' '__iso_c_binding' '' 1 ((MODULE UNKNOWN-INTENT
UNKNOWN-PROC UNKNOWN UNKNOWN 0 0 INTRINSIC) (UNKNOWN 0 0 0 0 UNKNOWN ())
0 0 () () 0 () () () 2 0)
22 'c_alert' '__iso_c_binding' '' 1 ((PARAMETER UNKNOWN-INTENT
UNKNOWN-PROC UNKNOWN UNKNOWN 0 0 IS_C_INTEROP IS_ISO_C) (CHARACTER 1 0 1
1 CHARACTER ((CONSTANT (INTEGER 4 0 0 0 INTEGER ()) 0 '1'))) 0 0 () (
CONSTANT (CHARACTER 1 0 1 1 UNKNOWN (())) 0 1 '\U00000007') () 0 () () ()
2 35)
23 'c_associated' '__iso_c_binding' '__iso_c_binding_c_associated' 1 ((
PROCEDURE UNKNOWN-INTENT MODULE-PROC DECL UNKNOWN 0 0 FUNCTION
ALWAYS_EXPLICIT IS_ISO_C) (LOGICAL 4 0 0 0 LOGICAL ()) 24 0 (25 26) ()
23 () () () 2 47)
27 'c_backspace' '__iso_c_binding' '' 1 ((PARAMETER UNKNOWN-INTENT
UNKNOWN-PROC UNKNOWN UNKNOWN 0 0 IS_C_INTEROP IS_ISO_C) (CHARACTER 1 0 1
1 CHARACTER ((CONSTANT (INTEGER 4 0 0 0 INTEGER ()) 0 '1'))) 0 0 () (
CONSTANT (CHARACTER 1 0 1 1 UNKNOWN (())) 0 1 '\U00000008') () 0 () () ()
2 36)
28 'c_bool' '__iso_c_binding' '' 1 ((PARAMETER UNKNOWN-INTENT
UNKNOWN-PROC UNKNOWN UNKNOWN 0 0 IS_C_INTEROP IS_ISO_C) (INTEGER 4 0 1 1
LOGICAL ()) 0 0 () (CONSTANT (INTEGER 4 0 1 1 UNKNOWN ()) 0 '1') () 0 ()
() () 2 32)
29 'c_carriage_return' '__iso_c_binding' '' 1 ((PARAMETER UNKNOWN-INTENT
UNKNOWN-PROC UNKNOWN UNKNOWN 0 0 IS_C_INTEROP IS_ISO_C) (CHARACTER 1 0 1
1 CHARACTER ((CONSTANT (INTEGER 4 0 0 0 INTEGER ()) 0 '1'))) 0 0 () (
CONSTANT (CHARACTER 1 0 1 1 UNKNOWN (())) 0 1 '\U0000000d') () 0 () () ()
2 39)
30 'c_char' '__iso_c_binding' '' 1 ((PARAMETER UNKNOWN-INTENT
UNKNOWN-PROC UNKNOWN UNKNOWN 0 0 IS_C_INTEROP IS_ISO_C) (INTEGER 4 0 1 1
CHARACTER ()) 0 0 () (CONSTANT (INTEGER 4 0 1 1 UNKNOWN ()) 0 '1') () 0
() () () 2 33)
31 'c_double' '__iso_c_binding' '' 1 ((PARAMETER UNKNOWN-INTENT
UNKNOWN-PROC UNKNOWN UNKNOWN 0 0 IS_C_INTEROP IS_ISO_C) (INTEGER 4 0 1 1
REAL ()) 0 0 () (CONSTANT (INTEGER 4 0 1 1 UNKNOWN ()) 0 '8') () 0 () ()
() 2 25)
32 'c_double_complex' '__iso_c_binding' '' 1 ((PARAMETER UNKNOWN-INTENT
UNKNOWN-PROC UNKNOWN UNKNOWN 0 0 IS_C_INTEROP IS_ISO_C) (INTEGER 4 0 1 1
COMPLEX ()) 0 0 () (CONSTANT (INTEGER 4 0 1 1 UNKNOWN ()) 0 '8') () 0 ()
() () 2 29)
33 'c_f_pointer' '__iso_c_binding' '__iso_c_binding_c_f_pointer' 1 ((
PROCEDURE UNKNOWN-INTENT MODULE-PROC DECL UNKNOWN 0 0 SUBROUTINE
ALWAYS_EXPLICIT IS_ISO_C) (UNKNOWN 0 0 0 0 UNKNOWN ()) 34 0 (35 36 37) ()
0 () () () 2 46)
38 'c_f_procpointer' '__iso_c_binding' '__iso_c_binding_c_f_procpointer'
1 ((PROCEDURE UNKNOWN-INTENT MODULE-PROC DECL UNKNOWN 0 0 SUBROUTINE
IS_ISO_C) (UNKNOWN 0 0 0 0 UNKNOWN ()) 39 0 (40 41) () 0 () () () 2 50)
42 'c_float' '__iso_c_binding' '' 1 ((PARAMETER UNKNOWN-INTENT
UNKNOWN-PROC UNKNOWN UNKNOWN 0 0 IS_C_INTEROP IS_ISO_C) (INTEGER 4 0 1 1
REAL ()) 0 0 () (CONSTANT (INTEGER 4 0 1 1 UNKNOWN ()) 0 '4') () 0 () ()
() 2 24)
43 'c_float128' '__iso_c_binding' '' 1 ((PARAMETER UNKNOWN-INTENT
UNKNOWN-PROC UNKNOWN UNKNOWN 0 0 IS_C_INTEROP IS_ISO_C) (INTEGER 4 0 1 1
REAL ()) 0 0 () (CONSTANT (INTEGER 4 0 1 1 UNKNOWN ()) 0 '16') () 0 () ()
() 2 27)
44 'c_float128_complex' '__iso_c_binding' '' 1 ((PARAMETER
UNKNOWN-INTENT UNKNOWN-PROC UNKNOWN UNKNOWN 0 0 IS_C_INTEROP IS_ISO_C) (
INTEGER 4 0 1 1 COMPLEX ()) 0 0 () (CONSTANT (INTEGER 4 0 1 1 UNKNOWN ())
0 '16') () 0 () () () 2 31)
45 'c_float_complex' '__iso_c_binding' '' 1 ((PARAMETER UNKNOWN-INTENT
UNKNOWN-PROC UNKNOWN UNKNOWN 0 0 IS_C_INTEROP IS_ISO_C) (INTEGER 4 0 1 1
COMPLEX ()) 0 0 () (CONSTANT (INTEGER 4 0 1 1 UNKNOWN ()) 0 '4') () 0 ()
() () 2 28)
46 'c_form_feed' '__iso_c_binding' '' 1 ((PARAMETER UNKNOWN-INTENT
UNKNOWN-PROC UNKNOWN UNKNOWN 0 0 IS_C_INTEROP IS_ISO_C) (CHARACTER 1 0 1
1 CHARACTER ((CONSTANT (INTEGER 4 0 0 0 INTEGER ()) 0 '1'))) 0 0 () (
CONSTANT (CHARACTER 1 0 1 1 UNKNOWN (())) 0 1 '\U0000000c') () 0 () () ()
2 37)
47 'c_funloc' '__iso_c_binding' '__iso_c_binding_c_funloc' 1 ((
PROCEDURE UNKNOWN-INTENT UNKNOWN-PROC UNKNOWN UNKNOWN 0 0 EXTERNAL
FUNCTION PURE IS_ISO_C) (DERIVED 2 0 0 0 DERIVED ()) 0 0 () () 47 () ()
() 2 49)
48 'c_funptr' '__iso_c_binding' '' 1 ((PROCEDURE UNKNOWN-INTENT
UNKNOWN-PROC UNKNOWN UNKNOWN 0 0 FUNCTION GENERIC) (REAL 4 0 0 0 REAL ())
0 0 () () 0 () () () 2 44)
49 'c_horizontal_tab' '__iso_c_binding' '' 1 ((PARAMETER UNKNOWN-INTENT
UNKNOWN-PROC UNKNOWN UNKNOWN 0 0 IS_C_INTEROP IS_ISO_C) (CHARACTER 1 0 1
1 CHARACTER ((CONSTANT (INTEGER 4 0 0 0 INTEGER ()) 0 '1'))) 0 0 () (
CONSTANT (CHARACTER 1 0 1 1 UNKNOWN (())) 0 1 '\U00000009') () 0 () () ()
2 40)
50 'c_int' '__iso_c_binding' '' 1 ((PARAMETER UNKNOWN-INTENT
UNKNOWN-PROC UNKNOWN UNKNOWN 0 0 IS_C_INTEROP IS_ISO_C) (INTEGER 4 0 1 1
INTEGER ()) 0 0 () (CONSTANT (INTEGER 4 0 1 1 UNKNOWN ()) 0 '4') () 0 ()
() () 2 0)
51 'c_int128_t' '__iso_c_binding' '' 1 ((PARAMETER UNKNOWN-INTENT
UNKNOWN-PROC UNKNOWN UNKNOWN 0 0 IS_C_INTEROP IS_ISO_C) (INTEGER 4 0 1 1
INTEGER ()) 0 0 () (CONSTANT (INTEGER 4 0 1 1 UNKNOWN ()) 0 '16') () 0 ()
() () 2 13)
52 'c_int16_t' '__iso_c_binding' '' 1 ((PARAMETER UNKNOWN-INTENT
UNKNOWN-PROC UNKNOWN UNKNOWN 0 0 IS_C_INTEROP IS_ISO_C) (INTEGER 4 0 1 1
INTEGER ()) 0 0 () (CONSTANT (INTEGER 4 0 1 1 UNKNOWN ()) 0 '2') () 0 ()
() () 2 10)
53 'c_int32_t' '__iso_c_binding' '' 1 ((PARAMETER UNKNOWN-INTENT
UNKNOWN-PROC UNKNOWN UNKNOWN 0 0 IS_C_INTEROP IS_ISO_C) (INTEGER 4 0 1 1
INTEGER ()) 0 0 () (CONSTANT (INTEGER 4 0 1 1 UNKNOWN ()) 0 '4') () 0 ()
() () 2 11)
54 'c_int64_t' '__iso_c_binding' '' 1 ((PARAMETER UNKNOWN-INTENT
UNKNOWN-PROC UNKNOWN UNKNOWN 0 0 IS_C_INTEROP IS_ISO_C) (INTEGER 4 0 1 1
INTEGER ()) 0 0 () (CONSTANT (INTEGER 4 0 1 1 UNKNOWN ()) 0 '8') () 0 ()
() () 2 12)
55 'c_int8_t' '__iso_c_binding' '' 1 ((PARAMETER UNKNOWN-INTENT
UNKNOWN-PROC UNKNOWN UNKNOWN 0 0 IS_C_INTEROP IS_ISO_C) (INTEGER 4 0 1 1
INTEGER ()) 0 0 () (CONSTANT (INTEGER 4 0 1 1 UNKNOWN ()) 0 '1') () 0 ()
() () 2 9)
56 'c_int_fast128_t' '__iso_c_binding' '' 1 ((PARAMETER UNKNOWN-INTENT
UNKNOWN-PROC UNKNOWN UNKNOWN 0 0 IS_C_INTEROP IS_ISO_C) (INTEGER 4 0 1 1
INTEGER ()) 0 0 () (CONSTANT (INTEGER 4 0 1 1 UNKNOWN ()) 0 '16') () 0 ()
() () 2 23)
57 'c_int_fast16_t' '__iso_c_binding' '' 1 ((PARAMETER UNKNOWN-INTENT
UNKNOWN-PROC UNKNOWN UNKNOWN 0 0 IS_C_INTEROP IS_ISO_C) (INTEGER 4 0 1 1
INTEGER ()) 0 0 () (CONSTANT (INTEGER 4 0 1 1 UNKNOWN ()) 0 '8') () 0 ()
() () 2 20)
58 'c_int_fast32_t' '__iso_c_binding' '' 1 ((PARAMETER UNKNOWN-INTENT
UNKNOWN-PROC UNKNOWN UNKNOWN 0 0 IS_C_INTEROP IS_ISO_C) (INTEGER 4 0 1 1
INTEGER ()) 0 0 () (CONSTANT (INTEGER 4 0 1 1 UNKNOWN ()) 0 '8') () 0 ()
() () 2 21)
59 'c_int_fast64_t' '__iso_c_binding' '' 1 ((PARAMETER UNKNOWN-INTENT
UNKNOWN-PROC UNKNOWN UNKNOWN 0 0 IS_C_INTEROP IS_ISO_C) (INTEGER 4 0 1 1
INTEGER ()) 0 0 () (CONSTANT (INTEGER 4 0 1 1 UNKNOWN ()) 0 '8') () 0 ()
() () 2 22)
60 'c_int_fast8_t' '__iso_c_binding' '' 1 ((PARAMETER UNKNOWN-INTENT
UNKNOWN-PROC UNKNOWN UNKNOWN 0 0 IS_C_INTEROP IS_ISO_C) (INTEGER 4 0 1 1
INTEGER ()) 0 0 () (CONSTANT (INTEGER 4 0 1 1 UNKNOWN ()) 0 '1') () 0 ()
() () 2 19)
61 'c_int_least128_t' '__iso_c_binding' '' 1 ((PARAMETER UNKNOWN-INTENT
UNKNOWN-PROC UNKNOWN UNKNOWN 0 0 IS_C_INTEROP IS_ISO_C) (INTEGER 4 0 1 1
INTEGER ()) 0 0 () (CONSTANT (INTEGER 4 0 1 1 UNKNOWN ()) 0 '16') () 0 ()
() () 2 18)
62 'c_int_least16_t' '__iso_c_binding' '' 1 ((PARAMETER UNKNOWN-INTENT
UNKNOWN-PROC UNKNOWN UNKNOWN 0 0 IS_C_INTEROP IS_ISO_C) (INTEGER 4 0 1 1
INTEGER ()) 0 0 () (CONSTANT (INTEGER 4 0 1 1 UNKNOWN ()) 0 '2') () 0 ()
() () 2 15)
63 'c_int_least32_t' '__iso_c_binding' '' 1 ((PARAMETER UNKNOWN-INTENT
UNKNOWN-PROC UNKNOWN UNKNOWN 0 0 IS_C_INTEROP IS_ISO_C) (INTEGER 4 0 1 1
INTEGER ()) 0 0 () (CONSTANT (INTEGER 4 0 1 1 UNKNOWN ()) 0 '4') () 0 ()
() () 2 16)
64 'c_int_least64_t' '__iso_c_binding' '' 1 ((PARAMETER UNKNOWN-INTENT
UNKNOWN-PROC UNKNOWN UNKNOWN 0 0 IS_C_INTEROP IS_ISO_C) (INTEGER 4 0 1 1
INTEGER ()) 0 0 () (CONSTANT (INTEGER 4 0 1 1 UNKNOWN ()) 0 '8') () 0 ()
() () 2 17)
65 'c_int_least8_t' '__iso_c_binding' '' 1 ((PARAMETER UNKNOWN-INTENT
UNKNOWN-PROC UNKNOWN UNKNOWN 0 0 IS_C_INTEROP IS_ISO_C) (INTEGER 4 0 1 1
INTEGER ()) 0 0 () (CONSTANT (INTEGER 4 0 1 1 UNKNOWN ()) 0 '1') () 0 ()
() () 2 14)
66 'c_intmax_t' '__iso_c_binding' '' 1 ((PARAMETER UNKNOWN-INTENT
UNKNOWN-PROC UNKNOWN UNKNOWN 0 0 IS_C_INTEROP IS_ISO_C) (INTEGER 4 0 1 1
INTEGER ()) 0 0 () (CONSTANT (INTEGER 4 0 1 1 UNKNOWN ()) 0 '8') () 0 ()
() () 2 4)
67 'c_intptr_t' '__iso_c_binding' '' 1 ((PARAMETER UNKNOWN-INTENT
UNKNOWN-PROC UNKNOWN UNKNOWN 0 0 IS_C_INTEROP IS_ISO_C) (INTEGER 4 0 1 1
INTEGER ()) 0 0 () (CONSTANT (INTEGER 4 0 1 1 UNKNOWN ()) 0 '8') () 0 ()
() () 2 5)
68 'c_loc' '__iso_c_binding' '__iso_c_binding_c_loc' 1 ((PROCEDURE
UNKNOWN-INTENT UNKNOWN-PROC UNKNOWN UNKNOWN 0 0 EXTERNAL FUNCTION PURE
IS_ISO_C) (DERIVED 3 0 0 0 DERIVED ()) 0 0 () () 68 () () () 2 48)
69 'c_long' '__iso_c_binding' '' 1 ((PARAMETER UNKNOWN-INTENT
UNKNOWN-PROC UNKNOWN UNKNOWN 0 0 IS_C_INTEROP IS_ISO_C) (INTEGER 4 0 1 1
INTEGER ()) 0 0 () (CONSTANT (INTEGER 4 0 1 1 UNKNOWN ()) 0 '8') () 0 ()
() () 2 2)
70 'c_long_double' '__iso_c_binding' '' 1 ((PARAMETER UNKNOWN-INTENT
UNKNOWN-PROC UNKNOWN UNKNOWN 0 0 IS_C_INTEROP IS_ISO_C) (INTEGER 4 0 1 1
REAL ()) 0 0 () (CONSTANT (INTEGER 4 0 1 1 UNKNOWN ()) 0 '10') () 0 () ()
() 2 26)
71 'c_long_double_complex' '__iso_c_binding' '' 1 ((PARAMETER
UNKNOWN-INTENT UNKNOWN-PROC UNKNOWN UNKNOWN 0 0 IS_C_INTEROP IS_ISO_C) (
INTEGER 4 0 1 1 COMPLEX ()) 0 0 () (CONSTANT (INTEGER 4 0 1 1 UNKNOWN ())
0 '10') () 0 () () () 2 30)
72 'c_long_long' '__iso_c_binding' '' 1 ((PARAMETER UNKNOWN-INTENT
UNKNOWN-PROC UNKNOWN UNKNOWN 0 0 IS_C_INTEROP IS_ISO_C) (INTEGER 4 0 1 1
INTEGER ()) 0 0 () (CONSTANT (INTEGER 4 0 1 1 UNKNOWN ()) 0 '8') () 0 ()
() () 2 3)
73 'c_new_line' '__iso_c_binding' '' 1 ((PARAMETER UNKNOWN-INTENT
UNKNOWN-PROC UNKNOWN UNKNOWN 0 0 IS_C_INTEROP IS_ISO_C) (CHARACTER 1 0 1
1 CHARACTER ((CONSTANT (INTEGER 4 0 0 0 INTEGER ()) 0 '1'))) 0 0 () (
CONSTANT (CHARACTER 1 0 1 1 UNKNOWN (())) 0 1 '\U0000000a') () 0 () () ()
2 38)
74 'c_null_char' '__iso_c_binding' '' 1 ((PARAMETER UNKNOWN-INTENT
UNKNOWN-PROC UNKNOWN UNKNOWN 0 0 IS_C_INTEROP IS_ISO_C) (CHARACTER 1 0 1
1 CHARACTER ((CONSTANT (INTEGER 4 0 0 0 INTEGER ()) 0 '1'))) 0 0 () (
CONSTANT (CHARACTER 1 0 1 1 UNKNOWN (())) 0 1 '\U00000000') () 0 () () ()
2 34)
75 'c_null_funptr' '__iso_c_binding' '' 1 ((PARAMETER UNKNOWN-INTENT
UNKNOWN-PROC UNKNOWN UNKNOWN 0 0 IS_BIND_C IS_C_INTEROP IS_ISO_C) (
DERIVED 2 0 1 1 UNKNOWN ()) 0 0 () (STRUCTURE (DERIVED 2 0 0 0 DERIVED ())
0 (((NULL (UNKNOWN 0 0 0 1 UNKNOWN ()) 0) ())) ()) () 0 () () () 2 45)
76 'c_null_ptr' '__iso_c_binding' '' 1 ((PARAMETER UNKNOWN-INTENT
UNKNOWN-PROC UNKNOWN UNKNOWN 0 0 IS_BIND_C IS_C_INTEROP IS_ISO_C) (
DERIVED 3 0 1 1 UNKNOWN ()) 0 0 () (STRUCTURE (DERIVED 3 0 0 0 DERIVED ())
0 (((NULL (UNKNOWN 0 0 0 1 UNKNOWN ()) 0) ())) ()) () 0 () () () 2 43)
77 'c_ptr' '__iso_c_binding' '' 1 ((PROCEDURE UNKNOWN-INTENT
UNKNOWN-PROC UNKNOWN UNKNOWN 0 0 FUNCTION GENERIC) (REAL 4 0 0 0 REAL ())
0 0 () () 0 () () () 2 42)
78 'c_ptrdiff_t' '__iso_c_binding' '' 1 ((PARAMETER UNKNOWN-INTENT
UNKNOWN-PROC UNKNOWN UNKNOWN 0 0 IS_C_INTEROP IS_ISO_C) (INTEGER 4 0 1 1
INTEGER ()) 0 0 () (CONSTANT (INTEGER 4 0 1 1 UNKNOWN ()) 0 '8') () 0 ()
() () 2 6)
79 'c_short' '__iso_c_binding' '' 1 ((PARAMETER UNKNOWN-INTENT
UNKNOWN-PROC UNKNOWN UNKNOWN 0 0 IS_C_INTEROP IS_ISO_C) (INTEGER 4 0 1 1
INTEGER ()) 0 0 () (CONSTANT (INTEGER 4 0 1 1 UNKNOWN ()) 0 '2') () 0 ()
() () 2 1)
80 'c_signed_char' '__iso_c_binding' '' 1 ((PARAMETER UNKNOWN-INTENT
UNKNOWN-PROC UNKNOWN UNKNOWN 0 0 IS_C_INTEROP IS_ISO_C) (INTEGER 4 0 1 1
INTEGER ()) 0 0 () (CONSTANT (INTEGER 4 0 1 1 UNKNOWN ()) 0 '1') () 0 ()
() () 2 8)
81 'c_size_t' '__iso_c_binding' '' 1 ((PARAMETER UNKNOWN-INTENT
UNKNOWN-PROC UNKNOWN UNKNOWN 0 0 IS_C_INTEROP IS_ISO_C) (INTEGER 4 0 1 1
INTEGER ()) 0 0 () (CONSTANT (INTEGER 4 0 1 1 UNKNOWN ()) 0 '8') () 0 ()
() () 2 7)
82 'c_sizeof' '__iso_c_binding' '' 1 ((PROCEDURE UNKNOWN-INTENT
UNKNOWN-PROC DECL UNKNOWN 0 0 INTRINSIC FUNCTION) (INTEGER 8 0 0 0
INTEGER ()) 83 0 (84) () 0 () () () 2 48)
85 'c_vertical_tab' '__iso_c_binding' '' 1 ((PARAMETER UNKNOWN-INTENT
UNKNOWN-PROC UNKNOWN UNKNOWN 0 0 IS_C_INTEROP IS_ISO_C) (CHARACTER 1 0 1
1 CHARACTER ((CONSTANT (INTEGER 4 0 0 0 INTEGER ()) 0 '1'))) 0 0 () (
CONSTANT (CHARACTER 1 0 1 1 UNKNOWN (())) 0 1 '\U0000000b') () 0 () () ()
2 41)
86 'passed' 'tstlite' '' 1 ((PROCEDURE UNKNOWN-INTENT MODULE-PROC DECL
UNKNOWN 0 0 SUBROUTINE) (UNKNOWN 0 0 0 0 UNKNOWN ()) 0 0 () () 0 () () ()
0 0)
5 'real_eq_kind_10' 'th5_misc_gen' '' 1 ((PROCEDURE UNKNOWN-INTENT
MODULE-PROC DECL UNKNOWN 0 0 FUNCTION IMPLICIT_PURE ALWAYS_EXPLICIT) (
LOGICAL 4 0 0 0 LOGICAL ()) 87 0 (88 89 90) () 5 () () () 0 0)
4 'real_eq_kind_16' 'th5_misc_gen' '' 1 ((PROCEDURE UNKNOWN-INTENT
MODULE-PROC DECL UNKNOWN 0 0 FUNCTION IMPLICIT_PURE ALWAYS_EXPLICIT) (
LOGICAL 4 0 0 0 LOGICAL ()) 91 0 (92 93 94) () 4 () () () 0 0)
7 'real_eq_kind_4' 'th5_misc_gen' '' 1 ((PROCEDURE UNKNOWN-INTENT
MODULE-PROC DECL UNKNOWN 0 0 FUNCTION IMPLICIT_PURE ALWAYS_EXPLICIT) (
LOGICAL 4 0 0 0 LOGICAL ()) 95 0 (96 97 98) () 7 () () () 0 0)
6 'real_eq_kind_8' 'th5_misc_gen' '' 1 ((PROCEDURE UNKNOWN-INTENT
MODULE-PROC DECL UNKNOWN 0 0 FUNCTION IMPLICIT_PURE ALWAYS_EXPLICIT) (
LOGICAL 4 0 0 0 LOGICAL ()) 99 0 (100 101 102) () 6 () () () 0 0)
103 'test_begin' 'tstlite' '' 1 ((PROCEDURE UNKNOWN-INTENT MODULE-PROC
DECL UNKNOWN 0 0 SUBROUTINE) (UNKNOWN 0 0 0 0 UNKNOWN ()) 104 0 (105) ()
0 () () () 0 0)
106 'th5_misc_gen' 'th5_misc_gen' '' 1 ((MODULE UNKNOWN-INTENT
UNKNOWN-PROC UNKNOWN UNKNOWN 0 0) (UNKNOWN 0 0 0 0 UNKNOWN ()) 0 0 () ()
0 () () () 0 0)
107 'tstlite' 'tstlite' '' 1 ((MODULE UNKNOWN-INTENT UNKNOWN-PROC
UNKNOWN UNKNOWN 0 0) (UNKNOWN 0 0 0 0 UNKNOWN ()) 0 0 () () 0 () () () 0
0)
9 'verify_character' 'th5_misc_gen' '' 1 ((PROCEDURE UNKNOWN-INTENT
MODULE-PROC DECL UNKNOWN 0 0 SUBROUTINE) (UNKNOWN 0 0 0 0 UNKNOWN ())
108 0 (109 110 111 112) () 0 () () () 0 0)
14 'verify_integer_kind_1' 'th5_misc_gen' '' 1 ((PROCEDURE
UNKNOWN-INTENT MODULE-PROC DECL UNKNOWN 0 0 SUBROUTINE) (UNKNOWN 0 0 0 0
UNKNOWN ()) 113 0 (114 115 116 117) () 0 () () () 0 0)
10 'verify_integer_kind_16' 'th5_misc_gen' '' 1 ((PROCEDURE
UNKNOWN-INTENT MODULE-PROC DECL UNKNOWN 0 0 SUBROUTINE) (UNKNOWN 0 0 0 0
UNKNOWN ()) 118 0 (119 120 121 122) () 0 () () () 0 0)
13 'verify_integer_kind_2' 'th5_misc_gen' '' 1 ((PROCEDURE
UNKNOWN-INTENT MODULE-PROC DECL UNKNOWN 0 0 SUBROUTINE) (UNKNOWN 0 0 0 0
UNKNOWN ()) 123 0 (124 125 126 127) () 0 () () () 0 0)
12 'verify_integer_kind_4' 'th5_misc_gen' '' 1 ((PROCEDURE
UNKNOWN-INTENT MODULE-PROC DECL UNKNOWN 0 0 SUBROUTINE) (UNKNOWN 0 0 0 0
UNKNOWN ()) 128 0 (129 130 131 132) () 0 () () () 0 0)
11 'verify_integer_kind_8' 'th5_misc_gen' '' 1 ((PROCEDURE
UNKNOWN-INTENT MODULE-PROC DECL UNKNOWN 0 0 SUBROUTINE) (UNKNOWN 0 0 0 0
UNKNOWN ()) 133 0 (134 135 136 137) () 0 () () () 0 0)
8 'verify_logical' 'th5_misc_gen' '' 1 ((PROCEDURE UNKNOWN-INTENT
MODULE-PROC DECL UNKNOWN 0 0 SUBROUTINE) (UNKNOWN 0 0 0 0 UNKNOWN ())
138 0 (139 140 141 142) () 0 () () () 0 0)
16 'verify_real_kind_10' 'th5_misc_gen' '' 1 ((PROCEDURE UNKNOWN-INTENT
MODULE-PROC DECL UNKNOWN 0 0 SUBROUTINE) (UNKNOWN 0 0 0 0 UNKNOWN ())
143 0 (144 145 146 147) () 0 () () () 0 0)
15 'verify_real_kind_16' 'th5_misc_gen' '' 1 ((PROCEDURE UNKNOWN-INTENT
MODULE-PROC DECL UNKNOWN 0 0 SUBROUTINE) (UNKNOWN 0 0 0 0 UNKNOWN ())
148 0 (149 150 151 152) () 0 () () () 0 0)
18 'verify_real_kind_4' 'th5_misc_gen' '' 1 ((PROCEDURE UNKNOWN-INTENT
MODULE-PROC DECL UNKNOWN 0 0 SUBROUTINE) (UNKNOWN 0 0 0 0 UNKNOWN ())
153 0 (154 155 156 157) () 0 () () () 0 0)
17 'verify_real_kind_8' 'th5_misc_gen' '' 1 ((PROCEDURE UNKNOWN-INTENT
MODULE-PROC DECL UNKNOWN 0 0 SUBROUTINE) (UNKNOWN 0 0 0 0 UNKNOWN ())
158 0 (159 160 161 162) () 0 () () () 0 0)
25 'C_ptr_1' '__iso_c_binding' '' 24 ((DERIVED IN UNKNOWN-PROC UNKNOWN
UNKNOWN 0 0 VALUE DUMMY) (DERIVED 3 0 0 0 DERIVED ()) 0 0 () () 0 () ()
() 0 0 0)
26 'C_ptr_2' '__iso_c_binding' '' 24 ((DERIVED IN UNKNOWN-PROC UNKNOWN
UNKNOWN 0 0 OPTIONAL VALUE DUMMY) (DERIVED 3 0 0 0 DERIVED ()) 0 0 () ()
0 () () () 0 0 0)
35 'Cptr' '__iso_c_binding' '' 34 ((DERIVED IN UNKNOWN-PROC UNKNOWN
UNKNOWN 0 0 VALUE DUMMY) (DERIVED 3 0 0 0 DERIVED ()) 0 0 () () 0 () ()
() 0 0 0)
36 'fptr' '__iso_c_binding' '' 34 ((VARIABLE UNKNOWN-INTENT UNKNOWN-PROC
UNKNOWN UNKNOWN 0 0 POINTER DUMMY) (VOID 0 0 0 0 VOID ()) 0 0 () () 0 ()
() () 0 0)
37 'shape' '__iso_c_binding' '' 34 ((VARIABLE IN UNKNOWN-PROC UNKNOWN
UNKNOWN 0 0 DIMENSION OPTIONAL DUMMY) (VOID 4 0 0 0 VOID ()) 0 0 () (1 0
ASSUMED_SHAPE (CONSTANT (INTEGER 4 0 0 0 INTEGER ()) 0 '1') ()) 0 () ()
() 0 0)
40 'Cptr' '__iso_c_binding' '' 39 ((DERIVED IN UNKNOWN-PROC UNKNOWN
UNKNOWN 0 0 VALUE DUMMY) (DERIVED 2 0 0 0 DERIVED ()) 0 0 () () 0 () ()
() 0 0 0)
41 'fptr' '__iso_c_binding' '' 39 ((VARIABLE UNKNOWN-INTENT UNKNOWN-PROC
UNKNOWN UNKNOWN 0 0 DUMMY PROC_POINTER) (VOID 0 0 0 0 VOID ()) 0 0 () ()
0 () () () 0 0)
84 'x' '' '' 83 ((VARIABLE IN UNKNOWN-PROC UNKNOWN UNKNOWN 0 0 DUMMY) (
UNKNOWN 0 0 0 0 UNKNOWN ()) 0 0 () () 0 () () () 0 0)
88 'a' '' '' 87 ((VARIABLE IN UNKNOWN-PROC UNKNOWN UNKNOWN 0 0 DUMMY) (
REAL 10 0 0 0 REAL ()) 0 0 () () 0 () () () 0 0)
89 'b' '' '' 87 ((VARIABLE IN UNKNOWN-PROC UNKNOWN UNKNOWN 0 0 DUMMY) (
REAL 10 0 0 0 REAL ()) 0 0 () () 0 () () () 0 0)
90 'ulp' '' '' 87 ((VARIABLE IN UNKNOWN-PROC UNKNOWN UNKNOWN 0 0
OPTIONAL DUMMY) (INTEGER 4 0 0 0 INTEGER ()) 0 0 () () 0 () () () 0 0)
92 'a' '' '' 91 ((VARIABLE IN UNKNOWN-PROC UNKNOWN UNKNOWN 0 0 DUMMY) (
REAL 16 0 0 0 REAL ()) 0 0 () () 0 () () () 0 0)
93 'b' '' '' 91 ((VARIABLE IN UNKNOWN-PROC UNKNOWN UNKNOWN 0 0 DUMMY) (
REAL 16 0 0 0 REAL ()) 0 0 () () 0 () () () 0 0)
94 'ulp' '' '' 91 ((VARIABLE IN UNKNOWN-PROC UNKNOWN UNKNOWN 0 0
OPTIONAL DUMMY) (INTEGER 4 0 0 0 INTEGER ()) 0 0 () () 0 () () () 0 0)
96 'a' '' '' 95 ((VARIABLE IN UNKNOWN-PROC UNKNOWN UNKNOWN 0 0 DUMMY) (
REAL 4 0 0 0 REAL ()) 0 0 () () 0 () () () 0 0)
97 'b' '' '' 95 ((VARIABLE IN UNKNOWN-PROC UNKNOWN UNKNOWN 0 0 DUMMY) (
REAL 4 0 0 0 REAL ()) 0 0 () () 0 () () () 0 0)
98 'ulp' '' '' 95 ((VARIABLE IN UNKNOWN-PROC UNKNOWN UNKNOWN 0 0
OPTIONAL DUMMY) (INTEGER 4 0 0 0 INTEGER ()) 0 0 () () 0 () () () 0 0)
100 'a' '' '' 99 ((VARIABLE IN UNKNOWN-PROC UNKNOWN UNKNOWN 0 0 DUMMY) (
REAL 8 0 0 0 REAL ()) 0 0 () () 0 () () () 0 0)
101 'b' '' '' 99 ((VARIABLE IN UNKNOWN-PROC UNKNOWN UNKNOWN 0 0 DUMMY) (
REAL 8 0 0 0 REAL ()) 0 0 () () 0 () () () 0 0)
102 'ulp' '' '' 99 ((VARIABLE IN UNKNOWN-PROC UNKNOWN UNKNOWN 0 0
OPTIONAL DUMMY) (INTEGER 4 0 0 0 INTEGER ()) 0 0 () () 0 () () () 0 0)
105 'string' '' '' 104 ((VARIABLE IN UNKNOWN-PROC UNKNOWN UNKNOWN 0 0
DUMMY) (CHARACTER 1 0 0 0 CHARACTER (())) 0 0 () () 0 () () () 0 0)
109 'string' '' '' 108 ((VARIABLE UNKNOWN-INTENT UNKNOWN-PROC UNKNOWN
UNKNOWN 0 0 DUMMY) (CHARACTER 1 0 0 0 CHARACTER (())) 0 0 () () 0 () ()
() 0 0)
110 'value' '' '' 108 ((VARIABLE UNKNOWN-INTENT UNKNOWN-PROC UNKNOWN
UNKNOWN 0 0 DUMMY) (CHARACTER 1 0 0 0 CHARACTER (())) 0 0 () () 0 () ()
() 0 0)
111 'correct_value' '' '' 108 ((VARIABLE UNKNOWN-INTENT UNKNOWN-PROC
UNKNOWN UNKNOWN 0 0 DUMMY) (CHARACTER 1 0 0 0 CHARACTER (())) 0 0 () ()
0 () () () 0 0)
112 'total_error' '' '' 108 ((VARIABLE UNKNOWN-INTENT UNKNOWN-PROC
UNKNOWN UNKNOWN 0 0 DUMMY) (INTEGER 4 0 0 0 INTEGER ()) 0 0 () () 0 () ()
() 0 0)
114 'string' '' '' 113 ((VARIABLE UNKNOWN-INTENT UNKNOWN-PROC UNKNOWN
UNKNOWN 0 0 DUMMY) (CHARACTER 1 0 0 0 CHARACTER (())) 0 0 () () 0 () ()
() 0 0)
115 'value' '' '' 113 ((VARIABLE UNKNOWN-INTENT UNKNOWN-PROC UNKNOWN
UNKNOWN 0 0 DUMMY) (INTEGER 1 0 0 0 INTEGER ()) 0 0 () () 0 () () () 0 0)
116 'correct_value' '' '' 113 ((VARIABLE UNKNOWN-INTENT UNKNOWN-PROC
UNKNOWN UNKNOWN 0 0 DUMMY) (INTEGER 1 0 0 0 INTEGER ()) 0 0 () () 0 () ()
() 0 0)
117 'total_error' '' '' 113 ((VARIABLE UNKNOWN-INTENT UNKNOWN-PROC
UNKNOWN UNKNOWN 0 0 DUMMY) (INTEGER 4 0 0 0 INTEGER ()) 0 0 () () 0 () ()
() 0 0)
119 'string' '' '' 118 ((VARIABLE UNKNOWN-INTENT UNKNOWN-PROC UNKNOWN
UNKNOWN 0 0 DUMMY) (CHARACTER 1 0 0 0 CHARACTER (())) 0 0 () () 0 () ()
() 0 0)
120 'value' '' '' 118 ((VARIABLE UNKNOWN-INTENT UNKNOWN-PROC UNKNOWN
UNKNOWN 0 0 DUMMY) (INTEGER 16 0 0 0 INTEGER ()) 0 0 () () 0 () () () 0
0)
121 'correct_value' '' '' 118 ((VARIABLE UNKNOWN-INTENT UNKNOWN-PROC
UNKNOWN UNKNOWN 0 0 DUMMY) (INTEGER 16 0 0 0 INTEGER ()) 0 0 () () 0 ()
() () 0 0)
122 'total_error' '' '' 118 ((VARIABLE UNKNOWN-INTENT UNKNOWN-PROC
UNKNOWN UNKNOWN 0 0 DUMMY) (INTEGER 4 0 0 0 INTEGER ()) 0 0 () () 0 () ()
() 0 0)
124 'string' '' '' 123 ((VARIABLE UNKNOWN-INTENT UNKNOWN-PROC UNKNOWN
UNKNOWN 0 0 DUMMY) (CHARACTER 1 0 0 0 CHARACTER (())) 0 0 () () 0 () ()
() 0 0)
125 'value' '' '' 123 ((VARIABLE UNKNOWN-INTENT UNKNOWN-PROC UNKNOWN
UNKNOWN 0 0 DUMMY) (INTEGER 2 0 0 0 INTEGER ()) 0 0 () () 0 () () () 0 0)
126 'correct_value' '' '' 123 ((VARIABLE UNKNOWN-INTENT UNKNOWN-PROC
UNKNOWN UNKNOWN 0 0 DUMMY) (INTEGER 2 0 0 0 INTEGER ()) 0 0 () () 0 () ()
() 0 0)
127 'total_error' '' '' 123 ((VARIABLE UNKNOWN-INTENT UNKNOWN-PROC
UNKNOWN UNKNOWN 0 0 DUMMY) (INTEGER 4 0 0 0 INTEGER ()) 0 0 () () 0 () ()
() 0 0)
129 'string' '' '' 128 ((VARIABLE UNKNOWN-INTENT UNKNOWN-PROC UNKNOWN
UNKNOWN 0 0 DUMMY) (CHARACTER 1 0 0 0 CHARACTER (())) 0 0 () () 0 () ()
() 0 0)
130 'value' '' '' 128 ((VARIABLE UNKNOWN-INTENT UNKNOWN-PROC UNKNOWN
UNKNOWN 0 0 DUMMY) (INTEGER 4 0 0 0 INTEGER ()) 0 0 () () 0 () () () 0 0)
131 'correct_value' '' '' 128 ((VARIABLE UNKNOWN-INTENT UNKNOWN-PROC
UNKNOWN UNKNOWN 0 0 DUMMY) (INTEGER 4 0 0 0 INTEGER ()) 0 0 () () 0 () ()
() 0 0)
132 'total_error' '' '' 128 ((VARIABLE UNKNOWN-INTENT UNKNOWN-PROC
UNKNOWN UNKNOWN 0 0 DUMMY) (INTEGER 4 0 0 0 INTEGER ()) 0 0 () () 0 () ()
() 0 0)
134 'string' '' '' 133 ((VARIABLE UNKNOWN-INTENT UNKNOWN-PROC UNKNOWN
UNKNOWN 0 0 DUMMY) (CHARACTER 1 0 0 0 CHARACTER (())) 0 0 () () 0 () ()
() 0 0)
135 'value' '' '' 133 ((VARIABLE UNKNOWN-INTENT UNKNOWN-PROC UNKNOWN
UNKNOWN 0 0 DUMMY) (INTEGER 8 0 0 0 INTEGER ()) 0 0 () () 0 () () () 0 0)
136 'correct_value' '' '' 133 ((VARIABLE UNKNOWN-INTENT UNKNOWN-PROC
UNKNOWN UNKNOWN 0 0 DUMMY) (INTEGER 8 0 0 0 INTEGER ()) 0 0 () () 0 () ()
() 0 0)
137 'total_error' '' '' 133 ((VARIABLE UNKNOWN-INTENT UNKNOWN-PROC
UNKNOWN UNKNOWN 0 0 DUMMY) (INTEGER 4 0 0 0 INTEGER ()) 0 0 () () 0 () ()
() 0 0)
139 'string' '' '' 138 ((VARIABLE UNKNOWN-INTENT UNKNOWN-PROC UNKNOWN
UNKNOWN 0 0 DUMMY) (CHARACTER 1 0 0 0 CHARACTER (())) 0 0 () () 0 () ()
() 0 0)
140 'value' '' '' 138 ((VARIABLE UNKNOWN-INTENT UNKNOWN-PROC UNKNOWN
UNKNOWN 0 0 DUMMY) (LOGICAL 4 0 0 0 LOGICAL ()) 0 0 () () 0 () () () 0 0)
141 'correct_value' '' '' 138 ((VARIABLE UNKNOWN-INTENT UNKNOWN-PROC
UNKNOWN UNKNOWN 0 0 DUMMY) (LOGICAL 4 0 0 0 LOGICAL ()) 0 0 () () 0 () ()
() 0 0)
142 'total_error' '' '' 138 ((VARIABLE UNKNOWN-INTENT UNKNOWN-PROC
UNKNOWN UNKNOWN 0 0 DUMMY) (INTEGER 4 0 0 0 INTEGER ()) 0 0 () () 0 () ()
() 0 0)
144 'string' '' '' 143 ((VARIABLE UNKNOWN-INTENT UNKNOWN-PROC UNKNOWN
UNKNOWN 0 0 DUMMY) (CHARACTER 1 0 0 0 CHARACTER (())) 0 0 () () 0 () ()
() 0 0)
145 'value' '' '' 143 ((VARIABLE UNKNOWN-INTENT UNKNOWN-PROC UNKNOWN
UNKNOWN 0 0 DUMMY) (REAL 10 0 0 0 REAL ()) 0 0 () () 0 () () () 0 0)
146 'correct_value' '' '' 143 ((VARIABLE UNKNOWN-INTENT UNKNOWN-PROC
UNKNOWN UNKNOWN 0 0 DUMMY) (REAL 10 0 0 0 REAL ()) 0 0 () () 0 () () ()
0 0)
147 'total_error' '' '' 143 ((VARIABLE UNKNOWN-INTENT UNKNOWN-PROC
UNKNOWN UNKNOWN 0 0 DUMMY) (INTEGER 4 0 0 0 INTEGER ()) 0 0 () () 0 () ()
() 0 0)
149 'string' '' '' 148 ((VARIABLE UNKNOWN-INTENT UNKNOWN-PROC UNKNOWN
UNKNOWN 0 0 DUMMY) (CHARACTER 1 0 0 0 CHARACTER (())) 0 0 () () 0 () ()
() 0 0)
150 'value' '' '' 148 ((VARIABLE UNKNOWN-INTENT UNKNOWN-PROC UNKNOWN
UNKNOWN 0 0 DUMMY) (REAL 16 0 0 0 REAL ()) 0 0 () () 0 () () () 0 0)
151 'correct_value' '' '' 148 ((VARIABLE UNKNOWN-INTENT UNKNOWN-PROC
UNKNOWN UNKNOWN 0 0 DUMMY) (REAL 16 0 0 0 REAL ()) 0 0 () () 0 () () ()
0 0)
152 'total_error' '' '' 148 ((VARIABLE UNKNOWN-INTENT UNKNOWN-PROC
UNKNOWN UNKNOWN 0 0 DUMMY) (INTEGER 4 0 0 0 INTEGER ()) 0 0 () () 0 () ()
() 0 0)
154 'string' '' '' 153 ((VARIABLE UNKNOWN-INTENT UNKNOWN-PROC UNKNOWN
UNKNOWN 0 0 DUMMY) (CHARACTER 1 0 0 0 CHARACTER (())) 0 0 () () 0 () ()
() 0 0)
155 'value' '' '' 153 ((VARIABLE UNKNOWN-INTENT UNKNOWN-PROC UNKNOWN
UNKNOWN 0 0 DUMMY) (REAL 4 0 0 0 REAL ()) 0 0 () () 0 () () () 0 0)
156 'correct_value' '' '' 153 ((VARIABLE UNKNOWN-INTENT UNKNOWN-PROC
UNKNOWN UNKNOWN 0 0 DUMMY) (REAL 4 0 0 0 REAL ()) 0 0 () () 0 () () () 0
0)
157 'total_error' '' '' 153 ((VARIABLE UNKNOWN-INTENT UNKNOWN-PROC
UNKNOWN UNKNOWN 0 0 DUMMY) (INTEGER 4 0 0 0 INTEGER ()) 0 0 () () 0 () ()
() 0 0)
159 'string' '' '' 158 ((VARIABLE UNKNOWN-INTENT UNKNOWN-PROC UNKNOWN
UNKNOWN 0 0 DUMMY) (CHARACTER 1 0 0 0 CHARACTER (())) 0 0 () () 0 () ()
() 0 0)
160 'value' '' '' 158 ((VARIABLE UNKNOWN-INTENT UNKNOWN-PROC UNKNOWN
UNKNOWN 0 0 DUMMY) (REAL 8 0 0 0 REAL ()) 0 0 () () 0 () () () 0 0)
161 'correct_value' '' '' 158 ((VARIABLE UNKNOWN-INTENT UNKNOWN-PROC
UNKNOWN UNKNOWN 0 0 DUMMY) (REAL 8 0 0 0 REAL ()) 0 0 () () 0 () () () 0
0)
162 'total_error' '' '' 158 ((VARIABLE UNKNOWN-INTENT UNKNOWN-PROC
UNKNOWN UNKNOWN 0 0 DUMMY) (INTEGER 4 0 0 0 INTEGER ()) 0 0 () () 0 () ()
() 0 0)
)

('C_funptr' 0 2 'C_ptr' 0 3 '__iso_c_binding' 0 21 'c_alert' 0 22
'c_associated' 0 23 'c_backspace' 0 27 'c_bool' 0 28 'c_carriage_return'
0 29 'c_char' 0 30 'c_double' 0 31 'c_double_complex' 0 32 'c_f_pointer'
0 33 'c_f_procpointer' 0 38 'c_float' 0 42 'c_float128' 0 43
'c_float128_complex' 0 44 'c_float_complex' 0 45 'c_form_feed' 0 46
'c_funloc' 0 47 'c_funptr' 0 48 'c_horizontal_tab' 0 49 'c_int' 0 50
'c_int128_t' 0 51 'c_int16_t' 0 52 'c_int32_t' 0 53 'c_int64_t' 0 54
'c_int8_t' 0 55 'c_int_fast128_t' 0 56 'c_int_fast16_t' 0 57
'c_int_fast32_t' 0 58 'c_int_fast64_t' 0 59 'c_int_fast8_t' 0 60
'c_int_least128_t' 0 61 'c_int_least16_t' 0 62 'c_int_least32_t' 0 63
'c_int_least64_t' 0 64 'c_int_least8_t' 0 65 'c_intmax_t' 0 66
'c_intptr_t' 0 67 'c_loc' 0 68 'c_long' 0 69 'c_long_double' 0 70
'c_long_double_complex' 0 71 'c_long_long' 0 72 'c_new_line' 0 73
'c_null_char' 0 74 'c_null_funptr' 0 75 'c_null_ptr' 0 76 'c_ptr' 0 77
'c_ptrdiff_t' 0 78 'c_short' 0 79 'c_signed_char' 0 80 'c_size_t' 0 81
'c_sizeof' 0 82 'c_vertical_tab' 0 85 'passed' 0 86 'real_eq_kind_10' 0
5 'real_eq_kind_16' 0 4 'real_eq_kind_4' 0 7 'real_eq_kind_8' 0 6
'test_begin' 0 103 'th5_misc_gen' 0 106 'tstlite' 0 107 'verify_character'
0 9 'verify_integer_kind_1' 0 14 'verify_integer_kind_16' 0 10
'verify_integer_kind_2' 0 13 'verify_integer_kind_4' 0 12
'verify_integer_kind_8' 0 11 'verify_logical' 0 8 'verify_real_kind_10'
0 16 'verify_real_kind_16' 0 15 'verify_real_kind_4' 0 18
'verify_real_kind_8' 0 17)
